ID,mfe
cds0,-14
cds1,-884
cds10,-242.7
cds100,-354
cds1000,-459.7
cds1001,-376.8
cds1002,-117.6
cds1003,-404.3
cds1004,-596.7
cds1005,-734.9
cds1006,-357.1
cds1007,-328.5
cds1008,-76.4
cds1009,-84.9
cds101,-412.7
cds1010,-272.9
cds1011,-302.6
cds1012,-223.6
cds1013,-207.3
cds1014,-183.1
cds1015,-262.1
cds1016,-95.4
cds1017,-101.6
cds1018,-171.9
cds1019,-119.9
cds102,-466.2
cds1020,-137.8
cds1021,-74.8
cds1022,-72.5
cds1023,-184.2
cds1024,-481.2
cds1025,-314.9
cds1026,-470.5
cds1027,-980
cds1028,-70.8
cds1029,-97.4
cds103,-145.6
cds1030,-410.5
cds1031,-310.5
cds1032,-344.1
cds1033,-163.8
cds1034,-182.1
cds1035,-27.1
cds1036,-371.9
cds1037,-71.3
cds1038,-79.7
cds1039,-336.87
cds104,-289.5
cds1040,-145.5
cds1041,-194.3
cds1042,-455.5
cds1043,-185.7
cds1044,-224.7
cds1045,-358.1
cds1046,-566.5
cds1047,-113.2
cds1048,-89.6
cds1049,-229.3
cds105,-189
cds1050,-131.2
cds1051,-138.2
cds1052,-243.5
cds1053,-387.9
cds1054,-307.6
cds1055,-257
cds1056,-244.5
cds1057,-385.3
cds1058,-311.3
cds1059,-579.8
cds106,-311.2
cds1060,-293.4
cds1061,-1151.9
cds1062,-85.2
cds1063,-340.5
cds1064,-181.2
cds1065,-176.9
cds1066,-51
cds1067,-411.6
cds1068,-358.8
cds1069,-369.2
cds107,-497.9
cds1070,-265.1
cds1071,-64.9
cds1072,-473.8
cds1073,-274.5
cds1074,-336.9
cds1075,-233.2
cds1076,-355.9
cds1077,-257
cds1078,-521.7
cds1079,-682.6
cds108,-273.8
cds1080,-112.1
cds1081,-126.7
cds1082,-230.7
cds1083,-292.8
cds1084,-372.5
cds1085,-151.3
cds1086,-437.7
cds1087,-186
cds1088,-188.6
cds1089,-68.6
cds109,-930
cds1090,-329.1
cds1091,-1279.3
cds1092,-341.2
cds1093,-449.2
cds1094,-255.4
cds1095,-466.8
cds1096,-339.6
cds1097,-242.6
cds1098,-190.1
cds1099,-116.8
cds11,-115.4
cds110,-730.4
cds1100,-328.4
cds1101,-282.8
cds1102,-257.3
cds1103,-366.6
cds1104,-435
cds1105,-399.8
cds1106,-524.7
cds1107,-186.8
cds1108,-457.5
cds1109,-233.4
cds111,-492.4
cds1110,-376.3
cds1111,-142.5
cds1112,-198.5
cds1113,-398.9
cds1114,-139.9
cds1115,-127.4
cds1116,-206.9
cds1117,-321
cds1118,-66.1
cds1119,-59.8
cds112,-588.7
cds1120,-95.2
cds1121,-180.1
cds1122,-49.5
cds1123,-183.4
cds1124,-95.6
cds1125,-83.2
cds1126,-407.7
cds1127,-70.3
cds1128,-150.6
cds1129,-310.2
cds113,-969.1
cds1130,-214.6
cds1131,-223.6
cds1132,-117.5
cds1133,-182
cds1134,-138.1
cds1135,-156.5
cds1136,-192.5
cds1137,-42.9
cds1138,-65.67
cds1139,-90.4
cds114,-113.6
cds1140,-226.9
cds1141,-331.6
cds1142,-56.2
cds1143,-55.6
cds1144,-56.2
cds1145,-54.8
cds1146,-430.2
cds1147,-47.4
cds1148,-18.2
cds1149,-89.9
cds115,-204
cds1150,-127.2
cds1151,-24.2
cds1152,-36
cds1153,-72.8
cds1154,-66.2
cds1155,-279.8
cds1156,-229.8
cds1157,-100.8
cds1158,-92.4
cds1159,-80.1
cds116,-274.4
cds1160,-237.7
cds1161,-122.6
cds1162,-224.7
cds1163,-128.7
cds1164,-442.9
cds1165,-188
cds1166,-555.7
cds1167,-230
cds1168,-478.8
cds1169,-497.9
cds117,-91
cds1170,-450.1
cds1171,-639.6
cds1172,-308.1
cds1173,-206.6
cds1174,-227.1
cds1175,-86.8
cds1176,-104.1
cds1177,-516.4
cds1178,-450.3
cds1179,-230.4
cds118,-570.5
cds1180,-358.5
cds1181,-649.6
cds1182,-919
cds1183,-353.6
cds1184,-193.7
cds1185,-99.4
cds1186,-629.7
cds1187,-329.6
cds1188,-325.1
cds1189,-193.4
cds119,-881.5
cds1190,-469.3
cds1191,-377.3
cds1192,-324.9
cds1193,-113.3
cds1194,-261.8
cds1195,-295.5
cds1196,-33.7
cds1197,-35
cds1198,-33.7
cds1199,-382.8
cds12,-625.5
cds120,-176.4
cds1200,-58.1
cds1201,-266.4
cds1202,-116.3
cds1203,-458
cds1204,-209.3
cds1205,-658.5
cds1206,-509.9
cds1207,-1398.9
cds1208,-560
cds1209,-284.7
cds121,-208
cds1210,-245.2
cds1211,-31.6
cds1212,-255.6
cds1213,-137.7
cds1214,-296.7
cds1215,-337
cds1216,-274.2
cds1217,-108.7
cds1218,-170
cds1219,-188.7
cds122,-286.7
cds1220,-873.6
cds1221,-205.9
cds1222,-478.1
cds1223,-281.9
cds1224,-328
cds1225,-339.8
cds1226,-342.1
cds1227,-102.5
cds1228,-499.6
cds1229,-56.8
cds123,-251.8
cds1230,-335.1
cds1231,-81
cds1232,-228.6
cds1233,-128.5
cds1234,-165.4
cds1235,-248.3
cds1236,-205.2
cds1237,-113.2
cds1238,-114.4
cds1239,-48.2
cds124,-138.3
cds1240,-277.4
cds1241,-422
cds1242,-485.2
cds1243,-611.1
cds1244,-536.4
cds1245,-6.8
cds1246,-325.2
cds1247,-199.6
cds1248,-609.5
cds1249,-324.9
cds125,-390.2
cds1250,-198.6
cds1251,-247.4
cds1252,-348.5
cds1253,-65.3
cds1254,-916.7
cds1255,-289
cds1256,-45.3
cds1257,-44.1
cds1258,-957.4
cds1259,-188.4
cds126,-123.5
cds1260,-255.5
cds1261,-101.5
cds1262,-418.2
cds1263,-263.7
cds1264,-94.3
cds1265,-66
cds1266,-227.8
cds1267,-40.5
cds1268,-616.5
cds1269,-18.4
cds127,-276.4
cds1270,-650.7
cds1271,-343.5
cds1272,-271.1
cds1273,-113.1
cds1274,-275.6
cds1275,-318.6
cds1276,-338.3
cds1277,-321
cds1278,-577.7
cds1279,-55.8
cds128,-300
cds1280,-488.9
cds1281,-524.6
cds1282,-269.5
cds1283,-187.1
cds1284,-578.6
cds1285,-487.3
cds1286,-500.8
cds1287,-330.3
cds1288,-203.8
cds1289,-61.9
cds129,-280.9
cds1290,-119.6
cds1291,-84
cds1292,-100.4
cds1293,-478.2
cds1294,-419
cds1295,-320.3
cds1296,-290.6
cds1297,-384.8
cds1298,-276.4
cds1299,-387.4
cds13,-407.2
cds130,-276
cds1300,-833.2
cds1301,-251.4
cds1302,-27.8
cds1303,-292.1
cds1304,-299.1
cds1305,-526.1
cds1306,-401.7
cds1307,-534.8
cds1308,-161.2
cds1309,-365.8
cds131,-181.5
cds1310,-246
cds1311,-29.1
cds1312,-11.3
cds1313,-257
cds1314,-260
cds1315,-503.8
cds1316,-293
cds1317,-346.7
cds1318,-80.8
cds1319,-307.5
cds132,-158.7
cds1320,-239
cds1321,-171.8
cds1322,-494.4
cds1323,-500.3
cds1324,-490
cds1325,-286.4
cds1326,-190.5
cds1327,-370.1
cds1328,-324.2
cds1329,-497.6
cds133,-156.3
cds1330,-298.5
cds1331,-332.8
cds1332,-57.9
cds1333,-36.1
cds1334,-42.1
cds1335,-237.3
cds1336,-772
cds1337,-63.8
cds1338,-26
cds1339,-57.5
cds134,-762.4
cds1340,-115.4
cds1341,-37.6
cds1342,-32.1
cds1343,-119.3
cds1344,-83.6
cds1345,-132.2
cds1346,-275.6
cds1347,-250.7
cds1348,-138.9
cds1349,-147.3
cds135,-210.5
cds1350,-59
cds1351,-404.5
cds1352,-71.4
cds1353,-121.2
cds1354,-262.9
cds1355,-73.1
cds1356,-340.9
cds1357,-1197.9
cds1358,-180.7
cds1359,-157.7
cds136,-151.3
cds1360,-37.2
cds1361,-0.58
cds1362,-114.6
cds1363,-341.4
cds1364,-1259.5
cds1365,-94.4
cds1366,-122.2
cds1367,-317.2
cds1368,-944.8
cds1369,-35.7
cds137,-147.7
cds1370,-89.9
cds1371,-286.1
cds1372,-539.6
cds1373,-722.3
cds1374,-765.1
cds1375,-319.5
cds1376,-95.3
cds1377,-262.2
cds1378,-159.8
cds1379,-382.3
cds138,-505.9
cds1380,-271.6
cds1381,-272.6
cds1382,-495.7
cds1383,-149.1
cds1384,-497.3
cds1385,-462
cds1386,-327.6
cds1387,-191.5
cds1388,-2.3
cds1389,-1137.3
cds139,-321.3
cds1390,-336.2
cds1391,-115.1
cds1392,-307.7
cds1393,-285.9
cds1394,-645.9
cds1395,-183.9
cds1396,-257.3
cds1397,-620.3
cds1398,-439
cds1399,-191.5
cds14,-377.5
cds140,-150.4
cds1400,-1421.4
cds1401,-263.6
cds1402,-472.4
cds1403,-57.9
cds1404,-149.9
cds1405,-42.5
cds1406,-43.3
cds1407,-42.6
cds1408,-571.8
cds1409,-280.8
cds141,-232
cds1410,-470.1
cds1411,-593.9
cds1412,-48.2
cds1413,-136.4
cds1414,-305.5
cds1415,-350.9
cds1416,-159.1
cds1417,-182.9
cds1418,-119.7
cds1419,-403.7
cds142,-181.1
cds1420,-414.6
cds1421,-154.7
cds1422,-669.8
cds1423,-70.2
cds1424,-54.4
cds1425,-111
cds1426,-492.9
cds1427,-395
cds1428,-380.7
cds1429,-338.1
cds143,-985.8
cds1430,-302.3
cds1431,-523
cds1432,-18.9
cds1433,-41.2
cds1434,-71.2
cds1435,-157.3
cds1436,-176.1
cds1437,-365.1
cds1438,-181.8
cds1439,-716.9
cds144,-982.7
cds1440,-356.8
cds1441,-553.7
cds1442,-181.2
cds1443,-38.9
cds1444,-797.2
cds1445,-86.6
cds1446,-70
cds1447,-296.3
cds1448,-54.4
cds1449,-184.5
cds145,-777.7
cds1450,-304.3
cds1451,-286.8
cds1452,-241.5
cds1453,-257
cds1454,-547.2
cds1455,-1330.9
cds1456,-456.8
cds1457,-66.8
cds1458,-68.7
cds1459,-283.5
cds146,-310.9
cds1460,-1106.6
cds1461,-332.1
cds1462,-229.7
cds1463,-96.9
cds1464,-355.2
cds1465,-584.9
cds1466,-22.9
cds1467,-62.9
cds1468,-123.7
cds1469,-330.9
cds147,-334.4
cds1470,-354.3
cds1471,-315.7
cds1472,-390.6
cds1473,-477.1
cds1474,-184.6
cds1475,-767.5
cds1476,-395.5
cds1477,-434.7
cds1478,-492.1
cds1479,-493.1
cds148,-880.9
cds1480,-848.6
cds1481,-715.4
cds1482,-474.7
cds1483,-290.3
cds1484,-447.9
cds1485,-174.9
cds1486,-50.3
cds1487,-765.4
cds1488,-272.3
cds1489,-127.8
cds149,-496.2
cds1490,-146.9
cds1491,-336.2
cds1492,-15.1
cds1493,-392
cds1494,-57.4
cds1495,-502.1
cds1496,-529.4
cds1497,-327.2
cds1498,-552.8
cds1499,-384
cds15,-70.2
cds150,-538.8
cds1500,-366.7
cds1501,-325.8
cds1502,-298
cds1503,-71.1
cds1504,-270.2
cds1505,-256.8
cds1506,-472.8
cds1507,-325.9
cds1508,-115.3
cds1509,-330.3
cds151,-93.3
cds1510,-488
cds1511,-312.3
cds1512,-235.5
cds1513,-410.7
cds1514,-238.5
cds1515,-134.4
cds1516,-92.9
cds1517,-69.3
cds1518,-308.7
cds1519,-390.8
cds152,-234.8
cds1520,-19.2
cds1521,-259.8
cds1522,-105.5
cds1523,-169.3
cds1524,-693.4
cds1525,-258.5
cds1526,-202.8
cds1527,-53.6
cds1528,-484.7
cds1529,-427.8
cds153,-256.2
cds1530,-37.2
cds1531,-156.6
cds1532,-181
cds1533,-305.7
cds1534,-184.3
cds1535,-37.6
cds1536,-79.7
cds1537,-21.6
cds1538,-33.7
cds1539,-55
cds154,-243.5
cds1540,-135
cds1541,-69.6
cds1542,-172.8
cds1543,-78.3
cds1544,-62.3
cds1545,-47.2
cds1546,-56.7
cds1547,-228.7
cds1548,-372.8
cds1549,-53.1
cds155,-481.8
cds1550,-49.8
cds1551,-78.9
cds1552,-61
cds1553,-81.8
cds1554,-64.8
cds1555,-26.3
cds1556,-83.9
cds1557,-65.6
cds1558,-95.1
cds1559,-39.1
cds156,-517.7
cds1560,-35.4
cds1561,-49.6
cds1562,-42.4
cds1563,-48.8
cds1564,-221
cds1565,-249.1
cds1566,-290.8
cds1567,-304.2
cds1568,-401.9
cds1569,-106.5
cds157,-414.7
cds1570,-87.6
cds1571,-169.4
cds1572,-190.5
cds1573,-89.1
cds1574,-785.7
cds1575,-786.9
cds1576,-199.3
cds1577,-311.9
cds1578,-233.6
cds1579,-469.4
cds158,-99.4
cds1580,-236.2
cds1581,-421.5
cds1582,-302.3
cds1583,-440.2
cds1584,-79.5
cds1585,-11.3
cds1586,-296.9
cds1587,-108.7
cds1588,-91.5
cds1589,-343.7
cds159,-251.9
cds1590,-494.3
cds1591,-550.2
cds1592,-312.6
cds1593,-517.5
cds1594,-235.9
cds1595,-99.4
cds1596,-210.6
cds1597,-438
cds1598,-288.2
cds1599,-510.2
cds16,-51.7
cds160,-295.7
cds1600,-563.7
cds1601,-370.5
cds1602,-488.8
cds1603,-396.9
cds1604,-494.4
cds1605,-595.6
cds1606,-172.9
cds1607,-245.7
cds1608,-381.2
cds1609,-560.3
cds161,-897.6
cds1610,-415.8
cds1611,-344.9
cds1612,-354.1
cds1613,-26.4
cds1614,-59.3
cds1615,-125.8
cds1616,-210.4
cds1617,-211
cds1618,-828.4
cds1619,-357.9
cds162,-258.6
cds1620,-208.6
cds1621,-241.6
cds1622,-190.6
cds1623,-527.1
cds1624,-177.7
cds1625,-311
cds1626,-444.8
cds1627,-206
cds1628,-94.2
cds1629,-427.9
cds163,-231.5
cds1630,-151.6
cds1631,-119.5
cds1632,-65.9
cds1633,-264.6
cds1634,-715.7
cds1635,-181.7
cds1636,-314.5
cds1637,-70.9
cds1638,-199.6
cds1639,-381.5
cds164,-283.4
cds1640,-123.8
cds1641,-216.4
cds1643,-113.4
cds1644,-219.8
cds1645,-178.8
cds1646,-429.4
cds1647,-17.9
cds1648,-389.6
cds1649,-368.2
cds165,-250.9
cds1650,-442.3
cds1651,-351.9
cds1652,-205.5
cds1653,-492.4
cds1654,-425.3
cds1655,-80
cds1656,-494.8
cds1657,-293.2
cds1658,-260.6
cds1659,-209.3
cds166,-180.7
cds1660,-223.4
cds1661,-658.1
cds1662,-188.2
cds1663,-47.8
cds1664,-442
cds1665,-74.4
cds1666,-349.6
cds1667,-122.5
cds1668,-457.2
cds1669,-436
cds167,-408.9
cds1670,-245
cds1671,-509.7
cds1672,-123.1
cds1673,-30
cds1674,-137.2
cds1675,-1118.3
cds1676,-432.2
cds1677,-97.7
cds1678,-348.3
cds1679,-376.2
cds168,-256.4
cds1680,-266.4
cds1681,-238.9
cds1682,-495.5
cds1683,-381.3
cds1684,-231.2
cds1685,-240.3
cds1686,-327.4
cds1687,-473.5
cds1688,-79
cds1689,-547.3
cds169,-302.8
cds1690,-889.6
cds1691,-250
cds1692,-355.3
cds1693,-49.8
cds1694,-510.3
cds1695,-186.4
cds1696,-155.6
cds1697,-276
cds1698,-171.1
cds1699,-390.1
cds17,-427.5
cds170,-493.8
cds1700,-88.5
cds1701,-885.4
cds1702,-338.4
cds1703,-3
cds1704,-110
cds1705,-52.9
cds1706,-173.9
cds1707,-635.1
cds1708,-373.6
cds1709,-31.1
cds171,-863.6
cds1710,-233.5
cds1711,-326.4
cds1712,-67.3
cds1713,-290.1
cds1714,-151.8
cds1715,-204.8
cds1716,-191.7
cds1717,-494.5
cds1718,-179.8
cds1719,-71.1
cds172,-164.9
cds1720,-744.8
cds1721,-289.1
cds1722,-432.2
cds1723,-233.1
cds1724,-98.6
cds1725,-437.1
cds1726,-90.3
cds1727,-111.8
cds1728,-252.3
cds1729,-292.5
cds173,-373.5
cds1730,-204.9
cds1731,-134.8
cds1732,-354.5
cds1733,-518.6
cds1734,-626.6
cds1735,-368.4
cds1736,-456.5
cds1737,-273.9
cds1738,-187.2
cds1739,-191.9
cds174,-144.2
cds1740,-243.2
cds1741,-201.2
cds1742,-446.8
cds1743,-631.8
cds1744,-210.4
cds1745,-445.6
cds1746,-229
cds1747,-147.4
cds1748,-85.9
cds1749,-482.8
cds175,-298.1
cds1750,-287.5
cds1751,-768.3
cds1752,-384.1
cds1753,-193.6
cds1754,-665.7
cds1755,-324.9
cds1756,-225.2
cds1757,-410.8
cds1758,-207
cds1759,-318.7
cds176,-441.6
cds1760,-280.3
cds1761,-236.9
cds1762,-311.1
cds1763,-472.1
cds1764,-351.7
cds1765,-65.7
cds1766,-108.8
cds1767,-295.2
cds1768,-266.1
cds1769,-280.4
cds177,-236.3
cds1770,-240.2
cds1771,-623.4
cds1772,-408.4
cds1773,-358.6
cds1774,-460.1
cds1775,-157.5
cds1776,-26.4
cds1777,-157.6
cds1778,-256.5
cds1779,-412.8
cds178,-1372.2
cds1780,-111.4
cds1781,-85.4
cds1782,-307
cds1783,-25
cds1784,-14.2
cds1785,-80.4
cds1786,-52
cds1787,-101
cds1788,-186.9
cds1789,-325.4
cds179,-326.7
cds1790,-375.5
cds1791,-463.3
cds1792,-365.9
cds1793,-317.9
cds1794,-405.8
cds1795,-613.4
cds1796,-216.9
cds1797,-270.4
cds1798,-710.3
cds1799,-102.3
cds18,-280.4
cds180,-710.8
cds1800,-73.2
cds1801,-51.8
cds1802,-454
cds1803,-213.5
cds1804,-513.5
cds1805,-534.1
cds1806,-592.4
cds1807,-324
cds1808,-277.8
cds1809,-296.9
cds181,-124.3
cds1810,-128.6
cds1811,-197
cds1812,-271.7
cds1813,-59.8
cds1814,-25.7
cds1815,-76.4
cds1816,-47
cds1817,-64.2
cds1818,-248.7
cds1819,-465.4
cds182,-550.8
cds1820,-308.7
cds1821,-700
cds1822,-229
cds1823,-171.6
cds1824,-433.8
cds1825,-969.6
cds1826,-494.1
cds1827,-64.3
cds1828,-54.4
cds1829,-205.5
cds183,-77.6
cds1830,-91.6
cds1831,-303.6
cds1832,-111
cds1833,-62.7
cds1834,-212.9
cds1835,-213.3
cds1836,-698.4
cds1837,-229.7
cds1838,-115.6
cds1839,-73.3
cds184,-55.1
cds1840,-425.1
cds1841,-234.7
cds1842,-647.4
cds1843,-491.7
cds1844,-260.9
cds1845,-517.8
cds1846,-336.2
cds1847,-451.2
cds1848,-305.7
cds1849,-233.9
cds185,-180.9
cds1850,-298.7
cds1851,-352.5
cds1852,-225.9
cds1853,-6.9
cds1854,-165.4
cds1855,-206.6
cds1856,-248
cds1857,-170.3
cds1858,-627
cds1859,-190.1
cds186,-147.7
cds1860,-263
cds1861,-142.6
cds1862,-245.4
cds1863,-354.1
cds1864,-832.7
cds1865,-327.6
cds1866,-264.9
cds1867,-179.7
cds1868,-627
cds1869,-110.2
cds187,-256.1
cds1870,-144
cds1871,-783.3
cds1872,-444.9
cds1873,-230.8
cds1874,-125.9
cds1875,-386.2
cds1876,-311.2
cds1877,-566.4
cds1878,-565.8
cds1879,-168.1
cds188,-250.1
cds1880,-681.2
cds1881,-297.8
cds1882,-302.5
cds1883,-169.1
cds1884,-95
cds1885,-177.1
cds1886,-82.9
cds1887,-128.2
cds1888,-470.1
cds1889,-268.3
cds189,-637
cds1890,-326
cds1891,-542.3
cds1892,-334.8
cds1893,-137.3
cds1894,-56.9
cds1895,-10.3
cds1896,-94.7
cds1897,-116.5
cds1898,-64.2
cds1899,-438.8
cds19,-177.1
cds190,-262
cds1900,-225.6
cds1901,-191.7
cds1902,-630
cds1903,-210.2
cds1904,-57.6
cds1905,-213.1
cds1906,-269.9
cds1907,-240
cds1908,-350.1
cds1909,-251
cds191,-109
cds1910,-134.8
cds1911,-258.1
cds1912,-452.24
cds1913,-407.8
cds1914,-122.1
cds1915,-119.9
cds1916,-487.2
cds1917,-160.6
cds1918,-452.5
cds1919,-69.2
cds192,-246.4
cds1920,-223.4
cds1921,-136.8
cds1922,-21
cds1923,-47.3
cds1924,-104.2
cds1925,-607.1
cds1926,-368.9
cds1927,-255.3
cds1928,-570
cds1929,-142
cds193,-217.3
cds1930,-343.7
cds1931,-144.2
cds1932,-335.6
cds1933,-142.6
cds1934,-148.1
cds1935,-267
cds1936,-81.8
cds1937,-240
cds1938,-150.2
cds1939,-55.2
cds194,-344.1
cds1940,-69.1
cds1941,-278.5
cds1942,-574.9
cds1943,-62.6
cds1944,-362.4
cds1945,-328.6
cds1946,-178.5
cds1947,-484.3
cds1948,-255.1
cds1949,-121.5
cds195,-191.3
cds1950,-155.1
cds1951,-260.4
cds1952,-335.1
cds1953,-198.8
cds1954,-100.6
cds1955,-357.1
cds1956,-194.7
cds1957,-135.9
cds1958,-115.9
cds1959,-227.5
cds196,-221
cds1961,-261.3
cds1962,-451.9
cds1963,-439.7
cds1964,-169.7
cds1965,-503.6
cds1966,-297
cds1967,-287.1
cds1968,-302
cds1969,-382.3
cds197,-294.7
cds1970,-269.2
cds1971,-196.9
cds1972,-12.2
cds1973,-346.9
cds1974,-24.8
cds1975,-41.6
cds1976,-52.8
cds1977,-336.2
cds1978,-115.1
cds1979,-213.8
cds198,-265.8
cds1980,-1243
cds1981,-508.7
cds1982,-171.7
cds1983,-65.3
cds1984,-137.3
cds1985,-110.6
cds1986,-49
cds1987,-33.6
cds1988,-38.7
cds1989,-82.8
cds199,-224.6
cds1990,-359.9
cds1991,-124.6
cds1992,-386.1
cds1993,-450.7
cds1994,-64.7
cds1995,-372.1
cds1996,-473.4
cds1997,-20.8
cds1998,-306
cds1999,-271.5
cds2,-374.6
cds20,-82.9
cds200,-496.2
cds2000,-64.9
cds2001,-64.3
cds2002,-0.91
cds2003,-298.8
cds2004,-496.3
cds2005,-377.4
cds2006,-360.3
cds2007,-211.2
cds2008,-298.4
cds2009,-257.9
cds201,-197.6
cds2010,-209.4
cds2011,-292.6
cds2012,-315.1
cds2013,-457.4
cds2014,-77.8
cds2015,-346.7
cds2016,-248.6
cds2017,-146.5
cds2018,-233.7
cds2019,-260.8
cds202,-225.3
cds2020,-247.6
cds2021,-292.2
cds2022,-145.3
cds2023,-245.5
cds2024,-247.7
cds2025,-315.6
cds2026,-291.8
cds2027,-407.3
cds2028,-431
cds2029,-450.7
cds203,-147
cds2030,-558.8
cds2031,-499.8
cds2032,-497.3
cds2033,-545.8
cds2034,-487.7
cds2035,-185.7
cds2036,-363.7
cds2037,-389
cds2038,-192
cds2039,-214.3
cds204,-241.8
cds2040,-343.7
cds2041,-462.6
cds2042,-163.2
cds2043,-261.2
cds2044,-757.7
cds2045,-152.1
cds2046,-381
cds2047,-577.9
cds2048,-640
cds2049,-248.7
cds205,-185.6
cds2050,-193.1
cds2051,-1185.4
cds2052,-333.6
cds2053,-532.9
cds2054,-656
cds2055,-106.1
cds2056,-257.3
cds2057,-220.5
cds2058,-13
cds2059,-11.4
cds206,-83.9
cds2060,-438
cds2061,-1208.6
cds2062,-1206.8
cds2063,-536.8
cds2064,-513.4
cds2065,-241.2
cds2066,-92.6
cds2067,-475.5
cds2068,-56.9
cds2069,-60.9
cds207,-82.5
cds2070,-66.2
cds2071,-321.9
cds2072,-134.9
cds2073,-76.4
cds2074,-328.5
cds2075,-345.1
cds2076,-139.1
cds2077,-75.6
cds2078,-117.6
cds2079,-399.4
cds208,-59.3
cds2080,-300.3
cds2081,-349.3
cds2082,-419.9
cds2083,-374.7
cds2084,-395.7
cds2085,-256.7
cds2086,-243.2
cds2087,-294.8
cds2088,-284.3
cds2089,-74.9
cds209,-293.7
cds2090,-275.3
cds2091,-97.9
cds2092,-233.2
cds2093,-765.6
cds2094,-195.7
cds2095,-144.8
cds2096,-75.3
cds2097,-405.6
cds2098,-734.2
cds2099,-332.4
cds21,-72.3
cds210,-144.3
cds2100,-1176.7
cds2101,-66.1
cds2102,-388.8
cds2103,-854.2
cds2104,-408.7
cds2105,-757.2
cds2106,-116
cds2107,-141.9
cds2108,-220.7
cds2109,-573.4
cds211,-946.6
cds2110,-249
cds2111,-32.1
cds2112,-290.6
cds2113,-342.2
cds2114,-475.3
cds2115,-349
cds2116,-840.3
cds2117,-588.3
cds2118,-309.3
cds2119,-204.1
cds212,-189.6
cds2120,-209.8
cds2121,-280
cds2122,-478.44
cds2123,-9.8
cds2124,-348.6
cds2125,-133
cds2126,-268.7
cds2127,-323.1
cds2128,-212.2
cds2129,-65.7
cds213,-269.1
cds2130,-411.5
cds2131,-421.1
cds2132,-352.1
cds2133,-484.1
cds2134,-323.3
cds2135,-375.9
cds2136,-441.9
cds2137,-201.6
cds2138,-288.6
cds2139,-671.3
cds214,-218.2
cds2140,-555.7
cds2141,-315
cds2142,-394.8
cds2143,-279.1
cds2144,-373.3
cds2145,-436.1
cds2146,-306.1
cds2147,-182.3
cds2148,-460.3
cds2149,-306.6
cds215,-57.9
cds2150,-305.1
cds2151,-669
cds2152,-325.1
cds2153,-427.5
cds2154,-433.1
cds2155,-82.6
cds2156,-174.9
cds2157,-486.3
cds2158,-363.9
cds2159,-203.3
cds216,-71.6
cds2160,-192.4
cds2161,-488.1
cds2162,-578.4
cds2163,-382.3
cds2164,-358.8
cds2165,-537
cds2166,-98.5
cds2167,-439.7
cds2168,-248.6
cds2169,-599.4
cds217,-239.6
cds2170,-72.1
cds2171,-361.9
cds2172,-47.4
cds2173,-616.2
cds2174,-798.6
cds2175,-346.7
cds2176,-229
cds2177,-406.5
cds2178,-195.1
cds2179,-784.7
cds218,-131.2
cds2180,-164.6
cds2181,-79.6
cds2182,-288
cds2183,-260.6
cds2184,-239.4
cds2185,-217.3
cds2186,-165.7
cds2187,-350.8
cds2188,-297.6
cds2189,-957.3
cds219,-688.8
cds2190,-92.6
cds2191,-165.2
cds2192,-151.5
cds2193,-589.5
cds2194,-593.9
cds2195,-224.3
cds2196,-410.6
cds2197,-369.3
cds2198,-357.9
cds2199,-835.2
cds22,-66.9
cds220,-265.9
cds2200,-190.6
cds2201,-1009.5
cds2202,-537.7
cds2203,-397.8
cds2204,-218.7
cds2205,-234.1
cds2206,-477.6
cds2207,-411
cds2208,-269
cds2209,-606.6
cds221,-376.4
cds2210,-1708.7
cds2211,-210.1
cds2212,-578.3
cds2213,-984.8
cds2214,-255.7
cds2215,-1298.1
cds2216,-787.3
cds2217,-371
cds2218,-100.2
cds2219,-219.5
cds222,-61.5
cds2220,-54.3
cds2221,-337.7
cds2222,-483.3
cds2223,-618.6
cds2224,-477.3
cds2225,-401.9
cds2226,-248.1
cds2227,-52.9
cds2228,-286.7
cds2229,-471.8
cds223,-107
cds2230,-406.1
cds2231,-262.2
cds2232,-445.2
cds2233,-197.1
cds2234,-122.4
cds2235,-153.3
cds2236,-354.3
cds2237,-295.6
cds2238,-665.7
cds2239,-325.5
cds224,-115.8
cds2240,-579.7
cds2241,-127.1
cds2242,-118.4
cds2243,-76.6
cds2244,-528.1
cds2245,-405.3
cds2246,-311.1
cds2247,-293.6
cds2248,-672.9
cds2249,-452.1
cds225,-57.9
cds2250,-96.1
cds2251,-147.8
cds2252,-290.2
cds2253,-234.3
cds2254,-526
cds2255,-270.3
cds2256,-127.4
cds2257,-169.7
cds2258,-91.7
cds2259,-237.5
cds226,-176.1
cds2260,-579
cds2261,-578
cds2262,-721.8
cds2263,-105.4
cds2264,-212.4
cds2265,-181.8
cds2266,-383.7
cds2267,-1093.7
cds2268,-514.4
cds2269,-174.1
cds227,-470.8
cds2270,-647.5
cds2271,-236
cds2272,-143.9
cds2273,-306.9
cds2274,-396.5
cds2275,-187.2
cds2276,-689.4
cds2277,-257.3
cds2278,-144.8
cds2279,-147.4
cds228,-147.2
cds2280,-374.5
cds2281,-765.3
cds2282,-576.1
cds2283,-183.7
cds2284,-198.9
cds2285,-217.6
cds2286,-207.4
cds2287,-93.2
cds2288,-330.1
cds2289,-261.5
cds229,-453
cds2290,-275.9
cds2291,-214
cds2292,-252.4
cds2293,-248.1
cds2294,-261.6
cds2295,-196.9
cds2296,-517.1
cds2297,-160.6
cds2298,-249.5
cds2299,-502.6
cds23,-346.1
cds230,-112.1
cds2300,-337.7
cds2301,-210.3
cds2302,-318.1
cds2303,-390.8
cds2304,-423.5
cds2305,-335.8
cds2306,-470.7
cds2307,-450.5
cds2308,-738.4
cds2309,-96.3
cds231,-311.3
cds2310,-170.6
cds2311,-284.2
cds2312,-301.6
cds2313,-410.4
cds2314,-329.2
cds2315,-195.9
cds2316,-239.6
cds2317,-168.2
cds2318,-146.3
cds2319,-165.5
cds232,-420.5
cds2320,-235.3
cds2321,-917
cds2322,-161.7
cds2323,-177
cds2324,-765.7
cds2325,-491.5
cds2326,-88
cds2327,-437.7
cds2328,-215.8
cds2329,-258.4
cds233,-471.3
cds2330,-287.1
cds2331,-347.7
cds2332,-104.2
cds2333,-233.4
cds2334,-266.5
cds2335,-97.4
cds2336,-133.1
cds2337,-185.8
cds2338,-81.2
cds2339,-174.7
cds234,-6.6
cds2340,-232.2
cds2341,-102.8
cds2342,-236.9
cds2343,-152.1
cds2344,-104.6
cds2345,-74.2
cds2346,-10.7
cds2347,-49.5
cds2348,-308.3
cds2349,-431.6
cds235,-116.5
cds2350,-445.6
cds2351,-430.2
cds2352,-311.7
cds2353,-158.2
cds2354,-932.7
cds2355,-328.3
cds2356,-267.7
cds2357,-542.3
cds2358,-391.2
cds2359,-172.8
cds236,-98.5
cds2360,-58.5
cds2361,-66.8
cds2362,-299.1
cds2363,-16.2
cds2364,-446.2
cds2365,-578.7
cds2366,-222.2
cds2367,-325.7
cds2368,-945.3
cds2369,-416.9
cds237,-69
cds2370,-436
cds2371,-461.5
cds2372,-99.1
cds2373,-341.1
cds2374,-465.8
cds2375,-114.4
cds2376,-439.7
cds2377,-371.8
cds2378,-377.5
cds2379,-724.9
cds238,-171.5
cds2380,-105.5
cds2381,-109
cds2382,-496
cds2383,-282.8
cds2384,-429.6
cds2385,-293.3
cds2386,-208.1
cds2387,-338.3
cds2388,-357.1
cds2389,-82.8
cds239,-138.3
cds2390,-751.7
cds2391,-362.3
cds2392,-256.1
cds2393,-324.5
cds2394,-67.7
cds2395,-587.4
cds2396,-156.6
cds2397,-288.7
cds2398,-97.5
cds2399,-189.9
cds24,-1101.8
cds240,-79.4
cds2400,-353.4
cds2401,-437.7
cds2402,-341.6
cds2403,-329.9
cds2404,-344.3
cds2405,-291.9
cds2406,-283.7
cds2407,-322.7
cds2408,-574.7
cds2409,-442.8
cds241,-149.6
cds2410,-325.2
cds2411,-204.2
cds2412,-143.5
cds2413,-133.1
cds2414,-284.7
cds2415,-341.7
cds2416,-383.5
cds2417,-198.9
cds2418,-233
cds2419,-321.2
cds242,-132.1
cds2420,-486.5
cds2421,-387.5
cds2422,-155
cds2423,-69.1
cds2424,-104.7
cds2425,-122.3
cds2426,-182.6
cds2427,-98.2
cds2428,-109
cds2429,-234.1
cds243,-71.8
cds2430,-591.2
cds2431,-477.5
cds2432,-489
cds2433,-340.8
cds2434,-554.5
cds2435,-103.3
cds2436,-104.4
cds2437,-404.1
cds2438,-324.3
cds2439,-241.4
cds244,-83.8
cds2440,-152.9
cds2441,-108.7
cds2442,-843.9
cds2443,-304.4
cds2444,-736.2
cds2445,-391.5
cds2446,-162.9
cds2447,-762.1
cds2448,-590.3
cds2449,-1171.1
cds245,-297.5
cds2450,-9.1
cds2451,-97.2
cds2452,-401.8
cds2453,-50.2
cds2454,-246.1
cds2455,-788.4
cds2456,-298.1
cds2457,-224.3
cds2458,-408.4
cds2459,-302.5
cds246,-334
cds2460,-173.8
cds2461,-144.5
cds2462,-202.4
cds2463,-767.7
cds2464,-336.8
cds2465,-556.5
cds2466,-228.8
cds2467,-579.9
cds2468,-595.8
cds2469,-171.3
cds247,-245.6
cds2470,-270.4
cds2471,-139.4
cds2472,-688
cds2473,-294.3
cds2474,-403.3
cds2475,-518
cds2476,-116.8
cds2477,-252.6
cds2478,-458.5
cds2479,-225.6
cds248,-154.2
cds2480,-378.2
cds2481,-232.9
cds2482,-666.4
cds2483,-523
cds2484,-703.9
cds2485,-34.1
cds2486,-147.9
cds2487,-152.3
cds2488,-578.3
cds2489,-534.8
cds249,-309.4
cds2490,-454.7
cds2491,-67.4
cds2492,-502.1
cds2493,-454
cds2494,-215.7
cds2495,-476.8
cds2496,-411.5
cds2497,-352.4
cds2498,-426.3
cds2499,-136.8
cds25,-195.8
cds250,-423.7
cds2500,-931.9
cds2502,-298.6
cds2503,-240.9
cds2504,-500.4
cds2505,-52.7
cds2506,-95.5
cds2507,-775.1
cds2508,-177.6
cds2509,-94.6
cds251,-346.7
cds2510,-124.3
cds2511,-415.7
cds2512,-164.7
cds2513,-287.7
cds2514,-279.7
cds2515,-283.4
cds2516,-422.9
cds2517,-439.6
cds2518,-295.9
cds2519,-18
cds252,-522.8
cds2520,-457.5
cds2521,-160
cds2522,-109.1
cds2523,-313.2
cds2524,-433.5
cds2525,-141.4
cds2526,-319.5
cds2527,-403.3
cds2528,-402.9
cds2529,-602.7
cds253,-398.6
cds2530,-285.7
cds2531,-1237.8
cds2532,-402.4
cds2533,-428.2
cds2534,-412.1
cds2535,-115.2
cds2536,-507
cds2537,-243.2
cds2538,-516
cds2539,-1519.7
cds254,-400.4
cds2540,-515.5
cds2541,-189
cds2542,-217.5
cds2543,-285.3
cds2544,-64.2
cds2545,-17.6
cds2546,-141.4
cds2547,-274.5
cds2548,-264.4
cds2549,-302.1
cds255,-113.2
cds2550,-227
cds2551,-359.2
cds2552,-644
cds2553,-169.1
cds2554,-316.4
cds2555,-215.9
cds2556,-205.9
cds2557,-573.8
cds2558,-248.6
cds2559,-460.2
cds256,-175.8
cds2560,-283.2
cds2561,-195.8
cds2562,-118.9
cds2563,-223.3
cds2564,-402.1
cds2565,-125
cds2566,-226.7
cds2567,-970.2
cds2568,-434.7
cds2569,-121
cds257,-85.8
cds2570,-412.7
cds2571,-886.1
cds2572,-277.6
cds2573,-354.6
cds2574,-246.2
cds2575,-80.6
cds2576,-1.5
cds2577,-354.5
cds2578,-419.3
cds2579,-350
cds258,-27.7
cds2580,-91
cds2581,-136.7
cds2582,-363.1
cds2583,-140.7
cds2584,-103.6
cds2585,-290.7
cds2586,-195.8
cds2587,-81.5
cds2588,-492.5
cds2589,-257.1
cds259,-53.8
cds2590,-429.6
cds2591,-183.6
cds2592,-271.4
cds2593,-548.8
cds2594,-114.1
cds2595,-102.5
cds2596,-149.1
cds2597,-152
cds2598,-359
cds2599,-222.9
cds26,-159.7
cds260,-111.2
cds2600,-46.5
cds2601,-335.2
cds2602,-150.8
cds2603,-697.9
cds2604,-467.5
cds2605,-53.7
cds2606,-308.7
cds2607,-111.9
cds2608,-309.6
cds2609,-301.5
cds261,-484.5
cds2610,-291.2
cds2611,-77.1
cds2612,-126.5
cds2613,-139.6
cds2614,-26.1
cds2615,-352.1
cds2616,-341.77
cds2617,-26.4
cds2618,-142.9
cds2619,-145.5
cds262,-372.9
cds2620,-60.7
cds2621,-119.6
cds2622,-96.1
cds2624,-66.6
cds2625,-299.6
cds2626,-501.5
cds2627,-336.2
cds2628,-502
cds2629,-578.2
cds263,-950.7
cds2630,-548.1
cds2631,-472
cds2632,-256.6
cds2633,-129.1
cds2634,-35.6
cds2635,-92.2
cds2636,-158.2
cds2637,-125
cds2638,-153.8
cds2639,-89.9
cds264,-593.1
cds2640,-108
cds2641,-75.1
cds2642,-157.2
cds2643,-727.3
cds2644,-273.4
cds2645,-413.9
cds2646,-450.1
cds2647,-326.5
cds2648,-338.2
cds2649,-252.4
cds265,-669.9
cds2650,-121.7
cds2651,-157
cds2652,-405.5
cds2653,-622.9
cds2654,-169.8
cds2655,-520.8
cds2656,-151.5
cds2657,-207.3
cds2658,-52.1
cds2659,-968.8
cds266,-325.2
cds2660,-176
cds2661,-383
cds2662,-190.5
cds2663,-373.7
cds2664,-181.5
cds2665,-333.1
cds2666,-125.2
cds2667,-272
cds2668,-112.4
cds2669,-232.5
cds267,-379.4
cds2670,-372
cds2671,-611.7
cds2672,-490.1
cds2673,-436.8
cds2674,-916.5
cds2675,-181.5
cds2676,-356.3
cds2677,-569.7
cds2678,-499.1
cds2679,-170.8
cds268,-57.2
cds2680,-144.3
cds2681,-289.2
cds2682,-197.1
cds2683,-636.9
cds2684,-368.6
cds2685,-766.7
cds2686,-221.2
cds2687,-132.1
cds2688,-119.1
cds2689,-299.7
cds269,-175.8
cds2690,-96.2
cds2691,-437.7
cds2692,-415.1
cds2693,-716.7
cds2694,-107
cds2695,-989.3
cds2696,-179.5
cds2697,-272
cds2698,-330.3
cds2699,-419.1
cds27,-355.7
cds270,-85.8
cds2700,-235.6
cds2701,-255.3
cds2702,-476.1
cds2703,-350.3
cds2704,-370.9
cds2705,-228.4
cds2706,-286.9
cds2707,-384.3
cds2708,-178
cds2709,-260.7
cds271,-267.3
cds2710,-104.3
cds2711,-98
cds2712,-225.1
cds2713,-520.1
cds2714,-310.7
cds2715,-317.2
cds2716,-74.8
cds2717,-305.8
cds2718,-168.1
cds2719,-210
cds272,-175.9
cds2720,-299.3
cds2721,-134.8
cds2722,-433.1
cds2723,-810.1
cds2724,-237.6
cds2725,-645.5
cds2726,-680.3
cds2727,-110.2
cds2728,-493.9
cds2729,-87.2
cds273,-150.3
cds2730,-171.9
cds2731,-320
cds2732,-312
cds2733,-490.7
cds2734,-470.6
cds2735,-231.9
cds2736,-410.9
cds2737,-466.9
cds2738,-237.9
cds2739,-12.1
cds274,-191.4
cds2740,-217.5
cds2741,-417.7
cds2742,-569.1
cds2743,-256.7
cds2744,-97.6
cds2745,-65.2
cds2746,-822.8
cds2747,-451.1
cds2748,-894.8
cds2749,-477.1
cds275,-91.7
cds2750,-495.2
cds2751,-483
cds2752,-151.4
cds2753,-279.2
cds2754,-101.1
cds2755,-151.8
cds2756,-260.4
cds2757,-446.3
cds2758,-428.2
cds2759,-519.9
cds276,-371.3
cds2760,-266.7
cds2761,-420.5
cds2762,-197.6
cds2763,-415
cds2764,-625.3
cds2765,-482.1
cds2766,-130.2
cds2767,-228.3
cds2768,-396.1
cds2769,-143.7
cds277,-97.2
cds2770,-288
cds2771,-49
cds2772,-483.1
cds2773,-170.5
cds2774,-307.8
cds2775,-397.2
cds2776,-452.3
cds2777,-477.6
cds2778,-724
cds2779,-1302.5
cds278,-25.2
cds2780,-992.2
cds2781,-1238.9
cds2782,-115.1
cds2783,-151
cds2784,-196.8
cds2785,-169.1
cds2786,-247.2
cds2787,-296
cds2788,-856.8
cds2789,-162.8
cds279,-394.1
cds2790,-250.6
cds2791,-223.9
cds2792,-62.3
cds2793,-355.6
cds2794,-485.4
cds2795,-766.7
cds2796,-362.3
cds2797,-464.3
cds2798,-314
cds2799,-228.9
cds28,-333.2
cds280,-877.1
cds2800,-527.3
cds2801,-260.6
cds2802,-264.3
cds2803,-442.5
cds2804,-371.9
cds2805,-153.2
cds2806,-191.2
cds2807,-83.4
cds2808,-7.8
cds2809,-85.9
cds281,-377.8
cds2810,-6.4
cds2811,-96.3
cds2812,-279.9
cds2813,-32.8
cds2814,-6.6
cds2815,-142.6
cds2816,-88.5
cds2817,-77.1
cds2818,-336.2
cds2819,-115.1
cds282,-239.3
cds2820,-286.3
cds2821,-241.1
cds2822,-769.6
cds2823,-287.6
cds2824,-153.6
cds2825,-544.2
cds2826,-345.8
cds2827,-418.1
cds2828,-393.4
cds2829,-464.8
cds283,-175.5
cds2830,-293.1
cds2831,-589.5
cds2832,-237.6
cds2833,-144.6
cds2834,-1023.6
cds2835,-450.2
cds2836,-270
cds2837,-1020.9
cds2838,-443
cds2839,-393.8
cds284,-99.1
cds2840,-491.2
cds2841,-173.5
cds2842,-688.7
cds2843,-465.1
cds2844,-17.6
cds2845,-169.3
cds2846,-511.4
cds2847,-356.6
cds2848,-684.4
cds2849,-225.6
cds285,-246.2
cds2850,-320.5
cds2851,-159.7
cds2852,-156.4
cds2853,-70.9
cds2854,-357
cds2855,-227.1
cds2856,-69.5
cds2857,-468.7
cds2858,-257.2
cds2859,-1090.7
cds286,-530.8
cds2860,-121.5
cds2861,-409
cds2862,-458.2
cds2863,-491.5
cds2864,-476.1
cds2865,-174.3
cds2866,-84
cds2867,-176.9
cds2868,-9.9
cds2869,-421.9
cds287,-915
cds2870,-217.7
cds2871,-108.6
cds2872,-299.5
cds2873,-753.9
cds2874,-354.8
cds2875,-235.9
cds2876,-527.3
cds2877,-259.5
cds2878,-244.4
cds2879,-214.5
cds288,-212.4
cds2880,-289.9
cds2881,-346.7
cds2882,-372.3
cds2883,-364.6
cds2884,-219.5
cds2885,-159.1
cds2886,-370.3
cds2887,-440.4
cds2888,-467
cds2889,-110.8
cds289,-206.8
cds2890,-733
cds2891,-248
cds2892,-330.8
cds2893,-753.7
cds2894,-38.4
cds2895,-48.9
cds2896,-398
cds2897,-498.5
cds2898,-167.4
cds2899,-249.6
cds29,-306.1
cds290,-146.9
cds2900,-255.6
cds2901,-324
cds2902,-172.3
cds2903,-141.3
cds2904,-363.6
cds2905,-240.4
cds2906,-187.1
cds2907,-97.9
cds2908,-209.9
cds2909,-425.8
cds291,-64.5
cds2910,-265.7
cds2911,-346.3
cds2912,-237.6
cds2913,-97.5
cds2914,-264
cds2915,-386.9
cds2916,-75.8
cds2917,-348.6
cds2918,-402.7
cds2919,-768.4
cds292,-28.4
cds2920,-250.8
cds2921,-185.5
cds2922,-351.1
cds2923,-293.4
cds2924,-107.9
cds2925,-287.4
cds2926,-1599.8
cds2927,-622.9
cds2928,-762.3
cds2929,-154.8
cds293,-66.9
cds2930,-462.9
cds2931,-413.9
cds2932,-570.9
cds2933,-268.5
cds2934,-376.7
cds2935,-346.7
cds2936,-391.9
cds2937,-261.1
cds2938,-215.6
cds2939,-214.4
cds294,-15
cds2940,-541
cds2941,-653.8
cds2942,-318.4
cds2943,-85.4
cds2944,-137.9
cds2945,-188.9
cds2946,-196.8
cds2947,-612.1
cds2948,-438.1
cds2949,-351.3
cds295,-12.7
cds2950,-412.6
cds2951,-70.1
cds2952,-134.3
cds2953,-362.4
cds2954,-148
cds2955,-311.8
cds2956,-131.6
cds2957,-273.5
cds2958,-402.3
cds2959,-224.3
cds296,-288.1
cds2960,-326.5
cds2961,-399.2
cds2962,-243.6
cds2963,-259.7
cds2964,-78.6
cds2965,-802.1
cds2966,-541.7
cds2967,-232.9
cds2968,-846.7
cds2969,-550.9
cds297,-76.4
cds2970,-106.9
cds2971,-61.3
cds2972,-160.5
cds2973,-120.5
cds2974,-222
cds2975,-470.2
cds2976,-78.6
cds2977,-186.6
cds2978,-94.8
cds2979,-690.9
cds298,-328.5
cds2980,-198.5
cds2981,-320.8
cds2982,-123.7
cds2983,-193.8
cds2984,-473.8
cds2985,-242.5
cds2986,-399.6
cds2987,-282.2
cds2988,-278.8
cds2989,-216.9
cds299,-165.9
cds2990,-70.3
cds2991,-134.8
cds2992,-655.5
cds2993,-115.1
cds2994,-336.2
cds2995,-177.9
cds2996,-269.1
cds2997,-48.8
cds2998,-145.6
cds2999,-512.1
cds3,-456
cds30,-387.9
cds300,-20.3
cds3000,-10.4
cds3001,-11.2
cds3002,-534.8
cds3003,-1103.7
cds3004,-486.5
cds3005,-191.7
cds3006,-468.9
cds3007,-302.3
cds3008,-128.2
cds3009,-218.4
cds301,-157.9
cds3010,-314.5
cds3011,-313.2
cds3012,-191.2
cds3013,-570
cds3014,-403.4
cds3015,-60.9
cds3016,-604.8
cds3017,-615.8
cds3018,-179.1
cds3019,-287.3
cds302,-45.5
cds3020,-215.3
cds3021,-568.9
cds3022,-516
cds3023,-104.6
cds3024,-314.6
cds3025,-1070.1
cds3026,-134.4
cds3027,-464.7
cds3028,-340.1
cds3029,-863.1
cds303,-399.3
cds3030,-802.9
cds3031,-128.4
cds3032,-75.1
cds3033,-390.2
cds3034,-150.2
cds3035,-227.5
cds3036,-349.8
cds3037,-355.1
cds3038,-463.7
cds3039,-184.6
cds304,-316.1
cds3040,-569.7
cds3041,-483.4
cds3042,-484.1
cds3043,-229.8
cds3044,-218.1
cds3045,-127
cds3046,-105.3
cds3047,-116
cds3048,-149.6
cds3049,-129.1
cds305,-231.6
cds3050,-122
cds3051,-320
cds3052,-118
cds3053,-87.9
cds3054,-329.3
cds3055,-229.5
cds3056,-49.8
cds3057,-517.7
cds3058,-459.5
cds3059,-491.3
cds306,-473.8
cds3060,-133.6
cds3061,-809.5
cds3062,-397.3
cds3063,-423.3
cds3064,-294.1
cds3065,-250.4
cds3066,-28.4
cds3067,-110.8
cds3068,-230.6
cds3069,-417.8
cds307,-231.6
cds3070,-326.6
cds3071,-260.5
cds3072,-430.5
cds3073,-563.8
cds3074,-102.6
cds3075,-121
cds3076,-281.2
cds3077,-457.2
cds3078,-145.5
cds3079,-148.1
cds308,-171
cds3080,-219.6
cds3081,-407
cds3082,-285.7
cds3083,-118.7
cds3084,-268.5
cds3085,-261.9
cds3086,-228.9
cds3087,-168.7
cds3088,-181.4
cds3089,-764.9
cds309,-639.7
cds3090,-331.1
cds3091,-313.7
cds3092,-736.5
cds3093,-158
cds3094,-198.2
cds3095,-199.4
cds3096,-413.9
cds3097,-232.8
cds3098,-169.1
cds3099,-149.3
cds31,-1238.7
cds310,-573.8
cds3100,-105.3
cds3101,-196.4
cds3102,-175.3
cds3103,-375.4
cds3104,-338.7
cds3105,-366.4
cds3106,-461.4
cds3107,-724.2
cds3108,-21.9
cds3109,-316.8
cds311,-218.9
cds3110,-756.9
cds3111,-79.3
cds3112,-345.9
cds3113,-131.5
cds3114,-948.4
cds3115,-521
cds3116,-149.4
cds3117,-464.5
cds3118,-449.7
cds3119,-101.4
cds312,-790.1
cds3120,-493.8
cds3121,-286.8
cds3122,-711.2
cds3123,-218.2
cds3124,-90.8
cds3125,-145.8
cds3126,-495.5
cds3127,-421.2
cds3128,-379.5
cds3129,-78.7
cds313,-336.4
cds3130,-99.5
cds3131,-326
cds3132,-75.3
cds3133,-450.6
cds3134,-79
cds3135,-104.3
cds3136,-210.4
cds3137,-174.6
cds3138,-312
cds3139,-309.9
cds314,-292.6
cds3140,-350.8
cds3141,-348
cds3142,-206.2
cds3143,-152
cds3144,-161.1
cds3145,-258.9
cds3146,-482.3
cds3147,-69.9
cds3148,-167.7
cds3149,-282.7
cds315,-174.9
cds3150,-86.1
cds3151,-202.7
cds3152,-255.7
cds3153,-234.3
cds3154,-777.9
cds3155,-354.5
cds3156,-1725.7
cds3157,-557.9
cds3158,-218.2
cds3159,-152.4
cds316,-175.4
cds3160,-675.7
cds3161,-39.4
cds3162,-346.7
cds3163,-184.1
cds3164,-369.2
cds3165,-127.7
cds3166,-365.1
cds3167,-284.1
cds3168,-557.4
cds3169,-295.9
cds317,-269.2
cds3170,-250.6
cds3171,-486.2
cds3172,-183
cds3173,-225
cds3174,-121.1
cds3175,-128.4
cds3176,-376.3
cds3177,-140
cds3178,-485.4
cds3179,-373.9
cds318,-570.6
cds3180,-325.9
cds3181,-135
cds3182,-74.2
cds3183,-73.2
cds3184,-722.2
cds3185,-314.2
cds3186,-51.1
cds3187,-312.4
cds3188,-558.7
cds3189,-1361.5
cds319,-592.8
cds3190,-543.1
cds3191,-218.5
cds3192,-188.7
cds3193,-426.2
cds3194,-380.7
cds3195,-672.4
cds3196,-370.8
cds3197,-33.3
cds3198,-75
cds3199,-144.9
cds32,-116.6
cds320,-364.2
cds3200,-498.3
cds3201,-74.2
cds3202,-552.9
cds3203,-309.6
cds3204,-342.5
cds3205,-74.2
cds3206,-235.5
cds3207,-38.8
cds3208,-176.3
cds3209,-370.2
cds321,-514.2
cds3210,-1097.5
cds3211,-74
cds3212,-302
cds3213,-375.6
cds3214,-402.1
cds3215,-212
cds3216,-172.2
cds3217,-82.6
cds3218,-266.3
cds3219,-195.1
cds322,-362.6
cds3220,-177.6
cds3221,-137.8
cds3222,-392.6
cds3223,-148.2
cds3224,-330.9
cds3225,-424.2
cds3226,-482.2
cds3227,-119.5
cds3228,-55.6
cds3229,-124.3
cds323,-205.9
cds3230,-111.6
cds3231,-139.4
cds3232,-355
cds3233,-213.4
cds3234,-122.8
cds3235,-120.8
cds3236,-32.2
cds3237,-494.8
cds3238,-149.4
cds3239,-53
cds324,-63.9
cds3240,-165.3
cds3241,-118.4
cds3242,-187.5
cds3243,-130.1
cds3244,-104.7
cds3245,-171.2
cds3246,-96.4
cds3247,-129.5
cds3248,-81.5
cds3249,-61.5
cds325,-206.5
cds3250,-139.3
cds3251,-249.8
cds3252,-99.2
cds3253,-81
cds3254,-294.2
cds3255,-86.6
cds3256,-199.9
cds3257,-212.6
cds3258,-100.1
cds3259,-111.8
cds326,-63.3
cds3260,-485.4
cds3261,-196.3
cds3262,-621.7
cds3263,-514.3
cds3264,-381.1
cds3265,-124.6
cds3266,-178.6
cds3267,-101.2
cds3268,-178.2
cds3269,-301.7
cds327,-575.6
cds3270,-340.4
cds3271,-117.9
cds3272,-211.6
cds3273,-128.2
cds3274,-41
cds3275,-898.3
cds3276,-403.2
cds3277,-736.2
cds3278,-175.3
cds3279,-131.6
cds328,-322
cds3280,-75.9
cds3281,-106.7
cds3282,-132.6
cds3283,-205.8
cds3284,-250.8
cds3285,-57.3
cds3286,-219.3
cds3287,-52.8
cds3288,-705.7
cds3289,-199.3
cds329,-414.1
cds3290,-681
cds3291,-389.4
cds3292,-58
cds3293,-287.4
cds3294,-130.2
cds3295,-205.5
cds3296,-731.8
cds3297,-453.5
cds3298,-205.1
cds3299,-213.3
cds33,-218.1
cds330,-505.1
cds3300,-47.4
cds3301,-175.5
cds3302,-394.3
cds3303,-909
cds3304,-124.2
cds3305,-301.8
cds3306,-517.5
cds3307,-40.6
cds3308,-474
cds3309,-360.3
cds331,-784.3
cds3310,-292.1
cds3311,-308.2
cds3312,-211.5
cds3313,-452
cds3314,-495.1
cds3315,-105.2
cds3316,-302.5
cds3317,-451.4
cds3318,-433.3
cds3319,-123.9
cds332,-465.4
cds3320,-321.1
cds3321,-352.6
cds3322,-276.1
cds3323,-225.1
cds3324,-287.2
cds3325,-451
cds3326,-414.4
cds3327,-159.2
cds3328,-443.1
cds3329,-132.6
cds333,-443
cds3330,-144.7
cds3331,-189.5
cds3332,-293.2
cds3333,-975.2
cds3334,-197
cds3335,-730.8
cds3336,-207.2
cds3337,-126
cds3338,-299.2
cds3339,-583.2
cds334,-322.7
cds3340,-555.8
cds3341,-539.8
cds3342,-250.4
cds3343,-151.8
cds3344,-886.3
cds3345,-57.4
cds3346,-867.1
cds3347,-88.9
cds3348,-261.7
cds3349,-301.8
cds335,-235
cds3350,-228.1
cds3351,-183.3
cds3352,-489.1
cds3353,-809.8
cds3354,-842.4
cds3355,-1006.2
cds3356,-442.7
cds3357,-411.3
cds3358,-587.5
cds3359,-215.9
cds336,-139
cds3360,-307.7
cds3361,-106.2
cds3362,-561
cds3363,-50.1
cds3364,-853.2
cds3365,-552.4
cds3366,-441.3
cds3367,-769.1
cds3368,-784.3
cds3369,-414
cds337,-495.2
cds3370,-190.5
cds3371,-545.6
cds3372,-163.8
cds3373,-343
cds3374,-234.4
cds3375,-328.6
cds3376,-146.2
cds3377,-247.9
cds3378,-14.9
cds3379,-82.9
cds338,-143.2
cds3380,-177.1
cds3381,-71.7
cds3382,-634.7
cds3383,-142.2
cds3384,-303.7
cds3385,-419.6
cds3386,-300
cds3387,-309.7
cds3388,-440
cds3389,-276.7
cds339,-358.7
cds3390,-278.2
cds3391,-518.1
cds3392,-367.8
cds3393,-401.2
cds3394,-133.1
cds3395,-384.7
cds3396,-317.6
cds3397,-397.8
cds3398,-256.1
cds3399,-512.4
cds34,-291.4
cds340,-1206.8
cds3400,-192.6
cds3401,-84.4
cds3402,-116.2
cds3403,-215.6
cds3404,-907.5
cds3405,-81.7
cds3406,-199
cds3407,-188.7
cds3408,-482.8
cds3409,-374.1
cds341,-394.1
cds3410,-213.9
cds3411,-501.8
cds3412,-363.8
cds3413,-355.6
cds3414,-302.9
cds3415,-298.1
cds3416,-133.1
cds3417,-1671.3
cds3418,-75.4
cds3419,-66.2
cds342,-297.2
cds3420,-299.2
cds3421,-430.9
cds3422,-1064.7
cds3423,-419.7
cds3424,-402.4
cds3425,-86.3
cds3426,-328.2
cds3427,-446.6
cds3428,-592.3
cds3429,-103.5
cds343,-647
cds3430,-116
cds3431,-500.9
cds3432,-304.3
cds3433,-749.7
cds3434,-283.8
cds3435,-486.7
cds3436,-28.1
cds3437,-110.7
cds3438,-478.6
cds3439,-132
cds344,-362.9
cds3440,-74.8
cds3441,-346.7
cds3442,-173.6
cds3443,-124.6
cds3444,-194.6
cds3445,-75.9
cds3446,-84.6
cds3447,-178.3
cds3448,-101.5
cds3449,-395.5
cds345,-304
cds3450,-1144.9
cds3451,-181.4
cds3452,-209.2
cds3453,-510.7
cds3454,-444.1
cds3455,-578.4
cds3456,-203.3
cds3457,-311
cds3458,-334.1
cds3459,-484.1
cds346,-301.9
cds3460,-738.8
cds3461,-264.7
cds3462,-341.4
cds3463,-540.8
cds3464,-449.4
cds3465,-706.3
cds3466,-1343.3
cds3467,-412.1
cds3468,-877.7
cds3469,-1011.1
cds347,-354.8
cds3470,-274.6
cds3471,-48.3
cds3472,-498.3
cds3473,-40.8
cds3474,-571.7
cds3475,-41.1
cds3476,-363.9
cds3477,-375.9
cds3478,-381
cds3479,-360.6
cds348,-381.3
cds3480,-400.9
cds3481,-528.3
cds3482,-573.2
cds3483,-405.7
cds3484,-226.1
cds3485,-175.5
cds3486,-148.3
cds3487,-895.4
cds3488,-246
cds3489,-304.1
cds349,-499.5
cds3490,-232.9
cds3491,-72.8
cds3492,-59.6
cds3493,-60
cds3494,-38.2
cds3495,-150.9
cds3496,-234.3
cds3497,-789.5
cds3498,-335.6
cds3499,-90.9
cds35,-544.6
cds350,-163
cds3500,-299
cds3501,-101.8
cds3502,-76.4
cds3503,-555
cds3504,-448
cds3505,-262.7
cds3506,-468.1
cds3507,-413.4
cds3508,-357
cds3509,-270.5
cds351,-282.7
cds3510,-684.8
cds3511,-419.2
cds3512,-167.2
cds3513,-285.5
cds3514,-330.2
cds3515,-127.1
cds3516,-113.6
cds3517,-439
cds3518,-297
cds3519,-599.7
cds352,-401.3
cds3520,-265.5
cds3521,-305
cds3522,-256.8
cds3523,-21
cds3524,-49
cds3525,-237.5
cds3526,-305.1
cds3527,-374.1
cds3528,-90.6
cds3529,-571
cds353,-80.9
cds3530,-367.5
cds3531,-713.2
cds3532,-541.9
cds3533,-220
cds3534,-1654.9
cds3535,-179
cds3536,-286.5
cds3537,-87.3
cds3538,-58.7
cds3539,-59.6
cds354,-238.1
cds3540,-17.1
cds3541,-16.8
cds3542,-400.5
cds3543,-108.4
cds3544,-713.8
cds3545,-397.9
cds3546,-192.4
cds3547,-57.2
cds3548,-104.9
cds3549,-596.7
cds355,-115.3
cds3550,-270.5
cds3551,-472
cds3552,-149.2
cds3553,-290.8
cds3554,-398.8
cds3555,-146
cds3556,-71
cds3557,-147.2
cds3558,-529.7
cds3559,-491.4
cds356,-115.1
cds3560,-322.1
cds3561,-314.4
cds3562,-358.6
cds3563,-431
cds3564,-195.4
cds3565,-322.2
cds3566,-381.8
cds3567,-326.9
cds3568,-261.4
cds3569,-207.6
cds357,-336.2
cds3570,-191.1
cds3571,-165.2
cds3572,-229.8
cds3573,-267.5
cds3574,-296.8
cds3575,-167
cds3576,-226.1
cds3577,-306.3
cds3578,-292.8
cds3579,-441
cds358,-401.3
cds3580,-164.6
cds3581,-296.8
cds3582,-38.3
cds3583,-76.7
cds3584,-209.7
cds3585,-420.9
cds3586,-166.4
cds3587,-201.8
cds3588,-221.8
cds3589,-14.2
cds359,-137.2
cds3590,-292.5
cds3591,-222.8
cds3592,-228.4
cds3593,-606
cds3594,-199.9
cds3595,-85.8
cds3596,-774.8
cds3597,-250.2
cds3598,-787.8
cds3599,-454.6
cds36,-391.6
cds360,-354.3
cds3600,-517.7
cds3601,-619.9
cds3602,-777.1
cds3603,-436
cds3604,-35
cds3605,-352.9
cds3606,-295.2
cds3607,-252.1
cds3608,-62.1
cds3609,-453.7
cds361,-297.8
cds3610,-164.4
cds3611,-436
cds3612,-639.8
cds3613,-490.8
cds3614,-491.3
cds3615,-606.8
cds3616,-250.6
cds3617,-79.5
cds3618,-640.8
cds3619,-38.9
cds362,-334.5
cds3620,-15.1
cds3621,-494.9
cds3622,-210.7
cds3623,-109.1
cds3624,-122.9
cds3625,-141
cds3626,-514.1
cds3627,-648.7
cds3628,-230.5
cds3629,-289.5
cds363,-299
cds3630,-551.4
cds3631,-249.1
cds3632,-603.5
cds3633,-125.7
cds3634,-109.4
cds3635,-110
cds3636,-461.2
cds3637,-389.8
cds3638,-472.2
cds3639,-390.5
cds364,-340.4
cds3640,-248.8
cds3641,-339.9
cds3642,-250.4
cds3643,-181
cds3644,-256.5
cds3645,-135.1
cds3646,-905.4
cds3647,-413
cds3648,-413.4
cds3649,-504
cds365,-469.4
cds3650,-39
cds3651,-112
cds3652,-95.6
cds3653,-584.8
cds3654,-506.8
cds3655,-12.1
cds3656,-483.8
cds3657,-362.4
cds3658,-409.2
cds3659,-321.9
cds366,-328.5
cds3660,-246.9
cds3661,-204.1
cds3662,-498.5
cds3663,-197.5
cds3664,-139.5
cds3665,-166.6
cds3666,-228.6
cds3667,-408
cds3668,-495.1
cds3669,-448.4
cds367,-76.4
cds3670,-648.2
cds3671,-236.8
cds3672,-266
cds3673,-257.4
cds3674,-341.4
cds3675,-341.6
cds3676,-349.5
cds3677,-648.1
cds3678,-473.1
cds3679,-158.2
cds368,-152.5
cds3680,-503.8
cds3681,-328
cds3682,-561
cds3683,-192.1
cds3684,-162.9
cds3685,-82.2
cds3686,-278.9
cds3687,-139
cds3688,-191.3
cds3689,-674.4
cds369,-429.5
cds3690,-129.8
cds3691,-127.4
cds3692,-381.9
cds3693,-502.9
cds3694,-496.2
cds3695,-667.2
cds3696,-124.9
cds3697,-528
cds3698,-356.7
cds3699,-306.5
cds37,-421.5
cds370,-426.8
cds3700,-327.5
cds3701,-323.7
cds3702,-457.5
cds3703,-210.6
cds3704,-262.2
cds3705,-99.9
cds3706,-484.9
cds3707,-35.9
cds3708,-5.5
cds3709,-220.9
cds371,-399.3
cds3710,-65.2
cds3711,-337.1
cds3712,-696.5
cds3713,-631.1
cds3714,-354.9
cds3715,-522.5
cds3716,-85
cds3717,-50
cds3718,-730.8
cds3719,-556.7
cds372,-104.5
cds3720,-443.4
cds3721,-107.6
cds3722,-397.6
cds3723,-382.7
cds3724,-375.6
cds3725,-406.1
cds3726,-473.7
cds3727,-382.3
cds3728,-338.3
cds3729,-259.4
cds373,-66.2
cds3730,-433.9
cds3731,-488.4
cds3732,-407.5
cds3733,-455.9
cds3734,-270.6
cds3735,-524.3
cds3736,-439.3
cds3737,-564.3
cds3738,-431.6
cds3739,-427.8
cds374,-372.8
cds3740,-258.2
cds3741,-339.3
cds3742,-896.5
cds3743,-97.9
cds3744,-50.9
cds3745,-310.8
cds3746,-291.7
cds3747,-329.5
cds3748,-261.4
cds3749,-877.1
cds375,-64.5
cds3750,-233.5
cds3751,-329.5
cds3752,-89.5
cds3753,-65.9
cds3754,-312.8
cds3755,-152.1
cds3756,-297.4
cds3757,-693.1
cds3758,-211.8
cds3759,-202.9
cds376,-478.6
cds3760,-366.9
cds3761,-260
cds3762,-343.8
cds3763,-353.7
cds3764,-828
cds3765,-294.2
cds3766,-256.5
cds3767,-486
cds3768,-246.2
cds3769,-235.3
cds377,-84.2
cds3770,-568.4
cds3771,-75.8
cds3772,-172.1
cds3773,-271.4
cds3774,-278.3
cds3775,-165
cds3776,-554.7
cds3777,-237.4
cds3778,-452.8
cds3779,-800
cds378,-406.2
cds3780,-452.5
cds3781,-249.4
cds3782,-528.1
cds3783,-168.2
cds3784,-164.6
cds3785,-183.4
cds3786,-76.9
cds3787,-309.7
cds3788,-200
cds3789,-373.2
cds379,-281.2
cds3790,-267.3
cds3791,-948
cds3792,-219.8
cds3793,-148.4
cds3794,-470.8
cds3795,-29.8
cds3796,-551.3
cds3797,-376.8
cds3798,-453.4
cds3799,-630.3
cds38,-528.5
cds380,-163.6
cds3800,-210.8
cds3801,-278.3
cds3802,-391.8
cds3803,-160.4
cds3804,-425.8
cds3805,-485.2
cds3806,-716.8
cds3807,-258.7
cds3808,-441.9
cds3809,-312.1
cds381,-165.5
cds3810,-338.8
cds3811,-352.9
cds3812,-274.2
cds3813,-197.3
cds3814,-295.5
cds3815,-149.2
cds3816,-351.2
cds3817,-49.3
cds3818,-65.6
cds3819,-329.5
cds382,-38.3
cds3820,-229.3
cds3821,-356.3
cds3822,-1131.5
cds3823,-298.5
cds3824,-291.4
cds3825,-596.6
cds3826,-376.2
cds3827,-554
cds3828,-143.6
cds3829,-91.2
cds383,-203.3
cds3830,-269.2
cds3831,-474.5
cds3832,-538
cds3833,-273.3
cds3834,-289.2
cds3835,-366.5
cds3836,-205.4
cds3837,-359.9
cds3838,-238.7
cds3839,-499.6
cds384,-89.7
cds3840,-223.5
cds3841,-146
cds3842,-315.3
cds3843,-342.5
cds3844,-317
cds3845,-229.7
cds3846,-265.5
cds3847,-159.9
cds3848,-152.7
cds3849,-91.3
cds385,-105
cds3850,-118.4
cds3851,-234.7
cds3852,-386.5
cds3853,-537.3
cds3854,-281.6
cds3855,-64.7
cds3856,-177.3
cds3857,-329.8
cds3858,-468.7
cds3859,-177.6
cds386,-296.3
cds3860,-354.1
cds3861,-348.1
cds3862,-875.2
cds3863,-57.7
cds3864,-207.1
cds3865,-96.7
cds3866,-430.5
cds3867,-1014.8
cds3868,-300.4
cds3869,-812
cds387,-328.6
cds3870,-334.3
cds3871,-190.2
cds3872,-420.1
cds3873,-218.5
cds3874,-897
cds3875,-416.7
cds3876,-93.1
cds3877,-803.5
cds3878,-343.4
cds3879,-120.1
cds388,-434.3
cds3880,-258.5
cds3881,-548.4
cds3882,-938.8
cds3883,-357.5
cds3884,-354.6
cds3885,-288.7
cds3886,-527.9
cds3887,-343.9
cds3888,-458
cds3889,-231.5
cds389,-1066.5
cds3890,-107.1
cds3891,-368.1
cds3892,-611.6
cds3893,-303.4
cds3894,-304.2
cds3895,-335.8
cds3896,-254.2
cds3897,-406.2
cds3898,-141.2
cds3899,-201.1
cds39,-266.7
cds390,-402.9
cds3900,-148.9
cds3901,-235.4
cds3902,-170.9
cds3903,-103.7
cds3904,-1442.8
cds3905,-1586
cds3906,-131.1
cds3907,-413.4
cds3908,-306.7
cds3909,-66.5
cds391,-237.6
cds3910,-293.5
cds3911,-245.6
cds3912,-674.7
cds3913,-148.9
cds3914,-265.3
cds3915,-405
cds3916,-273.9
cds3917,-187.2
cds3918,-75.9
cds3919,-244.7
cds392,-465
cds3920,-135.4
cds3921,-507.3
cds3922,-524.8
cds3923,-515.2
cds3924,-578.6
cds3925,-111.4
cds3926,-154.4
cds3927,-310.7
cds3928,-540.9
cds3929,-476
cds393,-495.9
cds3930,-612.3
cds3931,-486.4
cds3932,-272.1
cds3933,-1390
cds3934,-607.1
cds3935,-248.7
cds3936,-281.1
cds3937,-72.3
cds3938,-491
cds3939,-552.1
cds394,-517.2
cds3940,-102.6
cds3941,-209.4
cds3942,-292.1
cds3943,-783.8
cds3944,-72.8
cds3945,-126.1
cds3946,-502.5
cds3947,-330.8
cds3948,-541.6
cds3949,-370.3
cds395,-702.7
cds3950,-411.6
cds3951,-443.4
cds3952,-295.5
cds3953,-308.5
cds3954,-156.3
cds3955,-316.8
cds3956,-897.3
cds3957,-123.1
cds3958,-224.4
cds3959,-542.1
cds396,-198.9
cds3960,-48.3
cds3961,-172.4
cds3962,-37.7
cds3963,-163.4
cds3964,-372.4
cds3965,-81.8
cds3966,-334.1
cds3967,-502
cds3968,-410
cds3969,-426.7
cds397,-367.3
cds3970,-26.9
cds3971,-218.4
cds3972,-133.6
cds3973,-119
cds3974,-1065.4
cds3975,-210
cds3976,-86.6
cds3977,-457.4
cds3978,-89.7
cds3979,-152.7
cds398,-382.1
cds3980,-534.6
cds3981,-657.2
cds3982,-273.3
cds3983,-623.2
cds3984,-86.3
cds3985,-741.9
cds3986,-478.5
cds3987,-199.5
cds3988,-267.2
cds3989,-372.6
cds399,-101.9
cds3990,-676.4
cds3991,-128.6
cds3992,-196.1
cds3993,-491.4
cds3994,-230.9
cds3995,-825.7
cds3996,-572
cds3997,-733.9
cds3998,-376.9
cds3999,-82
cds4,-91
cds40,-353.8
cds400,-674
cds4000,-669.4
cds4001,-332.1
cds4002,-214.5
cds4003,-353.4
cds4004,-490.4
cds4005,-285.2
cds4006,-275.8
cds4007,-139.7
cds4008,-107.3
cds4009,-320.6
cds401,-354.8
cds4010,-163.1
cds4011,-219.1
cds4012,-463.9
cds4013,-238
cds4014,-323.8
cds4015,-317.3
cds4016,-424
cds4017,-229.8
cds4018,-183.2
cds4019,-270.6
cds402,-89.3
cds4020,-135.7
cds4021,-356.2
cds4022,-303.4
cds4023,-128.8
cds4024,-80.3
cds4025,-750
cds4026,-343.9
cds4027,-524.9
cds4028,-19.9
cds4029,-388.8
cds403,-279.1
cds4030,-225.6
cds4031,-515.9
cds4032,-487.5
cds4033,-175.6
cds4034,-757.8
cds4035,-266
cds4036,-470.1
cds4037,-421.4
cds4038,-219.7
cds4039,-547.1
cds404,-168.2
cds4040,-472.2
cds4041,-208.9
cds4042,-537.6
cds4043,-67.7
cds4044,-60.6
cds4045,-53.6
cds4046,-35.7
cds4047,-473.1
cds4048,-507.4
cds4049,-644.3
cds405,-144.4
cds4050,-430.5
cds4051,-405.7
cds4052,-8.1
cds4053,-186
cds4054,-626.5
cds4055,-93.6
cds4056,-459.8
cds4057,-467.5
cds4058,-156.1
cds4059,-460.4
cds406,-404
cds4060,-84.4
cds4061,-564.1
cds4062,-116.9
cds4063,-245.9
cds4064,-370.2
cds4065,-185.1
cds4066,-27.1
cds4067,-37.5
cds4068,-113.3
cds4069,-171.4
cds407,-156.8
cds4070,-346.6
cds4071,-137.1
cds4072,-125.4
cds4073,-259.6
cds4074,-658.5
cds4075,-342.8
cds4076,-504.7
cds4077,-99.9
cds4078,-94.5
cds4079,-1298.1
cds408,-153.8
cds4080,-311.1
cds4081,-371.6
cds4082,-182.4
cds4083,-12.1
cds4084,-376.5
cds4085,-617.3
cds4086,-154.6
cds4087,-512.6
cds4088,-725.2
cds4089,-358.8
cds409,-343.5
cds4090,-91.8
cds4091,-481.1
cds4092,-476.6
cds4093,-355.4
cds4094,-50.3
cds4095,-468
cds4096,-134.8
cds4097,-919.7
cds4098,-282.1
cds4099,-98.6
cds41,-484.6
cds410,-183.9
cds4100,-219.6
cds4101,-200.3
cds4102,-109.5
cds4103,-200.9
cds4104,-425.7
cds4105,-629.2
cds4106,-85.8
cds4107,-113.1
cds4108,-271.9
cds4109,-233.3
cds411,-324.6
cds4110,-355.1
cds4111,-498
cds4112,-87.8
cds4113,-158.6
cds4114,-228.4
cds4115,-354.8
cds4116,-253
cds4117,-69.8
cds4118,-128.3
cds4119,-114.5
cds412,-692.4
cds4120,-56.9
cds4121,-146.4
cds4122,-180.9
cds4123,-96.2
cds4124,-217.9
cds4125,-215.3
cds4126,-506.3
cds4127,-204.9
cds4128,-363.6
cds4129,-299.3
cds413,-326
cds4130,-132.7
cds4131,-618.2
cds4132,-274.8
cds4133,-207.7
cds4134,-185.4
cds4135,-53.1
cds4136,-449.1
cds4137,-221.2
cds4138,-616.8
cds4139,-1440
cds414,-69.3
cds4140,-114.7
cds4141,-72.6
cds4142,-125.2
cds4143,-148
cds4144,-286.2
cds4145,-527.1
cds4146,-423.9
cds4147,-353.3
cds4148,-343.2
cds4149,-533.3
cds415,-498.7
cds4150,-178.2
cds4151,-492.3
cds4152,-96.3
cds4153,-151.4
cds4154,-760.8
cds4155,-577.1
cds4156,-537.1
cds4157,-321
cds4158,-9.2
cds4159,-978.7
cds416,-230.9
cds4160,-117.6
cds4161,-129.4
cds4162,-303.3
cds4163,-37.9
cds4164,-110.9
cds4165,-273.1
cds4166,-186.8
cds4167,-138.8
cds4168,-404.5
cds4169,-350.6
cds417,-294.3
cds4170,-114.8
cds4171,-177.4
cds4172,-299.8
cds4173,-1056
cds4174,-171.6
cds4175,-591.3
cds4176,-403.7
cds4177,-401.9
cds4178,-542.7
cds4179,-285.4
cds418,-158.9
cds4180,-449.1
cds4181,-242.3
cds4182,-322.8
cds4183,-155.5
cds4184,-390.7
cds4185,-391.4
cds4186,-115.1
cds4187,-336.2
cds4188,-276.6
cds4189,-122.1
cds419,-493.2
cds4190,-479.6
cds4191,-292.6
cds4192,-279.8
cds4193,-11.1
cds4194,-67.3
cds4195,-69.9
cds4196,-95.8
cds4197,-307.7
cds4198,-68.1
cds4199,-104.9
cds42,-106.7
cds420,-340.9
cds4200,-248.2
cds4201,-401.6
cds4202,-425.6
cds4203,-341.7
cds4204,-870.9
cds4205,-380.7
cds4206,-181.3
cds4207,-79.2
cds4208,-159.6
cds4209,-326.2
cds421,-106.6
cds4210,-441.9
cds4211,-725
cds4212,-301.9
cds4213,-199.8
cds4214,-236.9
cds4215,-220.2
cds4216,-138
cds4217,-273.8
cds4218,-454.4
cds4219,-72.5
cds422,-230.9
cds4220,-398.34
cds4221,-78.1
cds4222,-300.3
cds4223,-188
cds4224,-58
cds4225,-55.1
cds4226,-283.2
cds4227,-283.1
cds4228,-313.2
cds4229,-183.2
cds423,-707
cds4230,-157.8
cds4231,-179.7
cds4232,-202.3
cds4233,-171.7
cds4234,-200.7
cds4235,-874.7
cds4236,-174.1
cds4237,-159.8
cds4238,-296.3
cds4239,-511.1
cds424,-287.6
cds4240,-402
cds4241,-563.8
cds4242,-275.1
cds4243,-213.6
cds4244,-117.4
cds4245,-292.8
cds4246,-444.8
cds4247,-163.4
cds4248,-224.8
cds4249,-174.1
cds425,-544.9
cds4250,-419.5
cds4251,-222.6
cds4252,-290.9
cds4253,-402.1
cds4254,-491.8
cds4255,-440.1
cds4256,-290.2
cds4257,-545.9
cds4258,-47.1
cds4259,-423.7
cds426,-163.9
cds4260,-960.1
cds4261,-234.6
cds4262,-339.3
cds4263,-109.2
cds4264,-365.2
cds4265,-560.6
cds4266,-1215
cds4267,-297
cds4268,-341.6
cds4269,-57.8
cds427,-98
cds4270,-822
cds4271,-630.8
cds4272,-463.6
cds4273,-242.3
cds4274,-349.6
cds4275,-775
cds4276,-155.1
cds4277,-235.7
cds4278,-194.3
cds4279,-155.7
cds428,-432.3
cds4280,-248.9
cds4281,-194.4
cds4282,-210.9
cds4283,-269.9
cds4284,-74.7
cds4285,-398.9
cds4286,-148.7
cds4287,-137.5
cds4288,-229.4
cds4289,-561.8
cds429,-204
cds4290,-181
cds4291,-47.2
cds4292,-394.8
cds4293,-302.7
cds4294,-352.7
cds4295,-521.9
cds4296,-267.5
cds4297,-487.8
cds4298,-443.3
cds4299,-220.7
cds43,-497.8
cds430,-462.2
cds4300,-506.4
cds4301,-379.4
cds4302,-224.4
cds4303,-380.5
cds4304,-555.6
cds4305,-419.4
cds4306,-621
cds4307,-725.9
cds4308,-107.8
cds4309,-197.1
cds431,-847.3
cds4310,-251.1
cds4311,-300.34
cds4312,-142.9
cds4313,-231
cds4314,-526
cds4315,-448.6
cds4316,-231
cds4317,-27.5
cds4318,-219.6
cds432,-75.2
cds433,-634.7
cds434,-129.8
cds435,-101.3
cds436,-233.2
cds437,-559.1
cds438,-278.5
cds439,-139.2
cds44,-191.2
cds440,-680
cds441,-717.7
cds442,-109.8
cds443,-514.4
cds444,-291.5
cds445,-205.7
cds446,-131.3
cds447,-112.2
cds448,-487.5
cds449,-122.3
cds45,-746.4
cds450,-165.6
cds451,-35.2
cds452,-104.1
cds453,-1225.9
cds454,-408.1
cds455,-186.6
cds456,-1205.4
cds457,-46
cds458,-195.2
cds459,-124.1
cds46,-171.1
cds460,-190.5
cds461,-776.7
cds462,-96.1
cds463,-253.3
cds464,-638.9
cds465,-207.1
cds466,-338.9
cds467,-337.4
cds468,-448.4
cds469,-649.2
cds47,-295.2
cds470,-430.5
cds471,-564.8
cds472,-153.1
cds473,-258.7
cds474,-83
cds475,-1045.8
cds476,-320.2
cds477,-481.8
cds478,-153.2
cds479,-190.1
cds48,-127.9
cds480,-301.2
cds481,-194.6
cds482,-259.9
cds483,-314.6
cds484,-298.5
cds485,-212.9
cds486,-253
cds487,-999.6
cds488,-1771.3
cds489,-70.8
cds49,-291.9
cds490,-192.4
cds491,-106.2
cds492,-25.8
cds493,-8.6
cds494,-401.2
cds495,-314.6
cds496,-151.3
cds497,-292
cds498,-621.6
cds499,-229.1
cds5,-247
cds50,-380.9
cds500,-301.3
cds501,-455.9
cds502,-483.5
cds503,-455.4
cds504,-447.2
cds505,-234.5
cds506,-429.1
cds507,-358
cds508,-636.6
cds509,-490.6
cds51,-457.3
cds510,-310.9
cds511,-339.8
cds512,-419
cds513,-197.1
cds514,-268.1
cds515,-137.5
cds516,-479.9
cds517,-179.6
cds518,-74.3
cds519,-307.1
cds52,-765.5
cds520,-155.5
cds521,-188.7
cds522,-825.6
cds523,-297
cds524,-157.1
cds525,-151.5
cds526,-336.2
cds527,-55.4
cds528,-89.4
cds529,-87.7
cds53,-289.2
cds530,-58
cds531,-76.4
cds532,-328.5
cds533,-97.6
cds534,-345.6
cds535,-149.2
cds536,-183.8
cds537,-29.2
cds538,-143.2
cds539,-40.6
cds54,-45.9
cds540,-92.9
cds541,-111.1
cds542,-28.5
cds543,-108.3
cds544,-15.8
cds545,-346.7
cds546,-62.2
cds547,-154.9
cds548,-146.7
cds549,-60.2
cds55,-252
cds550,-67.4
cds551,-77.5
cds552,-44.3
cds553,-30.5
cds554,-189.4
cds555,-104.5
cds556,-138.7
cds557,-161
cds558,-47.6
cds559,-149.5
cds56,-1069.7
cds560,-243.9
cds561,-214.1
cds562,-292.2
cds563,-1088.9
cds564,-784.1
cds565,-482.1
cds566,-240
cds567,-492.3
cds568,-76
cds569,-467.1
cds57,-881.7
cds570,-1244.8
cds571,-500.6
cds572,-410.9
cds573,-215.5
cds574,-108
cds575,-76
cds576,-382.8
cds577,-42.8
cds578,-377.5
cds579,-185.4
cds58,-250.3
cds580,-797.3
cds581,-419.3
cds582,-75.7
cds583,-1568.4
cds584,-345.1
cds585,-272.3
cds586,-410.7
cds587,-430.4
cds588,-525.6
cds589,-343.3
cds59,-545.7
cds590,-433.5
cds591,-617.7
cds592,-308.6
cds593,-295.1
cds594,-150.8
cds595,-855.2
cds596,-74.9
cds597,-397.6
cds598,-429.1
cds599,-172
cds6,-497.5
cds60,-654
cds600,-328.4
cds601,-193.2
cds602,-201.6
cds603,-168.2
cds604,-540.6
cds605,-124.1
cds606,-401.3
cds607,-142.7
cds608,-258.8
cds609,-502.9
cds61,-310
cds610,-319.3
cds611,-223.6
cds612,-567.1
cds613,-321.2
cds614,-103
cds615,-324.8
cds616,-559.9
cds617,-222.8
cds618,-487.1
cds619,-164.3
cds62,-302.1
cds620,-53.2
cds621,-110.5
cds622,-205.1
cds623,-59.9
cds624,-325
cds625,-261.3
cds626,-191.8
cds627,-69.8
cds628,-388.6
cds629,-380.8
cds63,-273.8
cds630,-392.7
cds631,-649.3
cds632,-174.5
cds633,-116.8
cds634,-188.4
cds635,-198.7
cds636,-367
cds637,-208.8
cds638,-925.4
cds639,-152.4
cds64,-655.4
cds640,-288.3
cds641,-214
cds642,-427.2
cds643,-150.6
cds644,-217.5
cds645,-457
cds646,-568.7
cds647,-283
cds648,-238.1
cds649,-211.9
cds65,-332.7
cds650,-271.3
cds651,-271
cds652,-346.7
cds653,-586.8
cds654,-281.3
cds655,-166.7
cds656,-377.3
cds657,-518.7
cds658,-467.8
cds659,-564.3
cds66,-604.6
cds660,-258.9
cds661,-422.6
cds662,-381.9
cds663,-235.5
cds664,-738.2
cds665,-584.2
cds666,-456.5
cds667,-92.5
cds668,-128.3
cds669,-13.7
cds67,-47
cds670,-161.2
cds671,-87.7
cds672,-244.1
cds673,-165.2
cds674,-621.9
cds675,-142.1
cds676,-187.1
cds677,-36.4
cds678,-477.4
cds679,-709
cds68,-398.7
cds680,-77.8
cds681,-252.3
cds682,-1081
cds683,-196.5
cds684,-824
cds685,-650.9
cds686,-22.9
cds687,-64.6
cds688,-1681.5
cds689,-62.1
cds69,-194.3
cds690,-522.9
cds691,-121.5
cds692,-53.8
cds693,-297.1
cds694,-189
cds695,-132.3
cds696,-522.5
cds697,-501.1
cds698,-270.6
cds699,-265.6
cds7,-327.1
cds70,-518.5
cds700,-355.9
cds701,-298.9
cds702,-265.9
cds703,-407.7
cds704,-290.6
cds705,-196.7
cds706,-767.2
cds707,-152.6
cds708,-399.3
cds709,-112.1
cds71,-384.4
cds710,-108.4
cds711,-708.8
cds712,-240.5
cds713,-1036.9
cds714,-465.5
cds715,-420.1
cds716,-302.7
cds717,-212.7
cds718,-742
cds719,-864.9
cds72,-517.6
cds720,-563.9
cds721,-399.5
cds722,-33.8
cds723,-96.1
cds724,-129.3
cds725,-218.6
cds726,-160.7
cds727,-448.8
cds728,-466.6
cds729,-160.1
cds73,-22
cds730,-281
cds731,-336.3
cds732,-241.9
cds733,-335.7
cds734,-111.4
cds735,-361.7
cds736,-245.4
cds737,-382.6
cds738,-390.5
cds739,-392.6
cds74,-279.5
cds740,-354
cds741,-513.1
cds742,-261.5
cds743,-36.6
cds744,-260.8
cds745,-251.9
cds746,-406.1
cds747,-253.9
cds748,-350.5
cds749,-260.3
cds75,-620.4
cds750,-360.1
cds751,-515.5
cds752,-801.1
cds753,-452.4
cds754,-175
cds755,-488.1
cds756,-358.4
cds757,-497.6
cds758,-302.8
cds759,-235.8
cds76,-163.1
cds760,-730.6
cds761,-315
cds762,-356.4
cds763,-165.2
cds764,-193.1
cds765,-92.8
cds766,-156
cds767,-222
cds768,-196.4
cds769,-332.5
cds77,-364.8
cds770,-459.5
cds771,-276.5
cds772,-161.5
cds773,-357.1
cds774,-417.7
cds775,-627.5
cds776,-376.6
cds777,-218.7
cds778,-504.4
cds779,-140.3
cds78,-151
cds780,-796.1
cds781,-377.2
cds782,-416.6
cds783,-79.9
cds784,-74.4
cds785,-224.4
cds786,-781.7
cds787,-75.2
cds788,-329.7
cds789,-807.1
cds79,-339.4
cds790,-253.1
cds791,-234.7
cds792,-223.1
cds793,-142.5
cds794,-331.2
cds795,-172.9
cds796,-483.9
cds797,-23.8
cds798,-153.9
cds799,-405.2
cds8,-206.8
cds80,-124.5
cds800,-320
cds801,-565.8
cds802,-463.6
cds803,-242.9
cds804,-899.7
cds805,-290.8
cds806,-243.8
cds807,-288.8
cds808,-478.4
cds809,-375.1
cds81,-685.4
cds810,-723
cds811,-533.5
cds812,-351.3
cds813,-332.3
cds814,-679.8
cds815,-402
cds816,-436.7
cds817,-120.2
cds818,-367.8
cds819,-203.7
cds82,-599.6
cds820,-413.8
cds821,-245.4
cds822,-203.6
cds823,-455.7
cds824,-90.7
cds825,-232
cds826,-462.1
cds827,-168.8
cds828,-596.6
cds829,-111.1
cds83,-501.5
cds830,-65.4
cds831,-97.2
cds832,-239.8
cds833,-368.2
cds834,-148.4
cds835,-355.7
cds836,-437.4
cds837,-325.8
cds838,-316.7
cds839,-162.6
cds84,-406.4
cds840,-411.7
cds841,-196.9
cds842,-226
cds843,-266.2
cds844,-223.1
cds845,-238.3
cds846,-143.8
cds847,-122.9
cds848,-309.4
cds849,-332.5
cds85,-503.3
cds850,-528.4
cds851,-375.2
cds852,-615.7
cds853,-382.2
cds854,-565.2
cds855,-281.4
cds856,-243.2
cds857,-589.7
cds858,-315.5
cds859,-388.4
cds86,-468.3
cds860,-769.8
cds861,-62.6
cds862,-85.7
cds863,-844.2
cds864,-55.7
cds865,-256.9
cds866,-612.1
cds867,-645
cds868,-335.4
cds869,-154.9
cds87,-420.9
cds870,-1458
cds871,-188.9
cds872,-487.2
cds873,-455.1
cds874,-862.1
cds875,-198.3
cds876,-343.2
cds877,-173.6
cds878,-410.9
cds879,-459.4
cds88,-550.1
cds880,-285.9
cds881,-172
cds882,-248.8
cds883,-720.8
cds884,-272.7
cds885,-595.8
cds886,-229.2
cds887,-354.2
cds888,-423.6
cds889,-247.9
cds89,-337.4
cds890,-242.9
cds891,-567
cds892,-73.4
cds893,-771.4
cds894,-598.7
cds895,-385.7
cds896,-436.1
cds897,-43.4
cds898,-250.4
cds899,-320.2
cds9,-201.8
cds90,-304.2
cds900,-273
cds901,-254.5
cds902,-483.7
cds903,-234.9
cds904,-1724.3
cds905,-648.5
cds906,-173.4
cds907,-213.9
cds908,-401.9
cds909,-343.3
cds91,-460.5
cds910,-495.1
cds911,-388.3
cds912,-909.8
cds913,-285
cds914,-312.8
cds915,-439.6
cds916,-314.2
cds917,-188.1
cds918,-142.1
cds919,-183.1
cds92,-423.1
cds920,-807.8
cds921,-321.3
cds922,-167.6
cds923,-157.9
cds924,-260.3
cds925,-306.4
cds926,-172.6
cds927,-351.5
cds928,-776.4
cds929,-668.5
cds93,-321.6
cds930,-457.8
cds931,-559.4
cds932,-203.3
cds933,-51.7
cds934,-191.5
cds935,-609.2
cds936,-108.1
cds937,-358.1
cds938,-146.1
cds939,-187.1
cds94,-169.5
cds940,-756.7
cds941,-146.5
cds942,-763.6
cds943,-157
cds944,-206.3
cds945,-136.4
cds946,-113.1
cds947,-413.1
cds948,-87.1
cds949,-100.6
cds95,-937.5
cds950,-211.3
cds951,-401.9
cds952,-657.5
cds953,-257.8
cds954,-227.7
cds955,-147
cds956,-294.4
cds957,-576.1
cds958,-436.9
cds959,-16.6
cds96,-116.6
cds960,-452.1
cds961,-780.1
cds962,-156
cds963,-387.5
cds964,-725.1
cds965,-248.9
cds966,-196
cds967,-103.8
cds968,-85.8
cds969,-178.1
cds97,-57.7
cds970,-52.4
cds971,-53.3
cds972,-55.3
cds973,-29.4
cds974,-351.3
cds975,-1003.3
cds976,-380.8
cds977,-227.5
cds978,-374.8
cds979,-975.9
cds98,-250.2
cds980,-236.9
cds981,-107.4
cds982,-301.5
cds983,-271.8
cds984,-413.9
cds985,-62.8
cds986,-189.2
cds987,-43.2
cds988,-511.3
cds989,-197.2
cds99,-213.7
cds990,-206.8
cds991,-318.3
cds992,-123.2
cds993,-244.7
cds994,-387
cds995,-218.7
cds996,-1583.1
cds997,-558
cds998,-279.6
cds999,-369.4
gene1033,-311.6
gene1044,-84.9
gene1162,-83.2
gene1163,-407.7
gene1165,-150.6
gene1166,-310.2
gene1171,-138.1
gene1174,-42.9
gene1185,-753.8
gene1190,-102.4
gene1262,-315.5
gene1345,-335.1
gene1354,-29.1
gene1355,-11.3
gene1394,-138.9
gene1395,-147.3
gene1399,-121.2
gene1400,-262.9
gene1401,-73.1
gene1407,-0.58
gene1436,-1137.3
gene1450,-292.8
gene1467,-119.7
gene1493,-797.2
gene1495,-256.4
gene1506,-234
gene1507,-68.7
gene1540,-336.2
gene1541,-47.3
gene1579,-427.8
gene1584,-184.3
gene1605,-26.3
gene1606,-83.9
gene1615,-221
gene1616,-249.1
gene1617,-290.8
gene1763,-439.91
gene1982,-246.1
gene1983,-47.3
gene2012,-384
gene2025,-261.3
gene2039,-12.2
gene2041,-131.8
gene2042,-41.6
gene2043,-52.8
gene2046,-213.8
gene2054,-49
gene2055,-33.6
gene2056,-38.7
gene2082,-77.8
gene2140,-60.9
gene2143,-134.9
gene2147,-503.1
gene217,-82.5
gene2170,-1204.4
gene2176,-757.2
gene218,-59.3
gene2193,-540.24
gene2246,-798.6
gene2283,-1708.7
gene229,-688.8
gene2293,-54.3
gene230,-265.9
gene2300,-52.9
gene235,-57.9
gene236,-176.1
gene2394,-917
gene240,-112.1
gene2409,-97.4
gene2411,-185.8
gene2412,-81.2
gene2414,-232.2
gene2420,-10.7
gene2422,-1.6
gene245,-6.6
gene254,-71.8
gene255,-83.8
gene259,-154.2
gene262,-423.7
gene267,-113.2
gene270,-27.7
gene2704,-26.1
gene2705,-400.2
gene2707,-92.4
gene271,-53.8
gene2713,0
gene2715,-66.6
gene2716,-299.6
gene2718,-501.5
gene272,-111.2
gene2740,-424.9
gene280,-57.2
gene283,-267.3
gene289,-11.2
gene290,-97.2
gene291,-25.2
gene2916,-74
gene2920,-94.3
gene2921,-142.6
gene2922,-140.3
gene2923,-77.1
gene2926,-286.3
gene2980,-108.6
gene3032,-351.1
gene3033,-293.4
gene3044,-376.7
gene3062,-287.1
gene308,-12.7
gene309,-288.1
gene3102,-655.5
gene312,-165.9
gene313,-20.3
gene3193,-148.1
gene3194,-219.6
gene3279,-39.4
gene3315,-33.3
gene3316,-101.7
gene3330,-331.2
gene3484,-269.3
gene3488,-50.1
gene3504,-14.9
gene3545,-66.2
gene3551,-356
gene3568,-74.8
gene3600,-274.6
gene3625,-60
gene3629,-2.3
gene3656,-21
gene3657,-49
gene3669,-286.5
gene3671,-58.7
gene3672,-78.7
gene3673,-78
gene3674,-44.6
gene368,-115.3
gene3722,-261.5
gene3738,-35
gene3764,-289.5
gene3765,-551.4
gene378,-469.4
gene3850,-609.6
gene3858,-110.8
gene398,-105
gene4121,-352.3
gene4189,-313.3
gene4221,-41.1
gene4296,-96.2
gene4325,-96.3
gene4359,-391.4
gene4362,-368
gene4368,-67.3
gene4369,-69.9
gene4370,-95.8
gene4372,-68.1
gene4373,-104.9
gene4382,-159.6
gene4396,-78.1
gene4400,-55.1
gene4401,-340.5
gene4431,-290.2
gene4434,-423.7
gene4435,-960.1
gene505,-192.4
gene506,-106.2
gene507,-25.8
gene508,-120.6
gene543,-55.4
gene544,-89.4
gene545,-87.7
gene546,-58
gene55,-220.3
gene560,-15.8
gene571,-104.5
gene572,-138.7
gene573,-161
gene574,-47.6
gene577,-17.6
gene640,-285.3
gene701,-187.1
gene702,-36.4
gene715,-522.9
gene717,-53.8
gene718,-297.1
id1,-46.5
id10,-40.4
id100,-24.7
id101,-28.1
id102,-28.1
id103,-36.1
id104,-24.7
id105,-38.6
id106,-18
id107,-72
id115,-34.6
id116,-28.1
id117,-34.6
id118,-28.1
id119,-28.1
id12,-84.4
id120,-28.1
id121,-12.4
id122,-18.9
id123,-84.8
id13,-8.9
id131,-16
id132,-18.1
id133,-24.1
id134,-44.8
id135,-44.1
id136,-15.2
id137,-37.1
id138,-21.4
id139,-43.1
id14,-42.6
id140,-16.1
id141,-16.7
id142,-33.3
id143,-22.6
id145,-285.9
id146,-61.5
id147,-43.1
id148,-18.2
id149,-13.3
id15,-14.6
id151,-472.2
id152,-37.1
id153,-10
id154,-41
id155,-16
id157,-43.9
id158,-35.4
id159,-41.6
id16,-18.8
id160,-29.4
id161,-20.9
id162,-39.6
id163,-11.5
id164,-11.1
id166,-13.7
id168,-26.7
id169,-27.1
id17,-43
id170,-27.3
id171,-51
id172,-31.7
id173,-31.7
id174,-350.7
id176,-8.9
id177,-10.1
id178,-5.4
id179,-21.7
id18,-11.3
id180,-38.2
id181,-18.7
id182,-410.3
id19,-41.6
id190,-345.5
id191,-16.4
id192,-14.4
id193,-22.2
id194,-611.4
id195,-16.8
id196,-28.3
id197,-6.1
id198,-35.6
id199,-35.6
id2,-488.4
id200,-6
id203,-25.6
id205,-15.9
id206,-251.5
id208,-16.1
id209,-37
id21,-40.7
id210,-15
id213,-31.4
id214,-14.4
id215,-23.9
id216,-88
id217,-32
id218,-43.1
id219,-7.2
id22,-580
id220,-15.4
id221,-7.9
id223,-26
id225,-12.9
id226,-23
id227,-67.3
id228,-45.2
id229,-27.9
id230,-284.6
id235,-31.9
id236,-16.5
id237,-22
id238,-40.6
id239,-24.5
id240,-24.5
id241,-24.5
id245,-478.7
id246,-56.7
id247,-13.9
id248,-410.3
id249,-86.3
id250,-21.3
id251,-21.3
id255,-61.4
id258,-205.7
id264,-25.7
id265,-20.7
id266,-81.1
id268,-14.3
id269,-18
id270,-28.8
id271,-410.3
id272,-89
id273,-293.1
id274,-17
id277,-112.6
id279,-19.3
id280,-10
id281,-6.4
id282,-44.7
id283,-17
id284,-39.5
id285,-26
id287,-1.6
id288,-43.6
id289,-488.4
id290,-28.7
id291,-28.7
id293,-34.6
id294,-34.6
id295,-28.1
id297,-40.4
id298,-19.3
id299,-38
id30,-42.3
id300,-19
id302,-97.7
id303,-39.9
id304,-42.3
id305,-16.5
id306,-18.8
id307,-128.5
id308,-44.1
id309,-145.3
id31,-82.1
id311,-43.7
id313,-64.2
id314,-27.8
id315,-43.7
id32,-18.4
id322,-17.4
id323,-123.5
id325,0
id326,-34.1
id327,-70.7
id328,-14.3
id329,-34.8
id33,-284.6
id330,-21.2
id331,-28.5
id332,-28.5
id333,-28.5
id334,-28.5
id336,-16.2
id337,-46.4
id338,-14.8
id339,-38.2
id34,-13.4
id340,-17.3
id342,-21.2
id343,-17.6
id345,-28.1
id346,-119.5
id35,-26.4
id352,-30.3
id353,-30.3
id355,-1.8
id358,-14.8
id359,-478.7
id360,-30.2
id367,-47.2
id368,-73.9
id369,-11.2
id37,-75.5
id370,-51.9
id371,-66.2
id372,-23.9
id374,-79.1
id375,-16
id376,-410.3
id378,-106.8
id379,-16.4
id38,-347.5
id381,-478.7
id382,-49
id386,-13.6
id389,-40.9
id39,-154.2
id390,-21.8
id392,-14.6
id393,-52.5
id394,-27.6
id395,-13.6
id396,-47.8
id399,-5.1
id4,-284.6
id40,-20.3
id400,-37.5
id401,-34.3
id402,-9.2
id403,-50.9
id404,-38.2
id405,-30.3
id406,-36
id408,-17.4
id409,-42.3
id410,-28.1
id411,-410.3
id412,-154.6
id413,-48.6
id414,-30.7
id415,-50.9
id418,-28.8
id419,-585
id42,-33
id420,-12.3
id422,-19.5
id423,-20.6
id424,-41.3
id425,-29.5
id426,-12.7
id427,-19.3
id428,-59.5
id429,-9.9
id43,-285.9
id430,-44
id431,-24.1
id432,-284.6
id433,-36.8
id434,-41.2
id436,-22.8
id437,-41.6
id438,-27.9
id439,-29.2
id44,-28.2
id441,-410.3
id444,-49.6
id445,-56.3
id447,-29.5
id448,-44
id449,-41.2
id45,-75.2
id450,-27.4
id451,-434.4
id459,-16.8
id46,-285.9
id460,-15
id461,-16.4
id462,-18.9
id463,-46.9
id464,-23.7
id465,-49.2
id466,-14.5
id467,-40
id468,-12.9
id469,-9.4
id47,-11.2
id471,-17.9
id472,-59.6
id473,-583.4
id474,-32.8
id475,-1069
id476,-50.9
id479,-14.4
id480,-18.8
id483,-33.6
id484,-31.4
id485,-62.5
id486,-60.5
id488,-17.6
id489,-17.9
id49,-181.1
id491,-141.1
id493,-28.8
id494,-29.6
id495,-1074.7
id496,-48.8
id497,-16.7
id498,-40.6
id499,-26.1
id5,-56.2
id50,-14.7
id500,-84.4
id501,-61
id502,-38.5
id503,-37.9
id504,-38.2
id505,-13.9
id506,-227.9
id508,-41.7
id51,-181.6
id510,-10.7
id511,-13.2
id512,-39.8
id513,-13.6
id514,-38.1
id515,-49.1
id516,-191.4
id52,-95.7
id523,-22.8
id524,-31.7
id525,-28.4
id53,-38.1
id530,-1079.9
id532,-71.4
id533,-35.2
id534,-47.4
id536,-62.3
id54,-38.1
id542,-44.4
id544,-20.1
id546,-46.6
id547,-345.7
id548,-16.8
id549,-24.3
id55,-12.5
id550,-34.1
id551,-43
id552,-37
id553,-10.6
id554,-31
id555,-31
id556,-31
id557,-46
id558,-17.7
id559,-19
id56,-17.4
id560,-44.9
id561,-35.2
id562,-43.9
id564,-36.6
id57,-262.2
id573,-79.5
id579,-13.7
id58,-100.3
id580,-20.5
id581,-19.5
id582,-34.4
id583,-37.8
id584,-17.2
id585,-13.7
id586,-21.1
id587,-33.6
id589,-33.6
id59,-478.7
id590,-47.4
id591,-224.8
id592,-47.1
id593,-69.1
id594,-53.8
id6,-10.2
id60,-472.2
id61,-11.3
id62,-22.3
id63,-93.4
id64,-19.6
id65,-32.5
id66,-19.5
id67,-11.5
id68,-31.8
id69,-16.8
id7,-40.8
id70,-13.1
id71,-56.1
id72,-41.6
id73,-18
id74,-7.7
id75,-45.1
id77,-24.1
id78,-114.8
id79,-18.9
id8,-22.5
id80,-22.8
id81,-83.6
id83,-31.3
id85,-472.2
id86,-410.3
id87,-17.6
id88,-21
id89,-488.4
id9,-131.3
id91,-19.5
id92,-15.5
id93,-22.2
id94,-11.6
id95,-410.3
id98,-28
id99,-28
rna0,-21.6
rna1,-79.2
rna10,-26.4
rna100,-30.3
rna101,-30.3
rna102,-30.3
rna103,-29.5
rna104,-26.6
rna105,-30.2
rna106,-80.5
rna107,-55.7
rna108,-34.1
rna109,-49
rna11,-20.3
rna110,-50.3
rna111,-36.5
rna112,-163.3
rna113,-50.9
rna114,-30.3
rna115,-36
rna116,-42.3
rna118,-30.7
rna12,-11.2
rna121,-29.6
rna122,-28.8
rna124,-24.1
rna125,-27.9
rna126,-29.2
rna127,-20.2
rna128,-28.6
rna129,-29.5
rna13,-56.1
rna130,-27.4
rna131,-2.3
rna132,-46.9
rna133,-49.2
rna135,-32.8
rna138,-28.1
rna139,-27.8
rna14,-24.1
rna140,-32
rna141,-29.9
rna142,-33.6
rna143,-31.4
rna144,-60.5
rna145,-90.9
rna147,-28.8
rna148,-29.6
rna15,-31.3
rna151,-40.6
rna152,-84.4
rna153,-32.9
rna155,-32.8
rna158,-22.8
rna159,-31.7
rna16,-17.6
rna160,-28.4
rna161,-31.2
rna162,-55.8
rna164,-32.8
rna167,-43.6
rna168,-34.1
rna169,-31
rna17,-21
rna170,-31
rna171,-31
rna172,-31
rna173,-28.8
rna174,-37.8
rna175,-33.6
rna176,-31.1
rna177,-33.6
rna18,-28
rna19,-28
rna2,-41.6
rna20,-24.7
rna21,-28.1
rna22,-28.1
rna23,-36.1
rna24,-24.7
rna25,-28.1
rna26,-34.6
rna27,-28.1
rna28,-34.6
rna29,-28.1
rna30,-28.1
rna31,-28.1
rna32,-24.1
rna33,-37.1
rna34,-33.3
rna35,-37.1
rna36,-41.6
rna37,-27.1
rna38,-26.7
rna39,-27.1
rna4,-28.8
rna40,-51
rna41,-31.7
rna42,-31.7
rna43,-31
rna44,-32.7
rna45,-23.3
rna46,-14.4
rna47,-22.2
rna48,-25.6
rna49,-15.9
rna5,-29.6
rna50,-27.6
rna51,-31.4
rna52,-14.4
rna53,-23.9
rna54,-76.3
rna55,-26
rna56,-36.6
rna57,-28.3
rna58,-31
rna59,-31.9
rna60,-16.5
rna61,-40.6
rna62,-24.5
rna63,-24.5
rna64,-24.5
rna65,-24.5
rna66,-56.7
rna67,-54.7
rna68,-61.4
rna69,-19.8
rna70,-28.8
rna71,-17
rna72,-26
rna73,-1.6
rna74,-28.7
rna75,-28.7
rna76,-34.6
rna77,-34.6
rna78,-34.6
rna79,-28.1
rna8,-28.1
rna80,-128.5
rna81,-64.2
rna82,-27.8
rna85,-32.8
rna87,-52
rna88,-123.5
rna89,0
rna9,-28.1
rna90,-34.1
rna91,-21.2
rna92,-28.5
rna93,-28.5
rna94,-28.5
rna95,-28.5
rna96,-43.9
rna97,-21.2
rna98,-119.5
rna99,-61.6
