"ID","mfe"
"cds0",-342.5
"cds1",-264.2
"cds10",-307.5
"cds100",-139.7
"cds1000",-305.9
"cds1001",-349.1
"cds1002",-57.4
"cds1003",-302.5
"cds1004",-184.7
"cds1005",-228
"cds1006",-766.7
"cds1007",-488.8
"cds1008",-34
"cds1009",-34.5
"cds101",-1036.2
"cds1010",-40.5
"cds1011",-289.3
"cds1012",-352.2
"cds1013",-248.2
"cds1014",-356.8
"cds1015",-301.4
"cds1016",-76.5
"cds1017",-236.5
"cds1018",-58.2
"cds1019",-87
"cds102",-997.4
"cds1020",-92.5
"cds1021",-69.6
"cds1022",-109.3
"cds1023",-194.9
"cds1024",-37.5
"cds1025",-465.6
"cds1026",-216.4
"cds1027",-84.1
"cds1028",-46.6
"cds1029",-23.9
"cds103",-56.6
"cds1030",-29
"cds1031",-276.9
"cds1032",-392.2
"cds1033",-800.9
"cds1034",-113.1
"cds1035",-222.7
"cds1036",-186.5
"cds1037",-251
"cds1038",-31.8
"cds1039",-176.5
"cds104",-102.3
"cds1040",-25.3
"cds1041",-14.2
"cds1042",-24.8
"cds1043",-101.7
"cds1044",-74.1
"cds1045",-120.2
"cds1046",-72.8
"cds1047",-43.6
"cds1048",-128.9
"cds1049",-288.5
"cds105",-110.4
"cds1050",-100.3
"cds1051",-188.7
"cds1052",-301.3
"cds1053",-161.6
"cds1054",-343.6
"cds1055",-163.9
"cds1056",-114.8
"cds1057",-287.6
"cds1058",-238.2
"cds1059",-130.1
"cds106",-574.2
"cds1060",-20.1
"cds1061",-196.5
"cds1062",-241.5
"cds1063",-427.5
"cds1064",-124.3
"cds1065",-57.9
"cds1066",-339.8
"cds1067",-215.8
"cds1068",-34.9
"cds1069",-117.5
"cds107",-323.1
"cds1070",-75.8
"cds1071",-166.2
"cds1072",-135.7
"cds1073",-1014.8
"cds1074",-1120.3
"cds1075",-191.6
"cds1076",-333.1
"cds1077",-54.9
"cds1078",-83.7
"cds1079",-41.4
"cds108",-62
"cds1080",-115.8
"cds1081",-31.1
"cds1082",-50.4
"cds1083",-432.7
"cds1084",-354.1
"cds1085",-333.2
"cds1086",-85.6
"cds1087",-128.3
"cds1088",-527.7
"cds1089",-448.6
"cds109",-154.5
"cds1090",-313.8
"cds1091",-392.2
"cds1092",-459.8
"cds1093",-320
"cds1094",-205.9
"cds1095",-214.4
"cds1096",-114.7
"cds1097",-16.5
"cds1098",-217.8
"cds1099",-209.6
"cds11",-373.4
"cds110",-159.6
"cds1100",-48.4
"cds1101",-212.9
"cds1102",-223.8
"cds1103",-74.3
"cds1104",-256.2
"cds1105",-168.3
"cds1106",-249.9
"cds1107",-313.1
"cds1108",-195
"cds1109",-309.1
"cds111",-56.3
"cds1110",-286.4
"cds1111",-855.9
"cds1112",-268.1
"cds1113",-43.3
"cds1114",-160.9
"cds1115",-262.5
"cds1116",-134.7
"cds1117",-316.9
"cds1118",-327.2
"cds1119",-694.3
"cds112",-223.4
"cds1120",-39.6
"cds1121",-183.1
"cds1122",-181.5
"cds1123",-46.7
"cds1124",-39.5
"cds1125",-274.6
"cds1126",-351.5
"cds1127",-153.7
"cds1128",-172.1
"cds1129",-257.6
"cds113",-61.5
"cds1130",-293.4
"cds1131",-42.6
"cds1132",-129
"cds1133",-54.3
"cds1134",-76.1
"cds1135",-162
"cds1136",-416
"cds1137",-328.1
"cds1138",-445.6
"cds1139",-25.5
"cds114",-83.7
"cds1140",-227.3
"cds1141",-85.1
"cds1142",-154
"cds1143",-118.5
"cds1144",-161.1
"cds1145",-220.2
"cds1146",-262.1
"cds1147",-192.9
"cds1148",-389.1
"cds1149",-229.9
"cds115",-175.3
"cds1150",-268.38
"cds1151",-271.8
"cds1152",-94.1
"cds1153",-58.5
"cds1154",-130.6
"cds1155",-66
"cds1156",-117.9
"cds1157",-85.7
"cds1158",-100.4
"cds1159",-130.2
"cds116",-115.3
"cds1160",-316.4
"cds1161",-102.9
"cds1162",-52
"cds1163",-44
"cds1164",-311.4
"cds1165",-582
"cds1166",-48.8
"cds1167",-85.8
"cds1168",-36.8
"cds1169",-103.7
"cds117",-34.3
"cds1170",-115.3
"cds1171",-197.3
"cds1172",-142.4
"cds1173",-48.6
"cds1174",-157.5
"cds1175",-132
"cds1176",-171.4
"cds1177",-531.9
"cds1178",-232.6
"cds1179",-220.3
"cds118",-49.5
"cds1180",-265
"cds1181",-218.4
"cds1182",-309.1
"cds1183",-356.1
"cds1184",-75.1
"cds1185",-91.4
"cds1186",-251.3
"cds1187",-252.8
"cds1188",-143.5
"cds1189",-293.3
"cds119",-90.6
"cds1190",-224.4
"cds1191",-279.3
"cds1192",-356.9
"cds1193",-190.3
"cds1194",-247.1
"cds1195",-63.3
"cds1196",-332.4
"cds1197",-352.9
"cds1198",-474.4
"cds1199",-107
"cds12",-156.9
"cds120",-63.5
"cds1200",-424.1
"cds1201",-68.6
"cds1202",-47.8
"cds1203",-403.1
"cds1204",-238.1
"cds1205",-31.9
"cds1206",-156.5
"cds1207",-277.5
"cds1208",-237.4
"cds1209",-228.1
"cds121",-130.4
"cds1210",-286.5
"cds1211",-362.5
"cds1212",-92.8
"cds1213",-69.7
"cds1214",-315.5
"cds1215",-250.9
"cds1216",-381
"cds1217",-28.8
"cds1218",-177.6
"cds1219",-137.1
"cds122",-38.2
"cds1220",-57.2
"cds1221",-38.4
"cds1222",-84
"cds1223",-333.9
"cds1224",-436.3
"cds1225",-377
"cds1226",-148.2
"cds1227",-237
"cds1228",-186.6
"cds1229",-125.6
"cds123",-91.6
"cds1230",-151.2
"cds1231",-32.3
"cds1232",-38.7
"cds1233",-133.9
"cds1234",-150.4
"cds1235",-47.6
"cds1236",-23
"cds1237",-140.4
"cds1238",-134.8
"cds1239",-157.1
"cds124",-141.6
"cds1240",-274
"cds1241",-249
"cds1242",-270.7
"cds1243",-242.1
"cds1244",-450.7
"cds1245",-65.2
"cds1246",-298.2
"cds1247",-66.6
"cds1248",-220
"cds1249",-697.3
"cds125",-96.8
"cds1250",-1140.7
"cds1251",-187.2
"cds1252",-61.4
"cds1253",-197.8
"cds1254",-363.1
"cds1255",-107.6
"cds1256",-71.4
"cds1257",-240.5
"cds1258",-489.9
"cds1259",-40.4
"cds126",-135.9
"cds1260",-425.5
"cds1261",-318.9
"cds1262",-377.6
"cds1263",-151.6
"cds1264",-448.4
"cds1265",-230.6
"cds1266",-402.7
"cds1267",-309.6
"cds1268",-72.1
"cds1269",-421.9
"cds127",-37.8
"cds1270",-199.1
"cds1271",-157.6
"cds1272",-215.37
"cds1273",-34.6
"cds1274",-353.5
"cds1275",-332.8
"cds1276",-316.8
"cds1277",-143.4
"cds1278",-59.1
"cds1279",-69.4
"cds128",-120.4
"cds1280",-135.6
"cds1281",-32.7
"cds1282",-65.7
"cds1283",-456.17
"cds1284",-232.6
"cds1285",-518.27
"cds1286",-41.1
"cds1287",-186.1
"cds1288",-354.8
"cds1289",-341.8
"cds129",-367.6
"cds1290",-100.5
"cds1291",-444.5
"cds1292",-285.4
"cds1293",-155.1
"cds1294",-19.8
"cds1295",-32.9
"cds1296",-98.2
"cds1297",-190.1
"cds1298",-164.1
"cds1299",-217.4
"cds13",-121.8
"cds130",-159.4
"cds1300",-50.2
"cds1301",-518.2
"cds1302",-203.3
"cds1303",-242.7
"cds1304",-87.6
"cds1305",-301.1
"cds1306",-241.2
"cds1307",-39.1
"cds1308",-36.4
"cds1309",-222.3
"cds131",-58.8
"cds1310",-132.4
"cds1311",-45.9
"cds1312",-101.9
"cds1313",-89.8
"cds1314",-205.9
"cds1315",-532.7
"cds1316",-290
"cds1317",-55.4
"cds1318",-112.6
"cds1319",-40.3
"cds132",-45.8
"cds1320",-237.2
"cds1321",-45
"cds1322",-92.3
"cds1323",-439.6
"cds1324",-219.3
"cds1325",-191.2
"cds1326",-297
"cds1327",-169.4
"cds1328",-464.2
"cds1329",-35.7
"cds133",-15.1
"cds1330",-183.5
"cds1331",-156.1
"cds1332",-38.7
"cds1333",-147.6
"cds1334",-278.8
"cds1335",-281
"cds1336",-346.4
"cds1337",-385.1
"cds1338",-50
"cds1339",-153.6
"cds134",-86.8
"cds1340",-79.6
"cds1341",-16.2
"cds1342",-383
"cds1343",-289.8
"cds1344",-47.6
"cds1345",-366.2
"cds1346",-160.5
"cds1347",-265
"cds1348",-181.8
"cds1349",-177.6
"cds135",-92.5
"cds1350",-339.3
"cds1351",-207.7
"cds1352",-135.8
"cds1353",-32.9
"cds1354",-215.6
"cds1355",-36.5
"cds1356",-472.1
"cds1357",-76.8
"cds1358",-69.9
"cds1359",-89.2
"cds136",-254.6
"cds1360",-35
"cds1361",-124.3
"cds1362",-345.3
"cds1363",-115.4
"cds1364",-63.2
"cds1365",-928.3
"cds1366",-264
"cds1367",-269.4
"cds1368",-293.5
"cds1369",-527.2
"cds137",-96.5
"cds1370",-153.2
"cds1371",-69.7
"cds1372",-252
"cds1373",-97.4
"cds1374",-71.4
"cds1375",-266.9
"cds1376",-110.2
"cds1377",-49.5
"cds1378",-105.7
"cds1379",-119.4
"cds138",-226.2
"cds1380",-76.7
"cds1381",-47.1
"cds1382",-89.6
"cds1383",-142.1
"cds1384",-122.6
"cds1385",-292.8
"cds1386",-226.4
"cds1387",-258.8
"cds1388",-16.5
"cds1389",-330.7
"cds139",-262.7
"cds1390",-135.2
"cds1391",-31.1
"cds1392",-187.4
"cds1393",-138.3
"cds1394",-111.6
"cds1395",-254
"cds1396",-91.5
"cds1397",-425.7
"cds1398",-99.3
"cds1399",-220.5
"cds14",-110.9
"cds140",-210.4
"cds1400",-60.8
"cds1401",-584.9
"cds1402",-331.4
"cds1403",-553.7
"cds1404",-420
"cds1405",-266.9
"cds1406",-373.2
"cds1407",-325.4
"cds1408",-242.9
"cds1409",-190
"cds141",-226.2
"cds1410",-178.4
"cds1411",-159.4
"cds1412",-77.5
"cds1413",-358.8
"cds1414",-324.4
"cds1415",-235.5
"cds1416",-158.9
"cds1417",-184.6
"cds1418",-52.3
"cds1419",-219.7
"cds142",-105.4
"cds1420",-160.5
"cds1421",-111
"cds1422",-62.9
"cds1423",-183.3
"cds1424",-113.6
"cds1425",-762.8
"cds1426",-108
"cds1427",-249.6
"cds1428",-135.1
"cds1429",-387.7
"cds143",-119.6
"cds1430",-242.2
"cds1431",-350.9
"cds1432",-280.1
"cds1433",-918.5
"cds1434",-240.5
"cds1435",-284.2
"cds1436",-194.4
"cds1437",-181.9
"cds1438",-419.8
"cds1439",-744.5
"cds144",-142.6
"cds1440",-218.7
"cds1441",-71
"cds1442",-168.2
"cds1443",-33.1
"cds1444",-336.6
"cds1445",-681.3
"cds1446",-117.5
"cds1447",-251.2
"cds1448",-347.4
"cds1449",-269.6
"cds145",-112
"cds1450",-225.6
"cds1451",-544.4
"cds1452",-241.5
"cds1453",-171.3
"cds1454",-158
"cds1455",-18.1
"cds1456",-47.2
"cds1457",-80.4
"cds1458",-477.8
"cds1459",-179.6
"cds146",-174.3
"cds1460",-276.9
"cds1461",-633
"cds1462",-147.7
"cds1463",-291.3
"cds1464",-257.7
"cds1465",-213.1
"cds1466",-51.4
"cds1467",-208.6
"cds1468",-948.6
"cds1469",-265
"cds147",-291.1
"cds1470",-77
"cds1471",-392.4
"cds1472",-58.4
"cds1473",-74
"cds1474",-83.4
"cds1475",-125.3
"cds1476",-205.7
"cds1477",-79.7
"cds1478",-137
"cds1479",-240.4
"cds148",-125.5
"cds1480",-188.3
"cds1481",-107
"cds1482",-76.8
"cds1483",-47.3
"cds1484",-189.2
"cds1485",-57.1
"cds1486",-315.2
"cds1487",-264.6
"cds1488",-210.9
"cds1489",-545.9
"cds149",-167
"cds1490",-348.4
"cds1491",-211.8
"cds1492",-151.3
"cds1493",-363.7
"cds1494",-175
"cds1495",-73.2
"cds1496",-106.4
"cds1497",-64.3
"cds1498",-386.4
"cds1499",-296.1
"cds15",-128.3
"cds150",-163.8
"cds1500",-205.3
"cds1501",-388
"cds1502",-74.4
"cds1503",-129.1
"cds1504",-298.1
"cds1505",-147.2
"cds1506",-52.5
"cds1507",-325.1
"cds1508",-41.3
"cds1509",-75.9
"cds151",-37.5
"cds1510",-241.4
"cds1511",-359.8
"cds1512",-86.8
"cds1513",-162.9
"cds1514",-163.3
"cds1515",-58.1
"cds1516",-222
"cds1517",-287.9
"cds1518",-561.6
"cds1519",-258.1
"cds152",-234.2
"cds1520",-217.8
"cds1521",-268.2
"cds1522",-540.5
"cds1523",-109.7
"cds1524",-175.9
"cds1525",-132.6
"cds1526",-163.6
"cds1527",-69.9
"cds1528",-131.1
"cds1529",-156.2
"cds153",-35
"cds1530",-207.6
"cds1531",-185
"cds1532",-131.6
"cds1533",-216.2
"cds1534",-205.2
"cds1535",-361.7
"cds1536",-352
"cds1537",-481.2
"cds1538",-1239.6
"cds1539",-104.3
"cds154",-129.6
"cds1540",-290
"cds1541",-58.6
"cds1542",-73.2
"cds1543",-570.8
"cds1544",-72.5
"cds1545",-97.6
"cds1546",-244
"cds1547",-257
"cds1548",-53
"cds1549",-593.3
"cds155",-156.4
"cds1550",-52.4
"cds1551",-341.8
"cds1552",-249.1
"cds1553",-305.8
"cds1554",-51.8
"cds1555",-245.8
"cds1556",-161.5
"cds1557",-276.2
"cds1558",-335.2
"cds1559",-247.2
"cds156",-213.5
"cds1560",-457.9
"cds1561",-192.9
"cds1562",-51
"cds1563",-690.2
"cds1564",-61.4
"cds1565",-178.7
"cds1566",-255.9
"cds1567",-384
"cds1568",-290
"cds1569",-245.2
"cds157",-344.5
"cds1570",-324.8
"cds1571",-307.1
"cds1572",-206.1
"cds1573",-55.5
"cds1574",-205.5
"cds1575",-227.4
"cds1576",-146.8
"cds1577",-361.1
"cds1578",-27.3
"cds1579",-266.1
"cds158",-393.8
"cds1580",-435.4
"cds1581",-217.4
"cds1582",-62.9
"cds1583",-233
"cds1584",-486.1
"cds1585",-255
"cds1586",-20.8
"cds1587",-310.8
"cds1588",-393.1
"cds1589",-98.2
"cds159",-518.3
"cds1590",-17
"cds1591",-92.6
"cds1592",-53.9
"cds1593",-33.5
"cds1594",-147.2
"cds1595",-697.5
"cds1596",-505.2
"cds1597",-120.6
"cds1598",-570
"cds1599",-90.1
"cds16",-452.2
"cds160",-91.6
"cds1600",-119.4
"cds1601",-443
"cds1602",-162.7
"cds1603",-61.2
"cds1604",-385.6
"cds1605",-86.1
"cds1606",-412.7
"cds1607",-181
"cds1608",-327.6
"cds1609",-103.5
"cds161",-111.4
"cds1610",-312.3
"cds1611",-101.4
"cds1612",-168.9
"cds1613",-165.9
"cds1614",-191.5
"cds1615",-452.2
"cds1616",-322.1
"cds1617",-230.6
"cds1618",-46.6
"cds1619",-233.5
"cds162",-187.3
"cds1620",-164.2
"cds1621",-334.7
"cds1622",-364.9
"cds1623",-97.4
"cds1624",-334
"cds1625",-42.7
"cds1626",-122.1
"cds1627",-163.7
"cds1628",-73.7
"cds1629",-102.7
"cds163",-228.7
"cds1630",-59.4
"cds1631",-330.14
"cds1632",-30
"cds1633",-143.5
"cds1634",-201.5
"cds1635",-295.6
"cds1636",-181
"cds1637",-110
"cds1638",-327.1
"cds1639",-415.6
"cds164",-147.8
"cds1640",-58
"cds1641",-159.7
"cds1642",-167.4
"cds1643",-154.1
"cds1644",-175.3
"cds1645",-352.8
"cds1646",-156
"cds1647",-276.9
"cds1648",-153.7
"cds1649",-40.5
"cds165",-416.7
"cds1650",-51.4
"cds1651",-219.8
"cds1652",-360.9
"cds1653",-393.2
"cds1654",-251.8
"cds1655",-118.4
"cds1656",-337
"cds1657",-92.9
"cds1658",-120.8
"cds1659",-37.5
"cds166",-284.7
"cds1660",-121
"cds1661",-25.6
"cds1662",-354.4
"cds1663",-37.3
"cds1664",-34.8
"cds1665",-42.8
"cds1666",-125.7
"cds1667",-53.6
"cds1668",-94
"cds1669",-90.8
"cds167",-194.2
"cds1670",-163.3
"cds1671",-40.1
"cds1672",-246.3
"cds1673",-147.2
"cds1674",-49.8
"cds1675",-58.3
"cds1676",-44
"cds1677",-75.5
"cds1678",-52.1
"cds1679",-55.9
"cds168",-228
"cds1680",-328.9
"cds1681",-346.4
"cds1682",-30.4
"cds1683",-69.7
"cds1684",-46.7
"cds1685",-31.4
"cds1686",-29.9
"cds1687",-678.4
"cds1688",-107.9
"cds1689",-41.3
"cds169",-38.2
"cds1690",-512.3
"cds1691",-148.4
"cds1692",-157.1
"cds1693",-317.1
"cds1694",-156.6
"cds1695",-124.3
"cds1696",-222.6
"cds1697",-255.2
"cds1698",-145.1
"cds1699",-201.5
"cds17",-65.8
"cds170",-52.3
"cds1700",-51.7
"cds1701",-57.5
"cds1702",-48.1
"cds1703",-200.6
"cds1704",-192.9
"cds1705",-451.89
"cds1706",-334.5
"cds1707",-40.6
"cds1708",-342.9
"cds1709",-90.1
"cds171",-96.9
"cds1710",-203.8
"cds1711",-31.7
"cds1712",-49.9
"cds1713",-69.5
"cds1714",-78.6
"cds1715",-189.8
"cds1716",-94.7
"cds1717",-90.3
"cds1718",-46.9
"cds1719",-89.9
"cds172",-635.3
"cds1720",-91.8
"cds1721",-407.4
"cds1722",-295.4
"cds1723",-305.8
"cds1724",-172
"cds1725",-311.8
"cds1726",-140.4
"cds1727",-84.1
"cds1728",-76.7
"cds1729",-131.9
"cds173",-333.8
"cds1730",-315.5
"cds1731",-383.4
"cds1732",-193.8
"cds1733",-379
"cds1734",-243.6
"cds1735",-196.1
"cds1736",-172.6
"cds1737",-109
"cds1738",-30.7
"cds1739",-88.4
"cds174",-418
"cds1740",-58.4
"cds1741",-201.7
"cds1742",-31.7
"cds1743",-37.7
"cds1744",-12.82
"cds1745",-174.1
"cds1746",-312.3
"cds1747",-30.2
"cds1748",-217.7
"cds1749",-369.8
"cds175",-388.2
"cds1750",-216
"cds1751",-229.4
"cds1752",-184.07
"cds1753",-94.7
"cds1754",-48.3
"cds1755",-285.3
"cds1756",-215.1
"cds1757",-441.2
"cds1758",-254
"cds1759",-87.5
"cds176",-395
"cds1760",-396.6
"cds1761",-108.6
"cds1762",-320.2
"cds1763",-52.7
"cds1764",-342.8
"cds1765",-56.5
"cds1766",-33.5
"cds1767",-164.8
"cds1768",-124.5
"cds1769",-32.6
"cds177",-449.2
"cds1770",-48.2
"cds1771",-205.9
"cds1772",-387.1
"cds1773",-168.7
"cds1774",-322.8
"cds1775",-398.7
"cds1776",-277.4
"cds1777",-408.1
"cds1778",-281.7
"cds1779",-49.3
"cds178",-34.4
"cds1780",-202.8
"cds1781",-120.8
"cds1782",-290.3
"cds1783",-274.8
"cds1784",-415.9
"cds1785",-317.8
"cds1786",-105
"cds1787",-174.6
"cds1788",-129.4
"cds1789",-184.8
"cds179",-370.3
"cds1790",-265.6
"cds1791",-150.1
"cds1792",-123.5
"cds1793",-411.1
"cds1794",-424.8
"cds1795",-178.1
"cds1796",-72.3
"cds1797",-86.3
"cds1798",-74.5
"cds1799",-55.7
"cds18",-164.5
"cds180",-17.2
"cds1800",-236.4
"cds1801",-35.8
"cds1802",-168.7
"cds1803",-130.9
"cds1804",-46.6
"cds1805",-60.2
"cds1806",-388.2
"cds1807",-64.3
"cds1808",-100.7
"cds1809",-161.9
"cds181",-20.8
"cds1810",-66.2
"cds1811",-156
"cds1812",-37.7
"cds1813",-574.3
"cds1814",-88.4
"cds1815",-45.6
"cds1816",-123.3
"cds1817",-52.4
"cds1818",-30.6
"cds1819",-33.2
"cds182",-17.4
"cds1820",-76.1
"cds1821",-96.6
"cds1822",-85.8
"cds1823",-68.4
"cds1824",-321
"cds1825",-105.7
"cds1826",-27.4
"cds1827",-187.1
"cds1828",-48.6
"cds1829",-113.2
"cds183",-241.8
"cds1830",-68.8
"cds1831",-101.9
"cds1832",-292.4
"cds1833",-761.6
"cds1834",-78.3
"cds1835",-48.3
"cds1836",-176.3
"cds1837",-131.6
"cds1838",-14.5
"cds1839",-396.7
"cds184",-561.6
"cds1840",-453.8
"cds1841",-403.6
"cds1842",-263.7
"cds1843",-71.9
"cds1844",-109.4
"cds1845",-323.6
"cds1846",-277.3
"cds1847",-395.8
"cds1848",-400.5
"cds1849",-80.9
"cds185",-70.6
"cds1850",-189.1
"cds1851",-68
"cds1852",-406
"cds1853",-213.3
"cds1854",-271.3
"cds1855",-84.7
"cds1856",-84.7
"cds1857",-425.6
"cds1858",-86
"cds1859",-257.4
"cds186",-353.4
"cds1860",-147.1
"cds1861",-54.8
"cds1862",-65
"cds1863",-105.2
"cds1864",-79.9
"cds1865",-66.5
"cds1866",-153.5
"cds1867",-98.1
"cds1868",-290.7
"cds1869",-51.8
"cds187",-132.4
"cds1870",-225.3
"cds1871",-42.7
"cds1872",-146.2
"cds1873",-43.7
"cds1874",-30.9
"cds1875",-33.7
"cds1876",-60.4
"cds1877",-70.5
"cds1878",-264.7
"cds1879",-42.2
"cds188",-310.2
"cds1880",-338
"cds1881",-169.6
"cds1882",-50.2
"cds1883",-264.4
"cds1884",-292.4
"cds1885",-62.5
"cds1886",-332.1
"cds1887",-75.3
"cds1888",-35.8
"cds1889",-669.2
"cds189",-212.8
"cds1890",-122.8
"cds1891",-34.9
"cds1892",-230.4
"cds1893",-77.3
"cds1894",-68
"cds1895",-33.3
"cds1896",-43.3
"cds1897",-11.9
"cds1898",-496
"cds1899",-53.7
"cds19",-36.9
"cds190",-229.1
"cds1900",-192.4
"cds1901",-129.5
"cds1902",-368.8
"cds1903",-100.9
"cds1904",-212.5
"cds1905",-487.2
"cds1906",-361.1
"cds1907",-223.4
"cds1908",-283.1
"cds1909",-159.9
"cds191",-282.4
"cds1910",-125.1
"cds1911",-31.9
"cds1912",-74.6
"cds1913",-331
"cds1914",-74.7
"cds1915",-80.7
"cds1916",-466
"cds1917",-475.8
"cds1918",-117.8
"cds1919",-280.5
"cds192",-184
"cds1920",-282.6
"cds1921",-39.2
"cds1922",-264.4
"cds1923",-254.6
"cds1924",-125.8
"cds1925",-323.6
"cds1926",-279
"cds1927",-211.8
"cds1928",-216.5
"cds1929",-130.9
"cds193",-48.4
"cds1930",-342.6
"cds1931",-26
"cds1932",-338.5
"cds1933",-371.3
"cds1934",-474.1
"cds1935",-387.8
"cds1936",-328.8
"cds1937",-178.9
"cds1938",-257.2
"cds1939",-190.4
"cds194",-55.1
"cds1940",-337
"cds1941",-196.6
"cds1942",-176.1
"cds1943",-248.7
"cds1944",-269.4
"cds1945",-550
"cds1946",-136.5
"cds1947",-147.2
"cds1948",-33.5
"cds1949",-67.6
"cds195",-87.5
"cds1950",-74.2
"cds1951",-418.3
"cds1952",-146.7
"cds1953",-148.4
"cds1954",-93.4
"cds1955",-417.4
"cds1956",-180.6
"cds1957",-250.6
"cds1958",-217.5
"cds1959",-127.4
"cds196",-174.2
"cds1960",-185.7
"cds1961",-34.6
"cds1962",-198
"cds1963",-256.3
"cds1964",-296.2
"cds1965",-80.7
"cds1966",-179.3
"cds1967",-232.5
"cds1968",-112.4
"cds1969",-555.3
"cds197",-179.1
"cds1970",-512.5
"cds1971",-180.1
"cds1972",-253
"cds1973",-352.2
"cds1974",-159.1
"cds1975",-375.1
"cds1976",-186.2
"cds1977",-272.3
"cds1978",-73.3
"cds1979",-56.1
"cds198",-163
"cds1980",-234
"cds1981",-129.4
"cds1982",-131.7
"cds1983",-125.4
"cds1984",-91.1
"cds1985",-43.3
"cds1986",-48.8
"cds1987",-254.7
"cds1988",-176.6
"cds1989",-348.5
"cds199",-283.8
"cds1990",-401.6
"cds1991",-251.5
"cds1992",-342.4
"cds1993",-248.6
"cds1994",-237.8
"cds1995",-187.1
"cds1996",-253
"cds1997",-337
"cds1998",-179.6
"cds1999",-192.7
"cds2",-39.8
"cds20",-82.7
"cds200",-542.6
"cds2000",-210.9
"cds2001",-122.6
"cds2002",-187.1
"cds2003",-315.2
"cds2004",-63
"cds2005",-335.7
"cds2006",-109.5
"cds2007",-425.7
"cds2008",-544.5
"cds2009",-589.6
"cds201",-474.5
"cds2010",-259
"cds2011",-334.4
"cds2012",-45.1
"cds2013",-1103.7
"cds2014",-65.6
"cds2015",-33.3
"cds2016",-403.2
"cds2017",-268.4
"cds2018",-234.58
"cds2019",-269
"cds202",-142.4
"cds2020",-199.9
"cds2021",-203.8
"cds2022",-193.6
"cds2023",-228.9
"cds2024",-161.1
"cds2025",-184.1
"cds2026",-75.8
"cds2027",-70.5
"cds2028",-123.7
"cds2029",-47.8
"cds203",-175.6
"cds2030",-128.8
"cds2031",-153
"cds2032",-226.5
"cds2033",-413.6
"cds2034",-35.9
"cds2035",-211.7
"cds2036",-187
"cds2037",-76.4
"cds2038",-212
"cds2039",-96.1
"cds204",-414.6
"cds2040",-458.2
"cds2041",-235.4
"cds2042",-197.8
"cds2043",-157.5
"cds2044",-350.2
"cds2045",-352.2
"cds2046",-189.6
"cds2047",-194.3
"cds2048",-306
"cds2049",-406.1
"cds205",-97.9
"cds2050",-225.9
"cds2051",-137.8
"cds2052",-139.5
"cds2053",-427.4
"cds2054",-51.5
"cds2055",-154.7
"cds2056",-122.4
"cds2057",-400.4
"cds2058",-181.4
"cds2059",-136.2
"cds206",-190
"cds2060",-277.2
"cds2061",-125.4
"cds2062",-401.2
"cds2063",-238
"cds2064",-242.8
"cds2065",-306.3
"cds2066",-195.6
"cds2067",-365
"cds2068",-51.2
"cds2069",-382.1
"cds207",-349.5
"cds2070",-153.5
"cds2071",-226.3
"cds2072",-276.6
"cds2073",-277.1
"cds2074",-372.9
"cds2075",-169.9
"cds2076",-158.2
"cds2077",-374.5
"cds2078",-197.8
"cds2079",-154
"cds208",-467.1
"cds2080",-325.9
"cds2081",-32.5
"cds2082",-204.5
"cds2083",-263.8
"cds2084",-19.1
"cds2085",-44.9
"cds2086",-22.4
"cds2087",-736.9
"cds2088",-112.4
"cds2089",-7.9
"cds209",-326.8
"cds2090",-23
"cds2091",-33.9
"cds2092",-98.9
"cds2093",-70.5
"cds2094",-56.5
"cds2095",-47.1
"cds2096",-22.6
"cds2097",-32.7
"cds2098",-133.7
"cds2099",-103.3
"cds21",-44.6
"cds210",-76.9
"cds2100",-528.9
"cds2101",-658
"cds2102",-225.5
"cds2103",-214.5
"cds2104",-410.8
"cds2105",-276.1
"cds2106",-501.7
"cds2107",-314.6
"cds2108",-435.2
"cds2109",-84.5
"cds211",-347.6
"cds2110",-286.3
"cds2111",-72.2
"cds2112",-71
"cds2113",-75.7
"cds2114",-42.2
"cds2115",-107.6
"cds2116",-67.3
"cds2117",-149.9
"cds2118",-127.6
"cds2119",-282
"cds212",-758.4
"cds2120",-309
"cds2121",-199.5
"cds2122",-224.5
"cds2123",-269.5
"cds2124",-126.7
"cds2125",-55.3
"cds2126",-37.6
"cds2127",-247.3
"cds2128",-46.9
"cds2129",-168.9
"cds213",-211.9
"cds2130",-244.1
"cds2131",-92.9
"cds2132",-316.7
"cds2133",-98
"cds2134",-281.9
"cds2135",-290.3
"cds2136",-209.1
"cds2137",-293
"cds2138",-152.6
"cds2139",-393.1
"cds214",-299.7
"cds2140",-29.5
"cds2141",-364.1
"cds2142",-225.1
"cds2143",-228.5
"cds2144",-132.5
"cds2145",-262.7
"cds2146",-217.5
"cds2147",-502.9
"cds2148",-404.7
"cds2149",-207
"cds215",-22.5
"cds2150",-347.8
"cds2151",-130.5
"cds2152",-219.9
"cds2153",-239.3
"cds2154",-53.4
"cds2155",-304.3
"cds2156",-241.6
"cds2157",-155.3
"cds2158",-87
"cds2159",-30.9
"cds216",-171.4
"cds2160",-311.1
"cds2161",-337.5
"cds2162",-293.8
"cds2163",-281.8
"cds2164",-317.8
"cds2165",-1228.4
"cds2166",-1872.1
"cds2167",-4515.2
"cds2168",-136.4
"cds2169",-383.6
"cds217",-178.4
"cds2170",-73.1
"cds2171",-187.7
"cds2172",-540
"cds2173",-471.5
"cds2174",-227.97
"cds2175",-244.8
"cds2176",-373.9
"cds2177",-39.4
"cds2178",-41.2
"cds2179",-381.9
"cds218",-763.9
"cds2180",-142.4
"cds2181",-187.7
"cds2182",-123.4
"cds2183",-316.9
"cds2184",-470.9
"cds2185",-370.6
"cds2186",-49
"cds2187",-257
"cds2188",-222.9
"cds2189",-444.5
"cds219",-205.6
"cds2190",-167.4
"cds2191",-126.8
"cds2192",-390.3
"cds2193",-221.6
"cds2194",-248
"cds2195",-60.8
"cds2196",-86
"cds2197",-54.2
"cds2198",-84.2
"cds2199",-75.6
"cds22",-398.7
"cds220",-245.6
"cds2200",-228.8
"cds2201",-96
"cds2202",-40.5
"cds2203",-42.5
"cds2204",-39.1
"cds2205",-223.4
"cds2206",-67.9
"cds2207",-47.7
"cds2208",-126.9
"cds2209",-73.2
"cds221",-140.8
"cds2210",-70.8
"cds2211",-78.3
"cds2212",-348.2
"cds2213",-325.7
"cds2214",-246.9
"cds2215",-189.6
"cds2216",-391.6
"cds2217",-276.4
"cds2218",-197.4
"cds2219",-344.7
"cds222",-275.7
"cds2220",-111.4
"cds2221",-51.2
"cds2222",-208.3
"cds2223",-49.8
"cds2224",-283
"cds2225",-270.2
"cds2226",-363.3
"cds2227",-115.6
"cds2228",-462.6
"cds2229",-267.7
"cds223",-323.8
"cds2230",-52.4
"cds2231",-344.4
"cds2232",-58.1
"cds2233",-526
"cds2234",-312.3
"cds2235",-81.2
"cds2236",-74.4
"cds2237",-27.5
"cds2238",-81.7
"cds2239",-105.1
"cds224",-192
"cds2240",-99
"cds2241",-52.4
"cds2242",-344.4
"cds2243",-86.3
"cds2244",-67
"cds2245",-46.2
"cds2246",-39.9
"cds2247",-124.4
"cds2248",-127.9
"cds2249",-41
"cds225",-301.9
"cds2250",-39.1
"cds2251",-74.8
"cds2252",-55.1
"cds2253",-161.3
"cds2254",-60.8
"cds2255",-113.2
"cds2256",-49.7
"cds2257",-100.2
"cds2258",-124.6
"cds2259",-47.8
"cds226",-358.6
"cds2260",-277.9
"cds2261",-31.5
"cds2262",-121.8
"cds2263",-95.5
"cds2264",-217.3
"cds2265",-141.6
"cds2266",-115.7
"cds2267",-330
"cds2268",-78.7
"cds2269",-115.2
"cds227",-277.28
"cds2270",-41
"cds2271",-36.4
"cds2272",-120.3
"cds2273",-209.2
"cds2274",-24.2
"cds2275",-28.2
"cds2276",-56.3
"cds2277",-253
"cds2278",-255.5
"cds2279",-36
"cds228",-396.8
"cds2280",-393
"cds2281",-33.5
"cds2282",-93.4
"cds2283",-222.9
"cds2284",-295.6
"cds2285",-171.2
"cds2286",-39.5
"cds2287",-223.7
"cds2288",-641.3
"cds2289",-35.9
"cds229",-107.2
"cds2290",-44.7
"cds2291",-147.8
"cds2292",-58.4
"cds2293",-78.1
"cds2294",-82.1
"cds2295",-89
"cds2296",-40.51
"cds2297",-314.6
"cds2298",-51.1
"cds2299",-413.1
"cds23",-173.7
"cds230",-364.8
"cds2300",-234.6
"cds2301",-53.6
"cds2302",-51.2
"cds2303",-52.9
"cds2304",-201.9
"cds2305",-408.5
"cds2306",-349.3
"cds2307",-53
"cds2308",-402.5
"cds2309",-226.1
"cds231",-118.24
"cds2310",-106.1
"cds2311",-63.7
"cds2312",-343
"cds2313",-286.2
"cds2314",-277.4
"cds2315",-457.3
"cds2316",-165
"cds2317",-181.4
"cds2318",-16.4
"cds2319",-159.5
"cds232",-77.1
"cds2320",-112.5
"cds2321",-92.2
"cds2322",-109.6
"cds2323",-80.3
"cds2324",-76.3
"cds2325",-141.2
"cds2326",-187.4
"cds2327",-344.9
"cds2328",-191.4
"cds2329",-161.9
"cds233",-244.4
"cds2330",-82.2
"cds2331",-170.3
"cds2332",-321.9
"cds2333",-318.44
"cds2334",-268.7
"cds2335",-548.6
"cds2336",-57.8
"cds2337",-279.5
"cds2338",-57.2
"cds2339",-348.3
"cds234",-325.7
"cds2340",-291.6
"cds2341",-264.1
"cds2342",-88.5
"cds2343",-364.1
"cds2344",-393.9
"cds2345",-208.4
"cds2346",-64.31
"cds2347",-342.1
"cds2348",-180
"cds2349",-48.1
"cds235",-62.2
"cds2350",-155.5
"cds2351",-279.1
"cds2352",-247
"cds2353",-302.7
"cds2354",-293.27
"cds2355",-401.8
"cds2356",-201.5
"cds2357",-487.7
"cds2358",-66.7
"cds2359",-54.6
"cds236",-88.8
"cds2360",-28.5
"cds2361",-194.2
"cds2362",-168.6
"cds2363",-301.8
"cds2364",-122.6
"cds2365",-123.3
"cds2366",-22.3
"cds2367",-16.7
"cds2368",-232.5
"cds2369",-164.2
"cds237",-213.9
"cds2370",-170.6
"cds2371",-171
"cds2372",-99.6
"cds2373",-98.7
"cds2374",-187.6
"cds2375",-604.7
"cds2376",-118.1
"cds2377",-246.2
"cds2378",-86.3
"cds2379",-365.3
"cds238",-83.1
"cds2380",-397.5
"cds2381",-153.3
"cds2382",-221.9
"cds2383",-234.6
"cds2384",-308.1
"cds2385",-281.9
"cds2386",-236.7
"cds2387",-348
"cds2388",-421.44
"cds2389",-123.8
"cds239",-102.3
"cds2390",-82.3
"cds2391",-83.5
"cds2392",-39.7
"cds2393",-63.5
"cds2394",-92.4
"cds2395",-386
"cds2396",-51.7
"cds2397",-121.1
"cds2398",-76.3
"cds2399",-342.9
"cds24",-78.2
"cds240",-239.5
"cds2400",-211.5
"cds2401",-79.2
"cds2402",-102.7
"cds2403",-252.2
"cds2404",-76.5
"cds2405",-64.7
"cds2406",-334.3
"cds2407",-117.2
"cds2408",-319.5
"cds2409",-145.1
"cds241",-63.4
"cds2410",-70
"cds2411",-150.21
"cds2412",-215.4
"cds2413",-74.4
"cds2414",-344.2
"cds2415",-163.8
"cds2416",-64.6
"cds2417",-312.3
"cds2418",-185.8
"cds2419",-129.1
"cds242",-127.4
"cds2420",-118.5
"cds2421",-213.9
"cds2422",-284.9
"cds2423",-29.3
"cds2424",-130.8
"cds2425",-167.7
"cds2426",-196.7
"cds2427",-77.4
"cds2428",-131.8
"cds2429",-116.6
"cds243",-205
"cds2430",-38.5
"cds2431",-48.3
"cds2432",-508.3
"cds2433",-33.9
"cds2434",-562.9
"cds2435",-84
"cds2436",-140.4
"cds2437",-19.1
"cds2438",-183.6
"cds2439",-206.3
"cds244",-128.4
"cds2440",-279.9
"cds2441",-177.4
"cds2442",-174.4
"cds2443",-215.8
"cds2444",-171.8
"cds2445",-275.07
"cds2446",-301.2
"cds2447",-97.8
"cds2448",-177.6
"cds2449",-218.4
"cds245",-563.5
"cds2450",-100.3
"cds2451",-275
"cds2452",-152.1
"cds2453",-242.5
"cds2454",-228.3
"cds2455",-327.9
"cds2456",-290.1
"cds2457",-252.7
"cds2458",-114.3
"cds2459",-302.2
"cds246",-100.5
"cds2460",-68.8
"cds2461",-327.6
"cds2462",-272.6
"cds2463",-565
"cds2464",-558.4
"cds2465",-131.5
"cds2466",-305
"cds2467",-158.6
"cds2468",-69.8
"cds2469",-324.2
"cds247",-108.5
"cds2470",-58.3
"cds2471",-163.9
"cds2472",-269.3
"cds2473",-340.7
"cds2474",-52.4
"cds2475",-173.6
"cds2476",-204.1
"cds2477",-169.8
"cds2478",-325.1
"cds2479",-635.3
"cds248",-186.9
"cds2480",-38
"cds2481",-235.2
"cds2482",-125.8
"cds2483",-377.7
"cds2484",-201.2
"cds2485",-367.6
"cds2486",-279.7
"cds2487",-427.3
"cds2488",-12.8
"cds2489",-36.2
"cds249",-108.8
"cds2490",-627.8
"cds2491",-402.8
"cds2492",-74.9
"cds2493",-40.8
"cds2494",-117.4
"cds2495",-128.6
"cds2496",-24.6
"cds2497",-77.8
"cds2498",-148
"cds2499",-342.7
"cds25",-98.1
"cds250",-294.9
"cds2500",-351
"cds2501",-152.8
"cds2502",-70.5
"cds2503",-30.2
"cds2504",-217.9
"cds2505",-113.3
"cds2506",-324.6
"cds2507",-65.2
"cds2508",-131.5
"cds2509",-28.7
"cds251",-467.2
"cds2510",-277.47
"cds2511",-75
"cds2512",-131.2
"cds2513",-622.2
"cds2514",-435.1
"cds2515",-79.8
"cds2516",-209.1
"cds2517",-62.2
"cds2518",-213.6
"cds2519",-261.7
"cds252",-117.4
"cds2520",-349.9
"cds2521",-333.6
"cds2522",-220.2
"cds2523",-75.1
"cds2524",-253.4
"cds2525",-341.9
"cds2526",-114.4
"cds2527",-99.7
"cds2528",-247.9
"cds2529",-175.3
"cds253",-160.9
"cds2530",-47.6
"cds2531",-124.7
"cds2532",-127.81
"cds2533",-39.8
"cds2534",-337.3
"cds2535",-125.1
"cds2536",-100.8
"cds2537",-37.3
"cds2538",-83.9
"cds2539",-204.4
"cds254",-37.6
"cds2540",-97.3
"cds2541",-163.6
"cds2542",-138.1
"cds2543",-89.5
"cds2544",-116.4
"cds2545",-46.8
"cds2546",-91.8
"cds2547",-192.6
"cds2548",-376.6
"cds2549",-387.1
"cds255",-173.1
"cds2550",-263.2
"cds2551",-296.4
"cds2552",-495.4
"cds2553",-256.9
"cds2554",-73.2
"cds2555",-93.5
"cds2556",-190.8
"cds2557",-120.85
"cds2558",-37.9
"cds2559",-73.4
"cds256",-65.9
"cds2560",-80.1
"cds2561",-265.5
"cds2562",-253.9
"cds2563",-149.1
"cds2564",-203.2
"cds2565",-193.77
"cds2566",-42
"cds2567",-418.2
"cds2568",-157.7
"cds2569",-306.7
"cds257",-469.1
"cds2570",-184.3
"cds2571",-14.6
"cds2572",-114.7
"cds2573",-118.9
"cds2574",-206.1
"cds2575",-154.2
"cds2576",-238.3
"cds2577",-323.9
"cds2578",-101.8
"cds2579",-71
"cds258",-47.9
"cds2580",-438.8
"cds2581",-288.5
"cds2582",-253.9
"cds2583",-603.2
"cds2584",-406.5
"cds2585",-148
"cds2586",-181.7
"cds2587",-42.6
"cds2588",-41.8
"cds2589",-40.7
"cds259",-315.5
"cds2590",-206.8
"cds2591",-145.6
"cds2592",-326.5
"cds2593",-272.4
"cds2594",-353.77
"cds2595",-232.3
"cds2596",-45.3
"cds2597",-84
"cds2598",-162.4
"cds2599",-77.9
"cds26",-234.8
"cds260",-145.2
"cds2600",-62.2
"cds2601",-54.7
"cds2602",-94.7
"cds2603",-223.3
"cds2604",-103.6
"cds2605",-452.7
"cds2606",-267.9
"cds2607",-202.2
"cds2608",-159.6
"cds2609",-354.7
"cds261",-380.2
"cds2610",-427.2
"cds2611",-135.8
"cds2612",-41.1
"cds2613",-15.3
"cds2614",-37.7
"cds2615",-239.7
"cds2616",-265.2
"cds2617",-270
"cds2618",-257.9
"cds2619",-238.8
"cds262",-66.1
"cds2620",-391.6
"cds2621",-124.9
"cds2622",-133.5
"cds2623",-32.7
"cds2624",-124.5
"cds2625",-149.7
"cds2626",-138.1
"cds2627",-661.4
"cds2628",-274.3
"cds2629",-187.2
"cds263",-90.1
"cds2630",-253.6
"cds2631",-158.7
"cds2632",-330.7
"cds2633",-396.5
"cds2634",-234.3
"cds2635",-463.5
"cds2636",-404.2
"cds2637",-187.1
"cds2638",-218.3
"cds2639",-107.8
"cds264",-169.7
"cds2640",-240.9
"cds2641",-337.2
"cds2642",-140.4
"cds2643",-246.4
"cds2644",-152.4
"cds2645",-368.2
"cds2646",-84.9
"cds2647",-432
"cds2648",-291.3
"cds2649",-210.8
"cds265",-406
"cds2650",-159.8
"cds2651",-203.2
"cds2652",-248.4
"cds2653",-470.3
"cds2654",-296.3
"cds2655",-284.8
"cds2656",-350.6
"cds2657",-208.1
"cds2658",-386.8
"cds2659",-61.6
"cds266",-357.3
"cds2660",-105.4
"cds2661",-350.8
"cds2662",-230.6
"cds2663",-83
"cds2664",-236
"cds2665",-114.3
"cds2666",-258
"cds2667",-389.4
"cds2668",-143.9
"cds2669",-176.4
"cds267",-350.3
"cds2670",-249
"cds2671",-247.3
"cds2672",-125.2
"cds2673",-259.3
"cds2674",-83.5
"cds2675",-213.2
"cds2676",-113.2
"cds2677",-341.4
"cds2678",-55.4
"cds2679",-49.6
"cds268",-36.2
"cds2680",-39.4
"cds2681",-185.4
"cds2682",-55.8
"cds2683",-249.7
"cds2684",-69.3
"cds2685",-231
"cds2686",-52
"cds2687",-535.2
"cds2688",-103.8
"cds2689",-212.1
"cds269",-128.9
"cds2690",-269.2
"cds2691",-241.1
"cds2692",-200.6
"cds2693",-282.6
"cds2694",-326.2
"cds2695",-546.3
"cds2696",-234.1
"cds2697",-35.6
"cds2698",-35.2
"cds2699",-538.6
"cds27",-212.7
"cds270",-47.1
"cds2700",-202.6
"cds2701",-42.2
"cds2702",-59.8
"cds2703",-127.5
"cds2704",-242.3
"cds2705",-55
"cds2706",-292.5
"cds2707",-87.2
"cds2708",-30.9
"cds2709",-124.3
"cds271",-47.4
"cds2710",-548.2
"cds2711",-31.3
"cds2712",-79.9
"cds2713",-413.9
"cds2714",-40.8
"cds2715",-67.1
"cds2716",-235.2
"cds2717",-790.1
"cds2718",-238.5
"cds2719",-379.8
"cds272",-248.5
"cds2720",-249
"cds2721",-135.52
"cds2722",-397.8
"cds2723",-330.9
"cds2724",-345
"cds2725",-328
"cds2726",-451.4
"cds2727",-168.1
"cds2728",-348.2
"cds2729",-44.8
"cds273",-33.4
"cds2730",-48.6
"cds2731",-452
"cds2732",-160.9
"cds2733",-23.9
"cds2734",-115.9
"cds2735",-291.8
"cds2736",-61
"cds2737",-268
"cds2738",-341.2
"cds2739",-31.6
"cds274",-524.4
"cds2740",-95.6
"cds2741",-112.3
"cds2742",-25.7
"cds2743",-99.1
"cds2744",-73.8
"cds2745",-348.2
"cds2746",-266.2
"cds2747",-48.4
"cds2748",-253.3
"cds2749",-198.04
"cds275",-137.1
"cds2750",-300.7
"cds2751",-429
"cds2752",-374.8
"cds2753",-332.9
"cds2754",-365.3
"cds2755",-434.6
"cds2756",-156.5
"cds2757",-29.8
"cds2758",-301.4
"cds2759",-101.6
"cds276",-108.2
"cds2760",-41.2
"cds2761",-29.8
"cds2762",-59.1
"cds2763",-273.4
"cds2764",-41.6
"cds2765",-422.5
"cds2766",-138.5
"cds2767",-144.5
"cds2768",-43.9
"cds2769",-41.9
"cds277",-106.3
"cds2770",-158.9
"cds2771",-121.4
"cds2772",-142
"cds2773",-116.9
"cds2774",-88.4
"cds2775",-74.5
"cds2776",-559.7
"cds2777",-233.3
"cds2778",-177.4
"cds2779",-366.3
"cds278",-37.8
"cds2780",-779.7
"cds2781",-220.6
"cds2782",-240.9
"cds2783",-983
"cds2784",-490.1
"cds2785",-152.2
"cds2786",-195
"cds2787",-476
"cds2788",-331.5
"cds2789",-255.6
"cds279",-62.5
"cds2790",-374.3
"cds2791",-148.2
"cds2792",-193.9
"cds2793",-74.6
"cds2794",-219.7
"cds2795",-134.6
"cds2796",-90.8
"cds2797",-190.7
"cds2798",-24.2
"cds2799",-292.6
"cds28",-96.6
"cds280",-111.3
"cds2800",-256.3
"cds2801",-388.4
"cds2802",-218.8
"cds2803",-93.1
"cds2804",-144
"cds2805",-95.1
"cds2806",-356
"cds2807",-168.5
"cds2808",-257.8
"cds2809",-59.6
"cds281",-41
"cds2810",-55.6
"cds2811",-270.3
"cds2812",-125.4
"cds2813",-158
"cds2814",-181
"cds2815",-354
"cds2816",-326.5
"cds2817",-198.7
"cds2818",-287.3
"cds2819",-293.3
"cds282",-330.7
"cds2820",-205.1
"cds2821",-361.3
"cds2822",-178.2
"cds2823",-33.8
"cds2824",-144.2
"cds2825",-473.9
"cds2826",-43.7
"cds2827",-39.4
"cds2828",-92.5
"cds2829",-56.1
"cds283",-62.3
"cds2830",-126.1
"cds2831",-510.1
"cds2832",-223.7
"cds2833",-277.2
"cds2834",-60
"cds2835",-357.5
"cds2836",-337.8
"cds2837",-234.9
"cds2838",-354.3
"cds2839",-202.4
"cds284",-44.3
"cds2840",-216.9
"cds2841",-412.6
"cds2842",-72.7
"cds2843",-264.1
"cds2844",-47.8
"cds2845",-297.9
"cds2846",-99.2
"cds2847",-129
"cds2848",-174.8
"cds2849",-113.1
"cds285",-31.6
"cds2850",-217.3
"cds2851",-141.6
"cds2852",-202.3
"cds2853",-44.7
"cds2854",-86.5
"cds2855",-187.4
"cds2856",-36
"cds2857",-332.1
"cds2858",-108.5
"cds2859",-198.7
"cds286",-135.3
"cds2860",-152.8
"cds2861",-37.68
"cds2862",-332.7
"cds2863",-211.8
"cds2864",-154.5
"cds2865",-481.1
"cds2866",-200.7
"cds2867",-118
"cds2868",-497.2
"cds2869",-273.5
"cds287",-69.3
"cds2870",-485.6
"cds2871",-162.2
"cds2872",-216.1
"cds2873",-111.7
"cds2874",-126.8
"cds2875",-224.7
"cds2876",-189.6
"cds2877",-181.8
"cds2878",-88.7
"cds2879",-566.9
"cds288",-329.8
"cds2880",-35
"cds2881",-121.7
"cds2882",-177.4
"cds2883",-429
"cds2884",-305.8
"cds2885",-121.2
"cds2886",-537
"cds2887",-138
"cds2888",-556.4
"cds2889",-440.8
"cds289",-231.5
"cds2890",-8.9
"cds2891",-71.7
"cds2892",-71.6
"cds2893",-87.4
"cds2894",-120
"cds2895",-128.4
"cds2896",-101.4
"cds2897",-108.7
"cds2898",-342
"cds2899",-37.9
"cds29",-206.4
"cds290",-577.2
"cds2900",-368.5
"cds2901",-365.3
"cds2902",-421.1
"cds2903",-54.5
"cds2904",-407.3
"cds2905",-424.7
"cds2906",-343.9
"cds2907",-244.3
"cds2908",-70.4
"cds2909",-301.8
"cds291",-115.7
"cds2910",-151.5
"cds2911",-317
"cds2912",-159.1
"cds2913",-387
"cds2914",-162.4
"cds2915",-406.7
"cds2916",-56.7
"cds2917",-30.4
"cds2918",-348.4
"cds2919",-175.9
"cds292",-387.6
"cds2920",-320.2
"cds2921",-51.2
"cds2922",-85.2
"cds2923",-124.2
"cds2924",-301.2
"cds2925",-190.3
"cds2926",-30.9
"cds2927",-71.3
"cds2928",-21.5
"cds2929",-136.4
"cds293",-26.3
"cds2930",-49.7
"cds2931",-29.6
"cds2932",-139.3
"cds2933",-122
"cds2934",-47.5
"cds2935",-132
"cds2936",-193.6
"cds2937",-211.8
"cds2938",-230.7
"cds2939",-57.3
"cds294",-269.8
"cds2940",-351.3
"cds2941",-57.7
"cds2942",-348.5
"cds2943",-72.3
"cds2944",-64.3
"cds2945",-217.7
"cds2946",-378.7
"cds2947",-295.7
"cds2948",-417.3
"cds2949",-262.5
"cds295",-267.8
"cds2950",-125.2
"cds2951",-245.1
"cds2952",-373.4
"cds2953",-40.2
"cds2954",-496.7
"cds2955",-71.7
"cds2956",-146
"cds2957",-388.6
"cds2958",-177.8
"cds2959",-299.7
"cds296",-390.6
"cds2960",-407.5
"cds2961",-451.2
"cds2962",-227.1
"cds2963",-191.4
"cds2964",-324.1
"cds2965",-57.5
"cds2966",-51.7
"cds2967",-340
"cds2968",-175.3
"cds2969",-403.3
"cds297",-363.3
"cds2970",-102.9
"cds2971",-84.9
"cds2972",-194.5
"cds2973",-310.7
"cds2974",-340.7
"cds2975",-247.9
"cds2976",-271.9
"cds2977",-114.4
"cds2978",-132.4
"cds2979",-107.6
"cds298",-105
"cds2980",-88
"cds2981",-88.4
"cds2982",-122.9
"cds2983",-70.3
"cds2984",-545.8
"cds2985",-105.6
"cds2986",-73.8
"cds2987",-115
"cds2988",-302.3
"cds2989",-283.8
"cds299",-139.9
"cds2990",-306.1
"cds2991",-96.3
"cds2992",-57.6
"cds2993",-44.4
"cds2994",-200.5
"cds2995",-94.8
"cds2996",-209.6
"cds2997",-62.7
"cds2998",-229.8
"cds2999",-211.6
"cds3",-260.9
"cds30",-42.2
"cds300",-436.2
"cds3000",-174.2
"cds3001",-1008.3
"cds3002",-100.7
"cds3003",-126.8
"cds3004",-277.1
"cds3005",-374.6
"cds3006",-150.7
"cds3007",-387.4
"cds3008",-517.7
"cds3009",-42.2
"cds301",-414.7
"cds3010",-338.9
"cds3011",-59.1
"cds3012",-162.7
"cds3013",-92.7
"cds3014",-302.6
"cds3015",-639.7
"cds3016",-184.4
"cds3017",-106.1
"cds3018",-117.8
"cds3019",-83.3
"cds302",-206.61
"cds3020",-60.7
"cds3021",-237.5
"cds3022",-128.7
"cds3023",-667.7
"cds3024",-145.5
"cds3025",-168.9
"cds3026",-160.1
"cds3027",-362.2
"cds3028",-182.3
"cds3029",-213.3
"cds303",-205.8
"cds3030",-84.8
"cds3031",-391.9
"cds3032",-197.4
"cds3033",-456.9
"cds3034",-83.2
"cds3035",-68.8
"cds3036",-280.6
"cds3037",-419.4
"cds3038",-235.7
"cds3039",-154.3
"cds304",-237
"cds3040",-308.9
"cds3041",-104.5
"cds3042",-38.6
"cds3043",-755.6
"cds3044",-99.5
"cds3045",-227.3
"cds3046",-226.1
"cds3047",-259.9
"cds3048",-305.2
"cds3049",-302.2
"cds305",-74.4
"cds3050",-187.6
"cds3051",-103.5
"cds3052",-221.7
"cds3053",-77.6
"cds3054",-252.8
"cds3055",-86.8
"cds3056",-170.6
"cds3057",-70.3
"cds3058",-188.5
"cds3059",-174.4
"cds306",-316.5
"cds3060",-139.6
"cds3061",-235.7
"cds3062",-170.4
"cds3063",-143
"cds3064",-105.3
"cds3065",-112.3
"cds3066",-312.7
"cds3067",-355
"cds3068",-291.8
"cds3069",-268.9
"cds307",-416.9
"cds3070",-103
"cds3071",-293.9
"cds3072",-332.5
"cds3073",-170.7
"cds3074",-70.8
"cds3075",-117.7
"cds3076",-275.5
"cds3077",-203.9
"cds3078",-207.5
"cds3079",-48.7
"cds308",-527.8
"cds3080",-143.7
"cds3081",-59.6
"cds3082",-434.7
"cds3083",-177
"cds3084",-35
"cds3085",-83.3
"cds3086",-343.7
"cds3087",-559
"cds3088",-57.1
"cds3089",-51
"cds309",-310.3
"cds3090",-349.3
"cds3091",-298.4
"cds3092",-361.7
"cds3093",-151.5
"cds3094",-20.4
"cds3095",-299
"cds3096",-282.8
"cds3097",-160.5
"cds3098",-171.5
"cds3099",-36.1
"cds31",-222.6
"cds310",-468.8
"cds3100",-292.9
"cds3101",-221.7
"cds3102",-188.8
"cds3103",-274.1
"cds3104",-244.3
"cds3105",-364.9
"cds3106",-127.7
"cds3107",-239.2
"cds3108",-233.4
"cds3109",-95.6
"cds311",-28.3
"cds3110",-177.4
"cds3111",-143.4
"cds3112",-395.4
"cds3113",-245.4
"cds3114",-56.1
"cds3115",-128
"cds3116",-38.8
"cds3117",-421.7
"cds3118",-278.5
"cds3119",-129.8
"cds312",-276.3
"cds3120",-478.1
"cds3121",-172.4
"cds3122",-323.4
"cds3123",-402.9
"cds3124",-133
"cds3125",-183.7
"cds3126",-160.44
"cds3127",-153.7
"cds3128",-291.6
"cds3129",-492.4
"cds313",-246.6
"cds3130",-132.6
"cds3131",-243.7
"cds3132",-106.6
"cds3133",-81.8
"cds3134",-151.9
"cds3135",-171.6
"cds3136",-14.3
"cds3137",-154
"cds3138",-64.4
"cds3139",-217.9
"cds314",-65.5
"cds3140",-397.3
"cds3141",-385.2
"cds3142",-153.6
"cds3143",-113.5
"cds3144",-140.6
"cds3145",-351.34
"cds3146",-210.3
"cds3147",-113.4
"cds3148",-73
"cds3149",-303.2
"cds315",-59.3
"cds3150",-379.8
"cds3151",-230.9
"cds3152",-334
"cds3153",-227.5
"cds3154",-52.5
"cds3155",-107.7
"cds3156",-153.6
"cds3157",-145.7
"cds3158",-317.6
"cds3159",-144
"cds316",-313.2
"cds3160",-29.3
"cds3161",-232.1
"cds3162",-112.5
"cds3163",-106
"cds3164",-41.5
"cds3165",-221.7
"cds3166",-75
"cds3167",-97
"cds3168",-373.5
"cds3169",-139
"cds317",-1246.3
"cds3170",-107.1
"cds3171",-209.7
"cds3172",-306.1
"cds3173",-209.9
"cds3174",-104.9
"cds3175",-112.9
"cds3176",-235.7
"cds3177",-292.4
"cds3178",-270.7
"cds3179",-223.3
"cds318",-778.5
"cds3180",-264.4
"cds3181",-376.4
"cds3182",-45
"cds3183",-371.3
"cds3184",-340
"cds3185",-315.2
"cds3186",-430.2
"cds3187",-103.6
"cds3188",-147.3
"cds3189",-271.7
"cds319",-119.8
"cds3190",-206.3
"cds3191",-187.8
"cds3192",-178.3
"cds3193",-107.9
"cds3194",-313.5
"cds3195",-638.8
"cds3196",-497
"cds3197",-326.3
"cds3198",-349.6
"cds3199",-299.1
"cds32",-60.3
"cds320",-259.4
"cds3200",-276.3
"cds3201",-406.9
"cds3202",-293.3
"cds3203",-552.1
"cds3204",-50
"cds3205",-331.1
"cds3206",-213
"cds3207",-29.8
"cds3208",-198.9
"cds3209",-355.4
"cds321",-317.7
"cds3210",-451.5
"cds3211",-104.9
"cds3212",-222.9
"cds3213",-539.9
"cds3214",-264.8
"cds3215",-47.3
"cds3216",-377.6
"cds3217",-233.5
"cds3218",-91.3
"cds3219",-101.9
"cds322",-588.7
"cds3220",-390.3
"cds3221",-125
"cds3222",-132
"cds3223",-147.2
"cds3224",-140.5
"cds3225",-308.7
"cds3226",-93.8
"cds3227",-41.7
"cds3228",-131.4
"cds3229",-260.8
"cds323",-440.3
"cds3230",-131.5
"cds3231",-291.3
"cds3232",-129
"cds3233",-119.6
"cds3234",-261.1
"cds3235",-72.6
"cds3236",-234.5
"cds3237",-246.5
"cds3238",-44.7
"cds3239",-711.6
"cds324",-398.7
"cds3240",-236.5
"cds3241",-84.7
"cds3242",-410.4
"cds3243",-394.1
"cds3244",-297.5
"cds3245",-429.5
"cds3246",-184.4
"cds3247",-33.6
"cds3248",-97.2
"cds3249",-104.3
"cds325",-177.3
"cds3250",-70.1
"cds3251",-103.7
"cds3252",-60.3
"cds3253",-288.9
"cds3254",-185
"cds3255",-146.5
"cds3256",-93.6
"cds3257",-45.5
"cds3258",-67.9
"cds3259",-71.5
"cds326",-638.3
"cds3260",-34.5
"cds3261",-283.3
"cds3262",-40.6
"cds3263",-78.7
"cds3264",-75
"cds3265",-31.5
"cds3266",-48.4
"cds3267",-41.4
"cds3268",-51.74
"cds3269",-177.37
"cds327",-58.2
"cds3270",-92.6
"cds3271",-36.8
"cds3272",-173.4
"cds3273",-216.3
"cds3274",-123
"cds3275",-131.2
"cds3276",-155.7
"cds3277",-29.2
"cds3278",-319.7
"cds3279",-100.6
"cds328",-109.8
"cds3280",-72.2
"cds3281",-158.8
"cds3282",-44.5
"cds3283",-296.4
"cds3284",-165.2
"cds3285",-40.1
"cds3286",-317.1
"cds3287",-298.7
"cds3288",-323.3
"cds3289",-453.4
"cds329",-59.4
"cds3290",-279.1
"cds3291",-39.3
"cds3292",-217.7
"cds3293",-417.2
"cds3294",-48.6
"cds3295",-134.7
"cds3296",-23.4
"cds3297",-165.9
"cds3298",-30.2
"cds3299",-72.2
"cds33",-527.1
"cds330",-38.7
"cds3300",-109.3
"cds3301",-160.3
"cds3302",-193.9
"cds3303",-258.6
"cds3304",-235.6
"cds3305",-235.6
"cds3306",-559.7
"cds3307",-327.3
"cds3308",-144.5
"cds3309",-121.1
"cds331",-132.7
"cds3310",-184.5
"cds3311",-64.6
"cds3312",-337.3
"cds3313",-68.7
"cds3314",-137
"cds3315",-102.8
"cds3316",-229.5
"cds3317",-199.5
"cds3318",-47.7
"cds3319",-242
"cds332",-311
"cds3320",-343.37
"cds3321",-176
"cds3322",-239.8
"cds3323",-296.4
"cds3324",-194
"cds3325",-91.5
"cds3326",-74.6
"cds3327",-315.8
"cds3328",-494.1
"cds3329",-114.2
"cds333",-337.9
"cds3330",-214.3
"cds3331",-171.7
"cds3332",-591.2
"cds3333",-266.4
"cds3334",-195.2
"cds3335",-28.8
"cds3336",-233.7
"cds3337",-105.6
"cds3338",-103.2
"cds3339",-107.8
"cds334",-159.1
"cds3340",-624.9
"cds3341",-272.5
"cds3342",-316.7
"cds3343",-66.3
"cds3344",-147.4
"cds3345",-301.8
"cds3346",-394.4
"cds3347",-101.5
"cds3348",-32.4
"cds3349",-252.4
"cds335",-52.3
"cds3350",-180.7
"cds3351",-381.4
"cds3352",-218.1
"cds3353",-255.4
"cds3354",-305.2
"cds3355",-495
"cds3356",-154.7
"cds3357",-268
"cds3358",-334.5
"cds3359",-546.6
"cds336",-181.2
"cds3360",-79.8
"cds3361",-322.8
"cds3362",-326.4
"cds3363",-50.1
"cds3364",-263.5
"cds3365",-26.5
"cds3366",-613.8
"cds3367",-139.9
"cds3368",-166.3
"cds3369",-220.7
"cds337",-631.4
"cds3370",-204.1
"cds3371",-79.3
"cds3372",-160.4
"cds3373",-143
"cds3374",-67.8
"cds3375",-226.4
"cds3376",-325.4
"cds3377",-119.9
"cds3378",-16.8
"cds3379",-207.3
"cds338",-423.7
"cds3380",-120.6
"cds3381",-500.3
"cds3382",-55.1
"cds3383",-177
"cds3384",-14.9
"cds3385",-54.4
"cds3386",-338.1
"cds3387",-266
"cds3388",-192.9
"cds3389",-164.2
"cds339",-289.8
"cds3390",-34
"cds3391",-179.5
"cds3392",-484
"cds3393",-117.8
"cds3394",-155.6
"cds3395",-68.8
"cds3396",-98.2
"cds3397",-161.5
"cds3398",-382.8
"cds3399",-273.3
"cds34",-209.8
"cds340",-155
"cds3400",-194.9
"cds3401",-37.1
"cds3402",-281.5
"cds3403",-59.6
"cds3404",-120.3
"cds3405",-64.6
"cds3406",-767.2
"cds3407",-336.2
"cds3408",-43.1
"cds3409",-123
"cds341",-391.2
"cds3410",-239.5
"cds3411",-147.4
"cds3412",-723.2
"cds3413",-160
"cds3414",-331.4
"cds3415",-356
"cds3416",-108.7
"cds3417",-172.6
"cds3418",-395.1
"cds3419",-161.6
"cds342",-377.5
"cds3420",-306.5
"cds3421",-205
"cds3422",-92.7
"cds3423",-208.3
"cds3424",-237.4
"cds3425",-127
"cds3426",-31.6
"cds3427",-137.8
"cds3428",-367.6
"cds3429",-15.4
"cds343",-53.4
"cds3430",-419.4
"cds3431",-98.9
"cds3432",-38.9
"cds3433",-198.9
"cds3434",-439.6
"cds3435",-335.2
"cds3436",-52.5
"cds3437",-36.1
"cds3438",-56.1
"cds3439",-233.1
"cds344",-471.8
"cds3440",-279
"cds3441",-301.3
"cds3442",-167.2
"cds3443",-203.3
"cds3444",-234.3
"cds3445",-208.3
"cds3446",-181.1
"cds3447",-182.5
"cds3448",-213.5
"cds3449",-157.2
"cds345",-259.6
"cds3450",-113.3
"cds3451",-204.4
"cds3452",-485.7
"cds3453",-28.4
"cds3454",-159.6
"cds3455",-143.3
"cds3456",-148.3
"cds3457",-55.8
"cds3458",-279.8
"cds3459",-22.1
"cds346",-72.3
"cds3460",-332.7
"cds3461",-41.4
"cds3462",-329.8
"cds3463",-31.5
"cds3464",-538
"cds3465",-205.7
"cds3466",-220.1
"cds3467",-300.6
"cds3468",-244
"cds3469",-303.3
"cds347",-184.7
"cds3470",-256
"cds3471",-337.3
"cds3472",-200.4
"cds3473",-312.7
"cds3474",-213
"cds3475",-501.9
"cds3476",-365.3
"cds3477",-526.9
"cds3478",-128.3
"cds3479",-604.5
"cds348",-635.1
"cds3480",-348.2
"cds3481",-122.4
"cds3482",-716.2
"cds3483",-644.2
"cds3484",-87.9
"cds3485",-450.7
"cds3486",-151.1
"cds3487",-104
"cds3488",-58.7
"cds3489",-347.4
"cds349",-562.3
"cds3490",-276.07
"cds3491",-46.4
"cds3492",-307.4
"cds3493",-147.6
"cds3494",-109
"cds3495",-136.6
"cds3496",-230.1
"cds3497",-899.5
"cds3498",-324
"cds3499",-218.8
"cds35",-302.9
"cds350",-286.7
"cds3500",-474.4
"cds3501",-335.8
"cds3502",-157
"cds3503",-238
"cds3504",-128.5
"cds3505",-381.7
"cds3506",-115.9
"cds3507",-69.3
"cds3508",-100.9
"cds3509",-63.1
"cds351",-59.9
"cds3510",-453.3
"cds3511",-257.3
"cds3512",-212.6
"cds3513",-56.3
"cds3514",-85.5
"cds3515",-236.3
"cds3516",-170.5
"cds3517",-130.2
"cds3518",-215.4
"cds3519",-21.6
"cds352",-405.3
"cds3520",-291
"cds3521",-184.7
"cds3522",-161.7
"cds3523",-243.3
"cds3524",-209.4
"cds3525",-35.5
"cds3526",-14.5
"cds3527",-357.1
"cds3528",-264.9
"cds3529",-236.3
"cds353",-392.8
"cds3530",-784.1
"cds3531",-30.9
"cds3532",-272.3
"cds3533",-397.4
"cds3534",-385.9
"cds3535",-283.8
"cds3536",-239.8
"cds3537",-264.4
"cds3538",-212
"cds3539",-356.7
"cds354",-34.8
"cds3540",-124.9
"cds3541",-155.9
"cds3542",-646
"cds3543",-461.4
"cds3544",-357.9
"cds3545",-308.3
"cds3546",-274.4
"cds3547",-146.8
"cds3548",-425.2
"cds3549",-316.7
"cds355",-273.4
"cds3550",-450.8
"cds3551",-266.1
"cds3552",-135.4
"cds3553",-530.9
"cds3554",-77.1
"cds3555",-35.5
"cds3556",-58.4
"cds3557",-68.5
"cds3558",-97.8
"cds3559",-57.7
"cds356",-174.1
"cds3560",-63
"cds3561",-188.3
"cds3562",-36
"cds3563",-214.7
"cds3564",-26.6
"cds3565",-65.8
"cds3566",-130.1
"cds3567",-169.8
"cds3568",-233.4
"cds3569",-369.1
"cds357",-46.6
"cds3570",-233.1
"cds3571",-290
"cds3572",-230.8
"cds3573",-113.5
"cds3574",-40.1
"cds3575",-111.5
"cds3576",-200.9
"cds3577",-477.2
"cds3578",-143.8
"cds3579",-106.8
"cds358",-352.4
"cds3580",-344.9
"cds3581",-457.7
"cds3582",-75.2
"cds3583",-285.2
"cds3584",-197.2
"cds3585",-224
"cds3586",-126.6
"cds3587",-441.6
"cds3588",-177.2
"cds3589",-98.1
"cds359",-153.1
"cds3590",-695.7
"cds3591",-511.6
"cds3592",-140.2
"cds3593",-51.8
"cds3594",-242.1
"cds3595",-708.6
"cds3596",-293.3
"cds3597",-190.2
"cds3598",-50.8
"cds3599",-82.4
"cds36",-140.2
"cds360",-201.3
"cds3600",-211
"cds3601",-226.6
"cds3602",-399.3
"cds3603",-448.1
"cds3604",-291.8
"cds3605",-530.2
"cds3606",-199.2
"cds3607",-204.9
"cds3608",-444.4
"cds3609",-197.9
"cds361",-50.2
"cds3610",-327.1
"cds3611",-125.3
"cds3612",-76.6
"cds3613",-117.3
"cds3614",-67.3
"cds3615",-82.7
"cds3616",-46.1
"cds3617",-131.4
"cds3618",-135.1
"cds3619",-557.9
"cds362",-99
"cds3620",-221.1
"cds3621",-252.7
"cds3622",-369.6
"cds3623",-110.6
"cds3624",-76.4
"cds3625",-54.8
"cds3626",-269.6
"cds3627",-170.3
"cds3628",-172.3
"cds3629",-256.2
"cds363",-285.4
"cds3630",-716.3
"cds3631",-242.6
"cds3632",-256.9
"cds3633",-485.7
"cds3634",-170.9
"cds3635",-239.2
"cds3636",-328.1
"cds3637",-278.9
"cds3638",-115
"cds3639",-260.7
"cds364",-122.3
"cds3640",-381.2
"cds3641",-431
"cds3642",-111.3
"cds3643",-512.7
"cds3644",-298.2
"cds3645",-297.8
"cds3646",-228.5
"cds3647",-141.7
"cds3648",-347
"cds3649",-1001.8
"cds365",-80.1
"cds3650",-93.3
"cds3651",-120.3
"cds3652",-245
"cds3653",-61.8
"cds3654",-393.9
"cds3655",-64.1
"cds3656",-191.4
"cds3657",-293.7
"cds3658",-37
"cds3659",-97.3
"cds366",-31
"cds3660",-425.2
"cds3661",-309.9
"cds3662",-74.2
"cds3663",-134.4
"cds3664",-224.4
"cds3665",-355.9
"cds3666",-265.1
"cds3667",-129.2
"cds3668",-121.7
"cds3669",-154.6
"cds367",-37.8
"cds3670",-141.3
"cds3671",-264.6
"cds3672",-207.7
"cds3673",-206.5
"cds3674",-190.6
"cds3675",-227.5
"cds3676",-64.4
"cds3677",-252.1
"cds3678",-38
"cds3679",-154
"cds368",-27.8
"cds3680",-284.8
"cds3681",-493.7
"cds3682",-449.4
"cds3683",-46.3
"cds3684",-317.1
"cds3685",-309.2
"cds3686",-439.8
"cds3687",-245.9
"cds3688",-179.7
"cds3689",-140.1
"cds369",-72.11
"cds3690",-139.7
"cds3691",-371.1
"cds3692",-794.2
"cds3693",-512.9
"cds3694",-177.1
"cds3695",-157.4
"cds3696",-331.07
"cds3697",-278.3
"cds3698",-289.7
"cds3699",-67.5
"cds37",-228.9
"cds370",-141
"cds3700",-110.8
"cds3701",-129.3
"cds3702",-286.6
"cds3703",-370.2
"cds3704",-796.8
"cds3705",-78.8
"cds3706",-221.1
"cds3707",-62.8
"cds3708",-126.5
"cds3709",-131.8
"cds371",-286.8
"cds3710",-235
"cds3711",-142.97
"cds3712",-319.8
"cds3713",-53.2
"cds3714",-218.5
"cds3715",-168.3
"cds3716",-53.3
"cds3717",-228
"cds3718",-33.7
"cds3719",-291.7
"cds372",-136.5
"cds3720",-174
"cds3721",-339.6
"cds3722",-241.2
"cds3723",-398.4
"cds3724",-381.1
"cds3725",-39.4
"cds3726",-123.4
"cds3727",-135.4
"cds3728",-417.2
"cds3729",-344.4
"cds373",-11.2
"cds3730",-52.4
"cds3731",-101.7
"cds3732",-297.8
"cds3733",-431.9
"cds3734",-238
"cds3735",-108.7
"cds3736",-57.2
"cds3737",-53.9
"cds3738",-249.9
"cds3739",-436.1
"cds374",-256.9
"cds3740",-64
"cds3741",-197.4
"cds3742",-113.9
"cds3743",-284
"cds3744",-64.5
"cds3745",-191.8
"cds3746",-330.9
"cds3747",-102.2
"cds3748",-201.5
"cds3749",-262.9
"cds375",-170
"cds3750",-170.9
"cds3751",-37.7
"cds3752",-138.1
"cds3753",-248.9
"cds3754",-63.2
"cds3755",-126.4
"cds3756",-65.4
"cds3757",-154.8
"cds3758",-225.2
"cds3759",-176.8
"cds376",-417
"cds3760",-500.7
"cds3761",-72.4
"cds3762",-82.9
"cds3763",-47.3
"cds3764",-200.1
"cds3765",-478.8
"cds3766",-385.8
"cds3767",-68.9
"cds3768",-313.2
"cds3769",-85.2
"cds377",-400.7
"cds3770",-253.9
"cds3771",-35.8
"cds3772",-345.5
"cds3773",-315.1
"cds3774",-75.5
"cds3775",-280.8
"cds3776",-95.8
"cds3777",-201.1
"cds3778",-379.1
"cds3779",-81.5
"cds378",-146.3
"cds3780",-66.7
"cds3781",-26.5
"cds3782",-66.9
"cds3783",-305.8
"cds3784",-329.9
"cds3785",-141.7
"cds3786",-196.8
"cds3787",-66.7
"cds3788",-148.7
"cds3789",-104.3
"cds379",-132.8
"cds3790",-84.2
"cds3791",-221.8
"cds3792",-104.3
"cds3793",-70.3
"cds3794",-212.1
"cds3795",-110.1
"cds3796",-204.3
"cds3797",-422.1
"cds3798",-32.8
"cds3799",-308.3
"cds38",-229.6
"cds380",-148.4
"cds3800",-116.3
"cds3801",-315.1
"cds3802",-447
"cds3803",-156.7
"cds3804",-312.8
"cds3805",-91.2
"cds3806",-179.1
"cds3807",-357.8
"cds3808",-44.9
"cds3809",-134.1
"cds381",-188
"cds3810",-110.6
"cds3811",-171.3
"cds3812",-91.2
"cds3813",-48.5
"cds3814",-294.7
"cds3815",-33.1
"cds3816",-99.5
"cds3817",-85.4
"cds3818",-230.5
"cds3819",-46.2
"cds382",-55.8
"cds3820",-118
"cds3821",-961.3
"cds3822",-45.37
"cds3823",-292.7
"cds3824",-311.6
"cds3825",-430.4
"cds3826",-176.9
"cds3827",-152.3
"cds3828",-49.1
"cds3829",-321.5
"cds383",-298.9
"cds3830",-53.8
"cds3831",-28.4
"cds3832",-175.3
"cds3833",-53
"cds3834",-344.3
"cds3835",-309.3
"cds3836",-408.4
"cds3837",-327.8
"cds3838",-348.2
"cds3839",-167.3
"cds384",-388
"cds3840",-238.8
"cds3841",-99.1
"cds3842",-81.4
"cds3843",-266.4
"cds3844",-541.4
"cds3845",-596.3
"cds3846",-382.2
"cds3847",-223.1
"cds3848",-174.5
"cds3849",-432.1
"cds385",-410.7
"cds3850",-63
"cds3851",-60.6
"cds3852",-232.8
"cds3853",-147.3
"cds3854",-127.9
"cds3855",-121
"cds3856",-105.6
"cds3857",-169.2
"cds3858",-56.1
"cds3859",-177.1
"cds386",-357.9
"cds3860",-85.1
"cds3861",-75.1
"cds3862",-182.8
"cds3863",-89.2
"cds3864",-169.6
"cds3865",-220.1
"cds3866",-109.7
"cds3867",-103.87
"cds3868",-126.1
"cds3869",-246.7
"cds387",-352.1
"cds3870",-395.5
"cds3871",-177.1
"cds3872",-54.5
"cds3873",-231.9
"cds3874",-169
"cds3875",-393.3
"cds3876",-77.8
"cds3877",-145.34
"cds3878",-248.6
"cds3879",-290.3
"cds388",-48.8
"cds3880",-167.5
"cds3881",-217.5
"cds3882",-412.8
"cds3883",-316.3
"cds3884",-163.6
"cds3885",-350.9
"cds3886",-71.7
"cds3887",-173.1
"cds3888",-299
"cds3889",-189.7
"cds389",-32.1
"cds3890",-155.7
"cds3891",-79.6
"cds3892",-149.1
"cds3893",-340.8
"cds3894",-417.6
"cds3895",-202.6
"cds3896",-162.1
"cds3897",-153.1
"cds3898",-61.9
"cds3899",-219.6
"cds39",-43
"cds390",-177.1
"cds3900",-374.2
"cds3901",-74.2
"cds3902",-121.81
"cds3903",-25.67
"cds3904",-132
"cds3905",-154.9
"cds3906",-790.2
"cds3907",-29.8
"cds3908",-163.1
"cds3909",-165.6
"cds391",-339.2
"cds3910",-112.5
"cds3911",-354.3
"cds3912",-113.2
"cds3913",-67.1
"cds3914",-113.5
"cds3915",-348.2
"cds3916",-457.8
"cds3917",-431
"cds3918",-246.3
"cds3919",-384.9
"cds392",-303.7
"cds3920",-431
"cds3921",-160.7
"cds3922",-210.7
"cds3923",-131.5
"cds3924",-191.2
"cds3925",-240.8
"cds3926",-584.2
"cds3927",-425.6
"cds3928",-238.5
"cds3929",-470.1
"cds393",-202
"cds3930",-396.4
"cds3931",-166.3
"cds3932",-334.4
"cds3933",-227.4
"cds3934",-151
"cds3935",-488.3
"cds3936",-61.7
"cds3937",-164.5
"cds3938",-36.1
"cds3939",-445.2
"cds394",-180.6
"cds3940",-425
"cds3941",-352.8
"cds3942",-209.2
"cds3943",-219.6
"cds3944",-420.5
"cds3945",-77
"cds3946",-237.4
"cds3947",-57.5
"cds3948",-424.2
"cds3949",-407.5
"cds395",-161.2
"cds3950",-128.1
"cds3951",-50.9
"cds3952",-176.44
"cds3953",-180.7
"cds3954",-235.5
"cds3955",-74.1
"cds3956",-179.1
"cds3957",-181.7
"cds3958",-440.2
"cds3959",-446
"cds396",-280.95
"cds3960",-362.3
"cds3961",-258.7
"cds3962",-199.2
"cds3963",-248.4
"cds3964",-200.9
"cds3965",-296.2
"cds3966",-87.4
"cds3967",-188.9
"cds3968",-73.3
"cds3969",-164.9
"cds397",-196.5
"cds3970",-69.9
"cds3971",-84.1
"cds3972",-93
"cds3973",-92.1
"cds3974",-73.8
"cds3975",-72
"cds3976",-48.7
"cds3977",-344.7
"cds3978",-52.4
"cds3979",-70.9
"cds398",-35.2
"cds3980",-267
"cds3981",-27.9
"cds3982",-43.8
"cds3983",-70.6
"cds3984",-108.7
"cds3985",-71.8
"cds3986",-209.3
"cds3987",-45.1
"cds3988",-116.1
"cds3989",-53.1
"cds399",-331
"cds3990",-35.5
"cds3991",-53.5
"cds3992",-54.8
"cds3993",-175.3
"cds3994",-44.3
"cds3995",-47.9
"cds3996",-131
"cds3997",-119.4
"cds3998",-248.1
"cds3999",-73.7
"cds4",-61.8
"cds40",-34.4
"cds400",-219.8
"cds4000",-196.2
"cds4001",-73.1
"cds4002",-238
"cds4003",-49.4
"cds4004",-586.2
"cds4005",-308.9
"cds4006",-350.1
"cds4007",-42.8
"cds4008",-110.5
"cds4009",-118.3
"cds401",-220.8
"cds4010",-22.3
"cds4011",-77.5
"cds4012",-177.9
"cds4013",-320.4
"cds4014",-27
"cds4015",-54
"cds4016",-623.6
"cds4017",-407.5
"cds4018",-75.1
"cds4019",-455
"cds402",-291.2
"cds4020",-204.5
"cds4021",-566.8
"cds4022",-286.1
"cds4023",-52.7
"cds4024",-409.1
"cds4025",-225.2
"cds4026",-614.2
"cds4027",-331.6
"cds4028",-405.1
"cds4029",-81.5
"cds403",-204.1
"cds4030",-86.8
"cds4031",-57.8
"cds4032",-41
"cds4033",-94.4
"cds4034",-103.1
"cds4035",-89.8
"cds4036",-60.6
"cds4037",-82.4
"cds4038",-38.3
"cds4039",-59.1
"cds404",-302.6
"cds4040",-435.7
"cds4041",-75.2
"cds4042",-272.2
"cds4043",-74.1
"cds4044",-793
"cds4045",-22.3
"cds4046",-36.4
"cds4047",-224.7
"cds4048",-338.1
"cds4049",-351.4
"cds405",-283.6
"cds4050",-8.8
"cds4051",-34.8
"cds4052",-622.5
"cds4053",-257.1
"cds4054",-341.5
"cds4055",-48.5
"cds4056",-54.6
"cds4057",-378.74
"cds4058",-187.5
"cds4059",-474.8
"cds406",-251.1
"cds4060",-164.7
"cds4061",-244.5
"cds4062",-286.2
"cds4063",-328.6
"cds4064",-62.6
"cds4065",-295.9
"cds4066",-323.7
"cds4067",-92.7
"cds4068",-46.5
"cds4069",-195.5
"cds407",-175
"cds4070",-293.3
"cds4071",-94.2
"cds4072",-176
"cds4073",-99.8
"cds4074",-97.4
"cds4075",-114.2
"cds4076",-72.2
"cds4077",-143.1
"cds4078",-187.7
"cds4079",-160.5
"cds408",-43.1
"cds4080",-513.5
"cds4081",-137.9
"cds4082",-147
"cds4083",-333.5
"cds4084",-162.3
"cds4085",-69.1
"cds4086",-64.2
"cds4087",-44.3
"cds4088",-98.7
"cds4089",-930.8
"cds409",-40.2
"cds4090",-100.2
"cds4091",-68.7
"cds4092",-143.1
"cds4093",-103.4
"cds4094",-158.9
"cds4095",-138.9
"cds4096",-33.8
"cds4097",-29.2
"cds4098",-353
"cds4099",-212.3
"cds41",-247.9
"cds410",-243.7
"cds4100",-192.8
"cds4101",-263.9
"cds4102",-85.1
"cds4103",-97.5
"cds4104",-85.2
"cds4105",-23.3
"cds4106",-381.3
"cds4107",-278.2
"cds4108",-73.6
"cds4109",-392.1
"cds411",-358
"cds4110",-43.4
"cds4111",-328.4
"cds4112",-25.7
"cds4113",-312.4
"cds4114",-328.6
"cds4115",-221
"cds4116",-399.5
"cds4117",-67.1
"cds4118",-60.8
"cds4119",-524.9
"cds412",-752.6
"cds4120",-199.6
"cds4121",-250.8
"cds4122",-85.9
"cds4123",-414.7
"cds4124",-129.5
"cds4125",-73.9
"cds4126",-83.4
"cds4127",-32.9
"cds4128",-207.9
"cds4129",-218.9
"cds413",-297.3
"cds4130",-500.9
"cds4131",-278.9
"cds4132",-119.1
"cds4133",-467.1
"cds4134",-187.2
"cds4135",-54
"cds4136",-185.8
"cds4137",-95.8
"cds4138",-72.7
"cds4139",-43
"cds414",-387.8
"cds4140",-328.4
"cds4141",-523.1
"cds4142",-661.9
"cds4143",-633.5
"cds4144",-78.6
"cds4145",-375.9
"cds4146",-380.1
"cds4147",-346.8
"cds4148",-351.7
"cds4149",-400.5
"cds415",-284.9
"cds4150",-415
"cds4151",-450.3
"cds4152",-418.9
"cds4153",-244.1
"cds4154",-255
"cds4155",-308.7
"cds4156",-255.2
"cds4157",-202.8
"cds4158",-165.4
"cds4159",-325.2
"cds416",-87.9
"cds4160",-145.6
"cds4161",-90.2
"cds4162",-470.8
"cds4163",-39.8
"cds4164",-187
"cds4165",-480
"cds4166",-369.7
"cds4167",-300.4
"cds4168",-124.6
"cds4169",-316.6
"cds417",-162.8
"cds4170",-609.2
"cds4171",-209
"cds4172",-191.2
"cds4173",-178.5
"cds4174",-194.4
"cds4175",-100.7
"cds4176",-142
"cds4177",-74.6
"cds4178",-606.8
"cds4179",-612.3
"cds418",-331.9
"cds4180",-92.4
"cds4181",-327.6
"cds4182",-243.5
"cds4183",-431
"cds4184",-133.2
"cds4185",-256
"cds4186",-336.1
"cds4187",-212
"cds4188",-45.1
"cds4189",-81.7
"cds419",-63.2
"cds4190",-100.2
"cds4191",-208.7
"cds4192",-245.5
"cds4193",-39.3
"cds4194",-48.5
"cds4195",-195.8
"cds4196",-101.9
"cds4197",-94.3
"cds4198",-230.9
"cds4199",-45.5
"cds42",-223.9
"cds420",-304.5
"cds4200",-176
"cds4201",-37.3
"cds4202",-46.3
"cds4203",-231.2
"cds4204",-11.9
"cds4205",-147.9
"cds4206",-84.5
"cds4207",-346.4
"cds4208",-32.5
"cds4209",-30.1
"cds421",-217.9
"cds4210",-72.8
"cds4211",-65.3
"cds4212",-94.6
"cds4213",-162.02
"cds4214",-328.5
"cds4215",-85.7
"cds4216",-342
"cds4217",-52.4
"cds4218",-68.7
"cds4219",-125.9
"cds422",-536.1
"cds4220",-28.5
"cds4221",-80
"cds4222",-125.8
"cds4223",-80.2
"cds4224",-246.6
"cds4225",-61.5
"cds4226",-70.6
"cds4227",-152.3
"cds4228",-313.3
"cds4229",-36.5
"cds423",-143.6
"cds4230",-30.3
"cds4231",-127.8
"cds4232",-38
"cds4233",-146.2
"cds4234",-49
"cds4235",-56.9
"cds4236",-123.1
"cds4237",-247.14
"cds4238",-65.5
"cds4239",-152.2
"cds424",-61.9
"cds4240",-51
"cds4241",-175.7
"cds4242",-102.9
"cds4243",-39
"cds4244",-294.8
"cds4245",-83.3
"cds4246",-87.3
"cds4247",-106
"cds4248",-35.2
"cds4249",-40.4
"cds425",-81.1
"cds4250",-27.6
"cds4251",-35.4
"cds4252",-42.8
"cds4253",-27.7
"cds4254",-260
"cds4255",-88.4
"cds4256",-260.8
"cds4257",-43.5
"cds4258",-231.7
"cds4259",-395.4
"cds426",-9.5
"cds4260",-63
"cds4261",-100.2
"cds4262",-234.1
"cds4263",-344.4
"cds4264",-52.4
"cds4265",-62.9
"cds4266",-98.4
"cds4267",-178.5
"cds4268",-95.3
"cds4269",-98.9
"cds427",-206
"cds4270",-170
"cds4271",-108.2
"cds4272",-165.8
"cds4273",-89.2
"cds4274",-26.1
"cds4275",-65.6
"cds4276",-42.5
"cds4277",-28.6
"cds4278",-530.4
"cds4279",-293
"cds428",-115.8
"cds4280",-43.7
"cds4281",-108.9
"cds4282",-47
"cds4283",-238.3
"cds4284",-407.6
"cds4285",-76.9
"cds4286",-166.2
"cds4287",-229.7
"cds4288",-119.1
"cds4289",-294.8
"cds429",-404.1
"cds4290",-83.2
"cds4291",-26
"cds4292",-109.4
"cds4293",-45.2
"cds4294",-163.4
"cds4295",-107.4
"cds4296",-40.7
"cds4297",-39.7
"cds4298",-37
"cds4299",-312.2
"cds43",-89.1
"cds430",-150.7
"cds4300",-149.8
"cds4301",-62.1
"cds4302",-84.6
"cds4303",-58.2
"cds4304",-178.7
"cds4305",-294.2
"cds4306",-81.8
"cds4307",-33.7
"cds4308",-26.8
"cds4309",-29.8
"cds431",-27.2
"cds4310",-94
"cds4311",-341.5
"cds4312",-172.8
"cds4313",-35.7
"cds4314",-32.4
"cds4315",-60
"cds4316",-347.5
"cds4317",-128.7
"cds4318",-278.1
"cds4319",-164.2
"cds432",-493.1
"cds4320",-308.6
"cds4321",-45.4
"cds4322",-1271.47
"cds4323",-518.5
"cds4324",-338
"cds4325",-287.1
"cds4326",-223.6
"cds4327",-129.1
"cds4328",-112.6
"cds4329",-37.3
"cds433",-535.1
"cds4330",-23.8
"cds4331",-133.52
"cds4332",-167.4
"cds4333",-270.6
"cds4334",-214.3
"cds4335",-131.2
"cds4336",-343.3
"cds4337",-32.4
"cds4338",-363.3
"cds4339",-172.1
"cds434",-71.5
"cds4340",-100.4
"cds4341",-216.8
"cds4342",-184.7
"cds4343",-137.8
"cds4344",-133.6
"cds4345",-68.3
"cds4346",-179.1
"cds4347",-181.1
"cds4348",-260
"cds4349",-202.7
"cds435",-191.4
"cds4350",-468.2
"cds4351",-148.9
"cds4352",-93.3
"cds4353",-154.8
"cds4354",-101.8
"cds4355",-699.1
"cds4356",-126.4
"cds4357",-91.9
"cds4358",-113.8
"cds4359",-92.3
"cds436",-677.1
"cds4360",-790.7
"cds4361",-121.5
"cds4362",-56.3
"cds4363",-99.7
"cds4364",-322.9
"cds4365",-150.4
"cds4366",-178.4
"cds4367",-170.2
"cds4368",-137.6
"cds4369",-149.3
"cds437",-43.8
"cds4370",-105.8
"cds4371",-103.8
"cds4372",-94.5
"cds4373",-325.07
"cds4374",-272.1
"cds4375",-202.1
"cds4376",-167.1
"cds4377",-77.1
"cds4378",-189.8
"cds4379",-171.1
"cds438",-361.5
"cds4380",-119.7
"cds4381",-111.9
"cds4382",-596.4
"cds4383",-137.9
"cds4384",-155.9
"cds4385",-237.3
"cds4386",-152.6
"cds4387",-150.1
"cds4388",-291
"cds4389",-151.3
"cds439",-68.7
"cds4390",-120.3
"cds4391",-51
"cds4392",-189.9
"cds4393",-242.9
"cds4394",-267
"cds4395",-49.3
"cds4396",-160
"cds4397",-173.8
"cds4398",-393.9
"cds4399",-60
"cds44",-74.4
"cds440",-34.1
"cds4400",-94.7
"cds4401",-418.2
"cds4402",-36.2
"cds4403",-225
"cds4404",-106
"cds4405",-349.8
"cds4406",-190.2
"cds4407",-178.9
"cds4408",-227.5
"cds4409",-411.7
"cds441",-136.3
"cds4410",-405.3
"cds4411",-401.7
"cds4412",-144.9
"cds4413",-400.2
"cds4414",-26.1
"cds4415",-14
"cds4416",-147.4
"cds4417",-473.9
"cds4418",-227.4
"cds4419",-380.2
"cds442",-414.5
"cds4420",-149.2
"cds4421",-181.4
"cds4422",-55.3
"cds4423",-131.9
"cds4424",-98.7
"cds4425",-315.5
"cds4426",-439.5
"cds4427",-1425.1
"cds4428",-234.1
"cds4429",-87.1
"cds443",-273.5
"cds4430",-144.7
"cds4431",-23.4
"cds4432",-79.9
"cds4433",-806.4
"cds4434",-711.7
"cds4435",-59.5
"cds4436",-126.4
"cds4437",-284.2
"cds4438",-143.6
"cds4439",-66.1
"cds444",-423.9
"cds4440",-233.9
"cds4441",-139
"cds4442",-359.1
"cds4443",-425
"cds4444",-324
"cds4445",-321.1
"cds4446",-343.6
"cds4447",-274.2
"cds4448",-356.34
"cds4449",-402.2
"cds445",-357.5
"cds4450",-152.1
"cds4451",-97.4
"cds4452",-197.7
"cds4453",-115.3
"cds4454",-44.6
"cds4455",-227.4
"cds4456",-257.8
"cds4457",-201.8
"cds4458",-220.1
"cds4459",-124.7
"cds446",-244.6
"cds4460",-63.6
"cds4461",-45.1
"cds4462",-104.3
"cds4463",-34.5
"cds4464",-114
"cds4465",-49.4
"cds4466",-236.2
"cds4467",-235.7
"cds4468",-396.1
"cds4469",-165.3
"cds447",-102.9
"cds4470",-339.8
"cds4471",-460.7
"cds4472",-224.7
"cds4473",-237.2
"cds4474",-524
"cds4475",-425.3
"cds4476",-258.9
"cds4477",-160.7
"cds4478",-44.7
"cds4479",-230.9
"cds448",-280.1
"cds4480",-188.1
"cds4481",-349.6
"cds4482",-325.2
"cds4483",-94.6
"cds4484",-107.9
"cds4485",-47.1
"cds4486",-107.5
"cds4487",-225.5
"cds4488",-439.7
"cds4489",-421.7
"cds449",-145
"cds4490",-263.9
"cds4491",-92.2
"cds4492",-91.7
"cds4493",-343.8
"cds4494",-146.1
"cds4495",-168.8
"cds4496",-430.3
"cds4497",-448.8
"cds4498",-446.7
"cds4499",-235.9
"cds45",-353.9
"cds450",-46.5
"cds4500",-132.4
"cds4501",-78
"cds4502",-298.9
"cds4503",-53.8
"cds4504",-321.3
"cds4505",-131.8
"cds4506",-431.4
"cds4507",-429.3
"cds4508",-86.3
"cds4509",-34.4
"cds451",-47.4
"cds4510",-305.3
"cds4511",-72
"cds4512",-189.4
"cds4513",-184.9
"cds4514",-255.1
"cds4515",-344.4
"cds4516",-52.4
"cds4517",-108.2
"cds4518",-306.4
"cds4519",-406.3
"cds452",-359.1
"cds4520",-127.6
"cds4521",-62.5
"cds4522",-119.1
"cds4523",-140.5
"cds4524",-71.6
"cds4525",-61.6
"cds4526",-320
"cds4527",-20.6
"cds4528",-317.5
"cds4529",-78
"cds453",-115.6
"cds4530",-22.4
"cds4531",-142.2
"cds4532",-345.4
"cds4533",-36
"cds4534",-344.4
"cds4535",-52.4
"cds4536",-352.7
"cds4537",-341.5
"cds4538",-399.2
"cds4539",-172.9
"cds454",-398.4
"cds4540",-62.8
"cds4541",-56.4
"cds4542",-266.1
"cds4543",-40.2
"cds4544",-367.2
"cds4545",-206
"cds4546",-234.2
"cds4547",-274
"cds4548",-59.8
"cds4549",-431.3
"cds455",-190.2
"cds4550",-990.6
"cds4551",-123.1
"cds4552",-214.9
"cds4553",-30.3
"cds4554",-131
"cds4555",-42.4
"cds4556",-695.5
"cds4557",-109.3
"cds4558",-45
"cds4559",-232.9
"cds456",-171.3
"cds4560",-69.2
"cds4561",-350.5
"cds4562",-389.6
"cds4563",-228.2
"cds4564",-215.9
"cds4565",-42.3
"cds4566",-371.4
"cds4567",-294.4
"cds4568",-116.8
"cds4569",-375.6
"cds457",-169.4
"cds4570",-352.5
"cds4571",-60.1
"cds4572",-81.6
"cds4573",-363.9
"cds4574",-69.6
"cds4575",-361.9
"cds4576",-123.7
"cds4577",-239.5
"cds4578",-69
"cds4579",-332.2
"cds458",-38
"cds4580",-199.9
"cds4581",-145.8
"cds4582",-137.5
"cds4583",-106.7
"cds4584",-38.1
"cds4585",-165.3
"cds4586",-98.4
"cds4587",-143
"cds4588",-20
"cds4589",-67.2
"cds459",-372.1
"cds4590",-713.2
"cds4591",-129.6
"cds4592",-90.1
"cds4593",-419.8
"cds4594",-115.3
"cds4595",-87.2
"cds4596",-84.2
"cds4597",-201.4
"cds4598",-112.8
"cds4599",-145.5
"cds46",-238.5
"cds460",-409.2
"cds4600",-328.8
"cds4601",-329.6
"cds4602",-206.9
"cds4603",-99.8
"cds4604",-412.1
"cds4605",-125.8
"cds4606",-225.8
"cds4607",-188.1
"cds4608",-346.3
"cds4609",-59.3
"cds461",-425.1
"cds4610",-54.3
"cds4611",-128.8
"cds4612",-332.2
"cds4613",-257.1
"cds4614",-89.5
"cds4615",-110.2
"cds4616",-54.5
"cds4617",-261.6
"cds4618",-67.1
"cds4619",-59.5
"cds462",-544.8
"cds4620",-285.4
"cds4621",-293.2
"cds4622",-352.9
"cds4623",-136.2
"cds4624",-244.5
"cds4625",-116.9
"cds4626",-222.2
"cds4627",-87.3
"cds4628",-62.5
"cds4629",-70.1
"cds463",-442.3
"cds4630",-48.5
"cds4631",-141
"cds4632",-250.8
"cds4633",-284.7
"cds4634",-166.7
"cds4635",-293.6
"cds4636",-75.1
"cds4637",-364.5
"cds4638",-225.1
"cds4639",-253.4
"cds464",-323.1
"cds4640",-382.8
"cds4641",-107.2
"cds4642",-358.5
"cds4643",-352.4
"cds4644",-202.9
"cds4645",-38.8
"cds4646",-179.3
"cds4647",-183.2
"cds4648",-280.1
"cds4649",-374.2
"cds465",-279.9
"cds4650",-63
"cds4651",-79.7
"cds4652",-92.4
"cds4653",-88.9
"cds4654",-463.9
"cds4655",-363.8
"cds4656",-679.2
"cds4657",-22.1
"cds4658",-229.2
"cds4659",-50.2
"cds466",-232.9
"cds4660",-69.8
"cds4661",-294
"cds4662",-250.4
"cds4663",-422.1
"cds4664",-445.8
"cds4665",-268.5
"cds4666",-110.9
"cds4667",-149.9
"cds4668",-405
"cds4669",-118.8
"cds467",-324.5
"cds4670",-56.4
"cds4671",-30.42
"cds4672",-168.8
"cds4673",-473.2
"cds4674",-213.2
"cds4675",-188.5
"cds4676",-242.1
"cds4677",-245.9
"cds4678",-73
"cds4679",-396.4
"cds468",-178.7
"cds4680",-502.4
"cds4681",-117
"cds4682",-135.1
"cds4683",-361.8
"cds4684",-179.2
"cds4685",-125.3
"cds4686",-161.1
"cds4687",-268.7
"cds4688",-258.5
"cds4689",-189.4
"cds469",-166.2
"cds4690",-426.9
"cds4691",-474.7
"cds4692",-119.8
"cds4693",-274.9
"cds4694",-225.6
"cds4695",-215.5
"cds4696",-227.4
"cds4697",-83
"cds4698",-826.5
"cds4699",-112.8
"cds47",-54.9
"cds470",-186.8
"cds4700",-41.4
"cds4701",-78.3
"cds4702",-143.5
"cds4703",-104.6
"cds4704",-699
"cds4705",-193.6
"cds4706",-60.4
"cds4707",-136.5
"cds4708",-203.2
"cds4709",-382
"cds471",-118.2
"cds4710",-463.2
"cds4711",-205.2
"cds4712",-338.6
"cds4713",-254.9
"cds4714",-277.2
"cds4715",-50.7
"cds4716",-335.7
"cds4717",-163.9
"cds4718",-65.3
"cds4719",-258.8
"cds472",-301.2
"cds4720",-278.3
"cds4721",-253.8
"cds4722",-130.1
"cds4723",-265.3
"cds4724",-420
"cds4725",-153.3
"cds4726",-227.5
"cds4727",-218.4
"cds4728",-192
"cds4729",-160.7
"cds473",-204.4
"cds4730",-405.4
"cds4731",-172.7
"cds4732",-316.3
"cds4733",-257.5
"cds4734",-168.7
"cds4735",-144.9
"cds4736",-181.7
"cds4737",-287.6
"cds4738",-231
"cds4739",-254.1
"cds474",-83.9
"cds4740",-267.4
"cds4741",-838.7
"cds4742",-558.2
"cds4743",-38.7
"cds4744",-450.3
"cds4745",-26.3
"cds4746",-631.9
"cds4747",-106.4
"cds4748",-342.2
"cds4749",-310.5
"cds475",-324.9
"cds4750",-229
"cds4751",-349.2
"cds4752",-388.2
"cds4753",-358.4
"cds4754",-206
"cds4755",-166.9
"cds4756",-94.4
"cds4757",-81
"cds4758",-279.7
"cds4759",-714.1
"cds476",-109.7
"cds4760",-63.3
"cds4761",-22.8
"cds4762",-123
"cds4763",-79.8
"cds4764",-88.6
"cds4765",-366.8
"cds4766",-79.7
"cds4767",-308.2
"cds4768",-58.1
"cds4769",-91.3
"cds477",-116.4
"cds4770",-159.2
"cds4771",-239.9
"cds4772",-424.4
"cds4773",-145.2
"cds4774",-56.4
"cds4775",-81.9
"cds4776",-177.9
"cds4777",-411.7
"cds4778",-252.2
"cds4779",-188.1
"cds478",-295.8
"cds4780",-329.5
"cds4781",-156.1
"cds4782",-253.8
"cds4783",-298.9
"cds4784",-297.3
"cds4785",-206.3
"cds4786",-343
"cds4787",-430.94
"cds4788",-300.3
"cds4789",-209.3
"cds479",-72.6
"cds4790",-196.2
"cds4791",-293.9
"cds4792",-356.4
"cds4793",-717.2
"cds4794",-87.5
"cds4795",-308.8
"cds4796",-209.3
"cds4797",-215.2
"cds4798",-456.1
"cds4799",-82
"cds48",-153.2
"cds480",-302.1
"cds4800",-114.9
"cds4801",-602.9
"cds4802",-375.4
"cds4803",-520.3
"cds4804",-42.3
"cds4805",-539
"cds4806",-359.7
"cds4807",-62.6
"cds4808",-187.5
"cds4809",-460.2
"cds481",-227.4
"cds4810",-853
"cds4811",-149.3
"cds4812",-335.7
"cds4813",-85.1
"cds4814",-987.8
"cds4815",-273.7
"cds4816",-313.5
"cds4817",-402
"cds4818",-297
"cds4819",-288
"cds482",-187.1
"cds4820",-46.4
"cds4821",-79.9
"cds4822",-89.1
"cds4823",-37.6
"cds4824",-103
"cds4825",-55.7
"cds4826",-216.8
"cds4827",-227.4
"cds4828",-284.7
"cds4829",-53.3
"cds483",-36.4
"cds4830",-241.8
"cds4831",-96
"cds4832",-234.3
"cds4833",-371.1
"cds4834",-186.5
"cds4835",-55.2
"cds4836",-448.7
"cds4837",-449.5
"cds4838",-572.1
"cds4839",-80
"cds484",-125.8
"cds4840",-145.4
"cds4841",-80.4
"cds4842",-283.1
"cds4843",-305.6
"cds4844",-308.4
"cds4845",-133.5
"cds4846",-79.2
"cds4847",-112.8
"cds4848",-382.7
"cds4849",-224.1
"cds485",-206.6
"cds4850",-406.7
"cds4851",-135.2
"cds4852",-115.5
"cds4853",-54.7
"cds4854",-186.7
"cds4855",-82.9
"cds4856",-611.6
"cds4857",-312.4
"cds4858",-156.7
"cds4859",-333.5
"cds486",-66
"cds4860",-170.7
"cds4861",-124.8
"cds4862",-337.2
"cds4863",-119.7
"cds4864",-156.9
"cds4865",-300.7
"cds4866",-206.8
"cds4867",-227.2
"cds4868",-291.5
"cds4869",-101.4
"cds487",-138.2
"cds4870",-198.5
"cds4871",-43.8
"cds4872",-372.9
"cds4873",-294.1
"cds4874",-382.8
"cds4875",-161.7
"cds4876",-219.2
"cds4877",-87.1
"cds4878",-144
"cds4879",-415.3
"cds488",-344.4
"cds4880",-119
"cds4881",-976.6
"cds4882",-155
"cds4883",-328.8
"cds4884",-348
"cds4885",-228.7
"cds4886",-352.2
"cds4887",-593.3
"cds4888",-274.5
"cds4889",-251.5
"cds489",-41.3
"cds4890",-450.7
"cds4891",-95.9
"cds4892",-271.6
"cds4893",-199.1
"cds4894",-608
"cds4895",-144.8
"cds4896",-170.3
"cds4897",-39.7
"cds4898",-122.8
"cds4899",-350.6
"cds49",-148.3
"cds490",-99.7
"cds4900",-42.9
"cds4901",-192.3
"cds4902",-238.1
"cds4903",-285
"cds4904",-200
"cds4905",-125.9
"cds4906",-97.6
"cds4907",-64.4
"cds4908",-55.9
"cds4909",-182.6
"cds491",-221.2
"cds4910",-356
"cds4911",-69.8
"cds4912",-281.6
"cds4913",-56.1
"cds4914",-104
"cds4915",-155.3
"cds4916",-239.3
"cds4917",-83.6
"cds4918",-164.9
"cds4919",-344.6
"cds492",-334.1
"cds4920",-103.3
"cds4921",-324.9
"cds4922",-206.2
"cds4923",-289.4
"cds4924",-113
"cds4925",-472.7
"cds4926",-113.8
"cds4927",-200.7
"cds4928",-150.4
"cds4929",-151.8
"cds493",-554.7
"cds4930",-114.4
"cds4931",-182.6
"cds4932",-230.1
"cds4933",-147
"cds4934",-261.7
"cds4935",-304
"cds4936",-419.8
"cds4937",-320.1
"cds4938",-241.5
"cds4939",-250.7
"cds494",-292.6
"cds4940",-333.3
"cds4941",-97.3
"cds4942",-55.2
"cds4943",-577.8
"cds4944",-422.9
"cds4945",-194.9
"cds4946",-258.7
"cds4947",-518.9
"cds4948",-371
"cds4949",-157.1
"cds495",-281.7
"cds4950",-295.5
"cds4951",-28.1
"cds4952",-44.8
"cds4953",-400.3
"cds4954",-43
"cds4955",-138
"cds4956",-221.1
"cds4957",-195.2
"cds4958",-159.9
"cds4959",-194.2
"cds496",-203.2
"cds4960",-439.07
"cds4961",-49
"cds4962",-277.3
"cds4963",-348.5
"cds4964",-335.3
"cds4965",-175.8
"cds4966",-334
"cds4967",-195.3
"cds4968",-57
"cds4969",-450.9
"cds497",-315.7
"cds4970",-110.3
"cds4971",-224.1
"cds4972",-211.9
"cds4973",-370.7
"cds4974",-162.2
"cds4975",-295.4
"cds4976",-300.2
"cds4977",-214.3
"cds4978",-349.8
"cds4979",-84.3
"cds498",-25
"cds4980",-247.8
"cds4981",-236.2
"cds4982",-459.2
"cds4983",-367.6
"cds4984",-134.7
"cds4985",-494
"cds4986",-404.5
"cds4987",-351
"cds4988",-395.5
"cds4989",-326.5
"cds499",-428.9
"cds4990",-619
"cds4991",-368.4
"cds4992",-73.4
"cds4993",-26.2
"cds4994",-31.1
"cds4995",-271.2
"cds4996",-111.8
"cds4997",-31.8
"cds4998",-342.3
"cds4999",-214.1
"cds5",-522.1
"cds50",-58.1
"cds500",-28.6
"cds5000",-180.2
"cds5001",-323.6
"cds5002",-515.6
"cds5003",-179.5
"cds5004",-350.9
"cds5005",-362.7
"cds5006",-412.2
"cds5007",-101.2
"cds5008",-542.1
"cds5009",-241.8
"cds501",-190.7
"cds5010",-344.4
"cds5011",-52.4
"cds5012",-50.4
"cds5013",-141
"cds5014",-62.1
"cds5015",-301.8
"cds5016",-38.4
"cds5017",-197.2
"cds5018",-144.5
"cds5019",-194.5
"cds502",-214.6
"cds5020",-202.2
"cds5021",-208.5
"cds5022",-225.8
"cds5023",-174.1
"cds5024",-506.3
"cds5025",-371.3
"cds5026",-343.2
"cds5027",-52.4
"cds5028",-142.9
"cds5029",-186.6
"cds503",-355.5
"cds5030",-77.2
"cds5031",-30.8
"cds504",-263.8
"cds505",-90.9
"cds506",-293.4
"cds507",-287.2
"cds508",-236.5
"cds509",-378
"cds51",-962.6
"cds510",-65.8
"cds511",-204.1
"cds512",-55.2
"cds513",-118.9
"cds514",-86.7
"cds515",-59.8
"cds516",-133.9
"cds517",-87.8
"cds518",-121.4
"cds519",-127.6
"cds52",-132
"cds520",-247.2
"cds521",-294.8
"cds522",-146.6
"cds523",-280
"cds524",-27.1
"cds525",-405.6
"cds526",-246.3
"cds527",-85.1
"cds528",-77.3
"cds529",-404.9
"cds53",-449.7
"cds530",-104.2
"cds531",-134
"cds532",-132.4
"cds533",-63.6
"cds534",-153.8
"cds535",-19.1
"cds536",-276.3
"cds537",-49.5
"cds538",-159.2
"cds539",-77.8
"cds54",-377
"cds540",-52.4
"cds541",-344.4
"cds542",-111
"cds543",-27
"cds544",-294.9
"cds545",-159.2
"cds546",-41.5
"cds547",-168.8
"cds548",-103.3
"cds549",-58.3
"cds55",-55.5
"cds550",-77.3
"cds551",-190.9
"cds552",-301.4
"cds553",-67
"cds554",-27.4
"cds555",-56.7
"cds556",-68.8
"cds557",-286.6
"cds558",-113.3
"cds559",-460.1
"cds56",-63.8
"cds560",-187.2
"cds561",-29.2
"cds562",-56.9
"cds563",-265.6
"cds564",-25.4
"cds565",-246.3
"cds566",-64.7
"cds567",-174
"cds568",-295
"cds569",-208.2
"cds57",-176.7
"cds570",-52.4
"cds571",-71
"cds572",-312.3
"cds573",-177.2
"cds574",-200.2
"cds575",-485.1
"cds576",-303
"cds577",-89.6
"cds578",-193.1
"cds579",-292.1
"cds58",-85.1
"cds580",-59.4
"cds581",-230.9
"cds582",-52.4
"cds583",-343.2
"cds584",-128.3
"cds585",-69.6
"cds586",-103.7
"cds587",-136
"cds588",-87.8
"cds589",-50.7
"cds59",-113.5
"cds590",-52.4
"cds591",-342.1
"cds592",-102.9
"cds593",-73.8
"cds594",-257.2
"cds595",-381.1
"cds596",-361.3
"cds597",-407.8
"cds598",-43
"cds599",-156.4
"cds6",-704.1
"cds60",-672.8
"cds600",-298.4
"cds601",-91.6
"cds602",-294.8
"cds603",-152.4
"cds604",-162.3
"cds605",-150.3
"cds606",-326.4
"cds607",-324.8
"cds608",-75.4
"cds609",-256.3
"cds61",-195.8
"cds610",-66.6
"cds611",-69.6
"cds612",-472.9
"cds613",-109.9
"cds614",-163.6
"cds615",-152.7
"cds616",-194.6
"cds617",-167.9
"cds618",-126
"cds619",-633.7
"cds62",-272.4
"cds620",-325.3
"cds621",-278.2
"cds622",-311.9
"cds623",-441.1
"cds624",-394.8
"cds625",-79.9
"cds626",-42.1
"cds627",-418.6
"cds628",-47.9
"cds629",-373.4
"cds63",-353.1
"cds630",-423.6
"cds631",-419.6
"cds632",-361.2
"cds633",-36.5
"cds634",-31.2
"cds635",-122
"cds636",-98.8
"cds637",-46.9
"cds638",-182.1
"cds639",-199
"cds64",-124.5
"cds640",-153.8
"cds641",-346.5
"cds642",-42
"cds643",-31.7
"cds644",-128.6
"cds645",-1726.9
"cds646",-53.1
"cds647",-1154.8
"cds648",-1818.8
"cds649",-688.1
"cds65",-580
"cds650",-152.9
"cds651",-213.7
"cds652",-426.9
"cds653",-58.9
"cds654",-303
"cds655",-66.4
"cds656",-202.6
"cds657",-453
"cds658",-66.8
"cds659",-315.6
"cds66",-191.1
"cds660",-184.2
"cds661",-340.2
"cds662",-197.1
"cds663",-159.9
"cds664",-179.3
"cds665",-100.8
"cds666",-91.1
"cds667",-81
"cds668",-223.5
"cds669",-355.3
"cds67",-244.3
"cds670",-44.5
"cds671",-67.3
"cds672",-128.6
"cds673",-135.4
"cds674",-249.5
"cds675",-72.3
"cds676",-152.1
"cds677",-170.8
"cds678",-350.1
"cds679",-1247.7
"cds68",-206.2
"cds680",-236.8
"cds681",-25
"cds682",-170.1
"cds683",-327.9
"cds684",-43.4
"cds685",-221.74
"cds686",-202.6
"cds687",-172.1
"cds688",-215.3
"cds689",-76.6
"cds69",-254.7
"cds690",-204.5
"cds691",-104.7
"cds692",-71.2
"cds693",-230.5
"cds694",-334.4
"cds695",-371.8
"cds696",-452.7
"cds697",-43.9
"cds698",-15.6
"cds699",-246.6
"cds7",-27.2
"cds70",-232
"cds700",-172.7
"cds701",-78.4
"cds702",-19.6
"cds703",-44.3
"cds704",-233.8
"cds705",-298
"cds706",-39.6
"cds707",-212.3
"cds708",-50.6
"cds709",-44.9
"cds71",-83.3
"cds710",-117.9
"cds711",-485.6
"cds712",-241.1
"cds713",-81.8
"cds714",-162.7
"cds715",-447.6
"cds716",-139.6
"cds717",-104.9
"cds718",-254.6
"cds719",-1341.9
"cds72",-134.3
"cds720",-368
"cds721",-67.7
"cds722",-248.9
"cds723",-205.5
"cds724",-226.4
"cds725",-121.8
"cds726",-614
"cds727",-108.9
"cds728",-103.4
"cds729",-278
"cds73",-61.2
"cds730",-232.7
"cds731",-110.9
"cds732",-71.3
"cds733",-220.7
"cds734",-47.7
"cds735",-42.7
"cds736",-159.4
"cds737",-30.3
"cds738",-119.6
"cds739",-64.4
"cds74",-265.8
"cds740",-167.7
"cds741",-155.9
"cds742",-138.3
"cds743",-46.5
"cds744",-266.5
"cds745",-220.3
"cds746",-72.4
"cds747",-110.8
"cds748",-185.1
"cds749",-158
"cds75",-365.1
"cds750",-186.6
"cds751",-490
"cds752",-121.8
"cds753",-154.7
"cds754",-80.1
"cds755",-197.4
"cds756",-134.2
"cds757",-231.4
"cds758",-227.5
"cds759",-178.2
"cds76",-98.4
"cds760",-37.7
"cds761",-134.8
"cds762",-132.5
"cds763",-100.7
"cds764",-198.1
"cds765",-282.6
"cds766",-27.6
"cds767",-399.3
"cds768",-94.1
"cds769",-89.5
"cds77",-136.6
"cds770",-102
"cds771",-185.1
"cds772",-137.7
"cds773",-539.5
"cds774",-449.8
"cds775",-302.6
"cds776",-48.8
"cds777",-315.6
"cds778",-312.5
"cds779",-171.1
"cds78",-279.3
"cds780",-103.1
"cds781",-118.5
"cds782",-185.4
"cds783",-175.8
"cds784",-395.8
"cds785",-31.9
"cds786",-314.2
"cds787",-267.4
"cds788",-384.5
"cds789",-222.1
"cds79",-693
"cds790",-238.2
"cds791",-141.3
"cds792",-409.9
"cds793",-284.5
"cds794",-106.5
"cds795",-58.6
"cds796",-321.2
"cds797",-417.2
"cds798",-322.2
"cds799",-397.8
"cds8",-199.5
"cds80",-418.5
"cds800",-410.3
"cds801",-80
"cds802",-272.2
"cds803",-314.7
"cds804",-311.1
"cds805",-287.9
"cds806",-529.1
"cds807",-100.6
"cds808",-160.6
"cds809",-339.1
"cds81",-287.1
"cds810",-151.9
"cds811",-225.4
"cds812",-126.2
"cds813",-208.2
"cds814",-149.1
"cds815",-190.6
"cds816",-250.9
"cds817",-266.3
"cds818",-431.5
"cds819",-537.5
"cds82",-287.09
"cds820",-44.5
"cds821",-17.2
"cds822",-293.3
"cds823",-48.7
"cds824",-325.6
"cds825",-168.8
"cds826",-45.2
"cds827",-366.3
"cds828",-210.3
"cds829",-413.8
"cds83",-181.1
"cds830",-245.3
"cds831",-108.4
"cds832",-480.8
"cds833",-334.1
"cds834",-226
"cds835",-215.7
"cds836",-129.3
"cds837",-49.8
"cds838",-43.6
"cds839",-97.9
"cds84",-131.7
"cds840",-159.1
"cds841",-117.3
"cds842",-304.3
"cds843",-364.5
"cds844",-471.2
"cds845",-50.6
"cds846",-263.17
"cds847",-182.1
"cds848",-208.8
"cds849",-174.1
"cds85",-389.4
"cds850",-486.9
"cds851",-226.7
"cds852",-373.1
"cds853",-293.9
"cds854",-206.2
"cds855",-267.6
"cds856",-276.5
"cds857",-130
"cds858",-277.1
"cds859",-189.1
"cds86",-62.6
"cds860",-60.7
"cds861",-258.6
"cds862",-95.7
"cds863",-105.1
"cds864",-71
"cds865",-420.2
"cds866",-502.4
"cds867",-135.8
"cds868",-54.2
"cds869",-262.3
"cds87",-173.1
"cds870",-63.3
"cds871",-206.9
"cds872",-219.5
"cds873",-347.1
"cds874",-191
"cds875",-290
"cds876",-289.2
"cds877",-358.5
"cds878",-69.7
"cds879",-358.3
"cds88",-385.3
"cds880",-105
"cds881",-346.4
"cds882",-145.6
"cds883",-301.6
"cds884",-128.4
"cds885",-171.8
"cds886",-326.7
"cds887",-106.8
"cds888",-178.8
"cds889",-190
"cds89",-121.3
"cds890",-122.3
"cds891",-153.7
"cds892",-166.8
"cds893",-115.7
"cds894",-212.1
"cds895",-25.1
"cds896",-310.3
"cds897",-318.3
"cds898",-373.4
"cds899",-194.9
"cds9",-391.3
"cds90",-202.9
"cds900",-36.5
"cds901",-360.4
"cds902",-64.1
"cds903",-360.5
"cds904",-394.1
"cds905",-392.7
"cds906",-106.2
"cds907",-440.9
"cds908",-65.9
"cds909",-361.3
"cds91",-104.9
"cds910",-58.9
"cds911",-49.4
"cds912",-247.5
"cds913",-71.2
"cds914",-225.2
"cds915",-119.9
"cds916",-72.3
"cds917",-226.1
"cds918",-209.9
"cds919",-412.7
"cds92",-153.5
"cds920",-223.9
"cds921",-366.3
"cds922",-219.1
"cds923",-215
"cds924",-128.1
"cds925",-260.9
"cds926",-164.7
"cds927",-59.4
"cds928",-175
"cds929",-251.5
"cds93",-25.4
"cds930",-178.4
"cds931",-378.4
"cds932",-74.1
"cds933",-37.3
"cds934",-68.2
"cds935",-51.7
"cds936",-70.3
"cds937",-198
"cds938",-125.1
"cds939",-112.2
"cds94",-39
"cds940",-38.2
"cds941",-95.8
"cds942",-258.4
"cds943",-597.6
"cds944",-253.5
"cds945",-438.5
"cds946",-72.3
"cds947",-28
"cds948",-347.3
"cds949",-377.8
"cds95",-127.3
"cds950",-161.5
"cds951",-273.8
"cds952",-313.3
"cds953",-109
"cds954",-153.9
"cds955",-386.3
"cds956",-77.3
"cds957",-22.1
"cds958",-244.9
"cds959",-341.4
"cds96",-120.5
"cds960",-160
"cds961",-180.2
"cds962",-173.8
"cds963",-355.9
"cds964",-252.3
"cds965",-230
"cds966",-144.5
"cds967",-142.8
"cds968",-531.5
"cds969",-48.6
"cds97",-187.4
"cds970",-326.4
"cds971",-69.5
"cds972",-303.5
"cds973",-285.3
"cds974",-337.5
"cds975",-442.6
"cds976",-35
"cds977",-377.8
"cds978",-263.3
"cds979",-112.8
"cds98",-125.7
"cds980",-87.4
"cds981",-99.1
"cds982",-46.2
"cds983",-66.4
"cds984",-255.3
"cds985",-456.6
"cds986",-67.3
"cds987",-205
"cds988",-48.5
"cds989",-222.7
"cds99",-86.1
"cds990",-61.3
"cds991",-402.8
"cds992",-129.3
"cds993",-594.8
"cds994",-66.4
"cds995",-258.4
"cds996",-534.1
"cds997",-562.7
"cds998",-50
"cds999",-342.1
"gene1",-264.2
"gene1080",-61.3
"gene1081",-402.8
"gene1114",-37.5
"gene116",-173.1
"gene1165",-191.6
"gene1184",-205.9
"gene1254",-311.4
"gene1279",-143.5
"gene1296",-31.9
"gene1352",-318.9
"gene1367",-316.8
"gene1368",-143.4
"gene1371",-135.6
"gene1402",-45.9
"gene147",-49.5
"gene153",-141.6
"gene1597",-52.5
"gene160",-58.8
"gene1600",-75.9
"gene1641",-52.4
"gene1642",-341.8
"gene1677",-20.8
"gene1684",-33.5
"gene1701",-312.3
"gene1705",-191.5
"gene1706",-452.2
"gene1722",-330.14
"gene1729",-327.1
"gene1739",-153.7
"gene1747",-337
"gene1753",-354.4
"gene1763",-246.3
"gene1772",-346.4
"gene1798",-40.6
"gene1805",-78.6
"gene1811",-91.8
"gene1835",-12.82
"gene1837",-312.3
"gene1842",-229.4
"gene1853",-320.2
"gene1854",-52.7
"gene1855",-342.8
"gene1858",-164.8
"gene1870",-49.3
"gene1874",-274.8
"gene19",-121.8
"gene1907",-123.3
"gene1926",-48.3
"gene1962",-42.7
"gene20",-110.9
"gene2001",-125.1
"gene2012",-39.2
"gene2016",-323.6
"gene2028",-178.9
"gene2056",-80.7
"gene2070",-56.1
"gene2080",-348.5
"gene2089",-179.6
"gene21",-128.3
"gene2103",-45.1
"gene2111",-199.9
"gene2119",-123.7
"gene2147",-122.4
"gene2197",-501.7
"gene2215",-126.7
"gene2217",-37.6
"gene2218",-247.3
"gene2219",-46.9
"gene2249",-87
"gene2250",-30.9
"gene2252",-337.5
"gene2254",-281.8
"gene2255",-317.8
"gene2271",-142.4
"gene2296",-223.4
"gene2298",-47.7
"gene2299",-126.9
"gene23",-452.2
"gene2303",-348.2
"gene2321",-52.4
"gene2325",-312.3
"gene2332",-52.4
"gene2351",-277.9
"gene2352",-31.5
"gene2357",-115.7
"gene2358",-330
"gene236",-87.5
"gene24",-65.8
"gene2402",-106.1
"gene2419",-344.9
"gene2420",-191.4
"gene2428",-57.8
"gene2451",-54.6
"gene2452",-28.5
"gene2459",-16.7
"gene2488",-51.7
"gene2498",-64.7
"gene250",-326.8
"gene2521",-131.8
"gene2524",-48.3
"gene2540",-97.8
"gene2546",-242.5
"gene2547",-228.3
"gene2554",-327.6
"gene2560",-158.6
"gene2566",-340.7
"gene2567",-52.4
"gene2568",-173.6
"gene2581",-12.8
"gene2582",-36.2
"gene2588",-128.6
"gene2590",-77.8
"gene2598",-113.3
"gene2606",-622.2
"gene2609",-209.1
"gene2616",-75.1
"gene2617",-253.4
"gene2618",-341.9
"gene2624",-124.7
"gene2638",-46.8
"gene2671",-101.8
"gene2685",-326.5
"gene2689",-45.3
"gene2698",-452.7
"gene2725",-330.7
"gene2757",-236
"gene2765",-125.2
"gene2771",-55.4
"gene2808",-67.1
"gene2820",-168.1
"gene2821",-348.2
"gene2822",-44.8
"gene2827",-115.9
"gene2830",-268
"gene2831",-341.2
"gene2832",-31.6
"gene2834",-112.3
"gene2838",-348.2
"gene2839",-266.2
"gene2840",-48.4
"gene2856",-273.4
"gene2864",-121.4
"gene2921",-92.5
"gene2926",-277.2
"gene2947",-86.5
"gene2955",-332.7
"gene2973",-35
"gene2978",-121.2
"gene2989",-101.4
"gene2990",-108.7
"gene3001",-70.4
"gene3015",-85.2
"gene3026",-122
"gene3039",-378.7
"gene3049",-146
"gene3057",-324.1
"gene3066",-310.7
"gene3078",-105.6
"gene3115",-237.5
"gene3210",-38.8
"gene3297",-552.1
"gene3299",-331.1
"gene333",-47.4
"gene345",-62.3
"gene346",-44.3
"gene3488",-155.6
"gene3520",-31.6
"gene3529",-335.2
"gene353",-115.7
"gene3530",-52.5
"gene355",-26.3
"gene3554",-332.7
"gene3564",-256
"gene3575",-348.2
"gene3652",-68.5
"gene3654",-57.7
"gene3660",-26.6
"gene37",-98.1
"gene374",-276.3
"gene3827",-52.4
"gene3878",-26.5
"gene3888",-221.8
"gene3907",-110.6
"gene3935",-348.2
"gene3947",-63
"gene397",-59.4
"gene3991",-417.6
"gene4008",-354.3
"gene4012",-348.2
"gene4028",-166.3
"gene4052",-74.1
"gene4071",-73.8
"gene4075",-52.4
"gene4084",-45.1
"gene4113",-623.6
"gene4120",-52.7
"gene4129",-41
"gene4134",-82.4
"gene4147",-8.8
"gene4182",-69.1
"gene4217",-199.6
"gene4222",-73.9
"gene4229",-119.1
"gene4265",-124.6
"gene4279",-243.5
"gene4301",-11.9
"gene4314",-52.4
"gene4321",-246.6
"gene4346",-40.4
"gene4361",-52.4
"gene4377",-43.7
"gene4397",-149.8
"gene4406",-29.8
"gene444",-11.2
"gene4465",-137.6
"gene4478",-111.9
"gene4487",-120.3
"gene4543",-343.6
"gene4608",-107.5
"gene4638",-52.4
"gene4657",-52.4
"gene4703",-145.8
"gene4710",-20
"gene4731",-59.3
"gene4881",-81
"gene491",-304.5
"gene4923",-82
"gene4986",-337.2
"gene5086",-49
"gene5091",-334
"gene5092",-195.3
"gene5104",-84.3
"gene5106",-236.2
"gene5140",-52.4
"gene5156",-52.4
"gene539",-178.7
"gene554",-36.4
"gene584",-118.9
"gene591",-247.2
"gene597",-246.3
"gene598",-85.1
"gene607",-276.3
"gene610",-77.8
"gene611",-52.4
"gene628",-286.6
"gene631",-187.2
"gene632",-29.2
"gene635",-25.4
"gene636",-246.3
"gene637",-64.7
"gene64",-132
"gene641",-52.4
"gene643",-312.3
"gene653",-52.4
"gene661",-52.4
"gene665",-257.2
"gene736",-100.8
"gene80",-191.1
"gene825",-159.4
"gene832",-46.5
"gene846",-231.4
"gene847",-227.5
"gene857",-94.1
"gene90",-591.2
"gene904",-149.1
"gene913",-48.7
"gene93",-29.5
"gene954",-71
"gene971",-346.4
"gene983",-115.7
"id101",-44.7
"id102",-20.6
"id103",-24.6
"id104",-31.6
"id106",-27.6
"id107",-33
"id108",-19.4
"id109",-37.9
"id110",-53.3
"id111",-42.6
"id112",-42.3
"id114",-19
"id115",-28.5
"id117",-31.6
"id118",-37.9
"id119",-27.3
"id120",-49.6
"id121",-52
"id122",-20.6
"id124",-50.5
"id125",-18.6
"id126",-17.2
"id130",-27.5
"id131",-23.4
"id132",-5.2
"id133",-24.8
"id134",-31.1
"id135",-37.8
"id136",-44.7
"id162",-29.1
"id163",-35
"id164",-33.5
"id167",-15.5
"id168",-47.9
"id63",-51.8
"id64",-15.5
"id65",-21.6
"id75",-19.9
"id76",-6.8
"id77",-34.1
"id78",-42
"id79",-15.7
"id80",-66.1
"id99",-34.9
"rna1",-30.1
"rna100",-30.1
"rna101",-24.6
"rna102",-21.5
"rna103",-27.6
"rna104",-29.1
"rna105",-29.3
"rna106",-34
"rna107",-28.1
"rna108",-28.5
"rna109",-33.8
"rna110",-28.3
"rna111",-26.5
"rna112",-38.1
"rna113",-25.8
"rna114",-36.2
"rna115",-27.1
"rna116",-25.2
"rna117",-29.5
"rna12",-29.3
"rna121",-30.5
"rna122",-117.2
"rna123",-26
"rna124",-25.8
"rna125",-27.6
"rna126",-29.1
"rna127",-27.9
"rna128",-27.1
"rna13",-28.8
"rna17",-29.5
"rna18",-25.2
"rna19",-27.1
"rna2",-33.8
"rna20",-36.2
"rna21",-25.8
"rna22",-38.1
"rna23",-26.5
"rna24",-28.3
"rna25",-33.8
"rna32",-28.7
"rna33",-27.1
"rna34",-29.3
"rna35",-29.5
"rna36",-25.2
"rna37",-38.8
"rna38",-26.5
"rna39",-25.8
"rna40",-33.8
"rna47",-28.7
"rna48",-35.7
"rna49",-27.9
"rna5",-34
"rna50",-29.1
"rna51",-26.5
"rna52",-27.1
"rna53",-36.2
"rna54",-39
"rna55",-26.5
"rna56",-28.3
"rna57",-23.2
"rna6",-107.7
"rna61",-29.3
"rna74",-28.7
"rna75",-38.1
"rna76",-29.3
"rna77",-29.5
"rna78",-29.3
"rna79",-29.1
"rna8",-30.1
"rna80",-27.6
"rna81",-25.2
"rna82",-38.1
"rna83",-21.3
"rna84",-21.5
"rna85",-26.5
"rna86",-23.4
"rna87",-30.1
"rna88",-31
"rna89",-24.6
"rna9",-33.8
"rna90",-25
"rna91",-45.5
"rna92",-41.9
"rna93",-132
"rna94",-60.3
"rna95",-25.2
"rna96",-25.2
"rna97",-29.3
"rna98",-35.7
"rna99",-28.7
