<?xml version='1.0' encoding='UTF-8' ?>
<svg xmlns='http://www.w3.org/2000/svg' xmlns:xlink='http://www.w3.org/1999/xlink' viewBox='0 0 170.08 113.39'>
<defs>
  <style type='text/css'><![CDATA[
    line, polyline, path, rect, circle {
      fill: none;
      stroke: #000000;
      stroke-linecap: round;
      stroke-linejoin: round;
      stroke-miterlimit: 10.00;
    }
  ]]></style>
</defs>
<rect width='100%' height='100%' style='stroke: none; fill: #FFFFFF;'/>
<rect x='0.00' y='0.00' width='170.08' height='113.39' style='stroke-width: 1.07; stroke: #FFFFFF; fill: #FFFFFF;' />
<defs>
  <clipPath id='cpMjkuOTg5NnwxNjQuNTk5fDg2LjU3ODl8MjAuMDUyNw=='>
    <rect x='29.99' y='20.05' width='134.61' height='66.53' />
  </clipPath>
</defs>
<line x1='28.40' y1='25.87' x2='28.40' y2='25.87' style='stroke-width: 2.13; stroke: #F8766D; stroke-opacity: 0.60; stroke-linecap: butt;' clip-path='url(#cpMjkuOTg5NnwxNjQuNTk5fDg2LjU3ODl8MjAuMDUyNw==)' />
<line x1='33.70' y1='29.55' x2='33.70' y2='29.55' style='stroke-width: 2.13; stroke: #F8766D; stroke-opacity: 0.60; stroke-linecap: butt;' clip-path='url(#cpMjkuOTg5NnwxNjQuNTk5fDg2LjU3ODl8MjAuMDUyNw==)' />
<line x1='39.00' y1='32.86' x2='39.00' y2='32.86' style='stroke-width: 2.13; stroke: #F8766D; stroke-opacity: 0.60; stroke-linecap: butt;' clip-path='url(#cpMjkuOTg5NnwxNjQuNTk5fDg2LjU3ODl8MjAuMDUyNw==)' />
<line x1='44.30' y1='36.25' x2='44.30' y2='36.25' style='stroke-width: 2.13; stroke: #F8766D; stroke-opacity: 0.60; stroke-linecap: butt;' clip-path='url(#cpMjkuOTg5NnwxNjQuNTk5fDg2LjU3ODl8MjAuMDUyNw==)' />
<line x1='49.60' y1='39.67' x2='49.60' y2='39.67' style='stroke-width: 2.13; stroke: #F8766D; stroke-opacity: 0.60; stroke-linecap: butt;' clip-path='url(#cpMjkuOTg5NnwxNjQuNTk5fDg2LjU3ODl8MjAuMDUyNw==)' />
<line x1='54.90' y1='41.62' x2='54.90' y2='41.62' style='stroke-width: 2.13; stroke: #F8766D; stroke-opacity: 0.60; stroke-linecap: butt;' clip-path='url(#cpMjkuOTg5NnwxNjQuNTk5fDg2LjU3ODl8MjAuMDUyNw==)' />
<line x1='60.20' y1='44.17' x2='60.20' y2='44.17' style='stroke-width: 2.13; stroke: #F8766D; stroke-opacity: 0.60; stroke-linecap: butt;' clip-path='url(#cpMjkuOTg5NnwxNjQuNTk5fDg2LjU3ODl8MjAuMDUyNw==)' />
<line x1='65.50' y1='45.77' x2='65.50' y2='45.77' style='stroke-width: 2.13; stroke: #F8766D; stroke-opacity: 0.60; stroke-linecap: butt;' clip-path='url(#cpMjkuOTg5NnwxNjQuNTk5fDg2LjU3ODl8MjAuMDUyNw==)' />
<line x1='70.80' y1='49.04' x2='70.80' y2='49.04' style='stroke-width: 2.13; stroke: #F8766D; stroke-opacity: 0.60; stroke-linecap: butt;' clip-path='url(#cpMjkuOTg5NnwxNjQuNTk5fDg2LjU3ODl8MjAuMDUyNw==)' />
<line x1='76.10' y1='57.98' x2='76.10' y2='57.98' style='stroke-width: 2.13; stroke: #F8766D; stroke-opacity: 0.60; stroke-linecap: butt;' clip-path='url(#cpMjkuOTg5NnwxNjQuNTk5fDg2LjU3ODl8MjAuMDUyNw==)' />
<line x1='81.40' y1='86.58' x2='81.40' y2='86.58' style='stroke-width: 2.13; stroke: #F8766D; stroke-opacity: 0.60; stroke-linecap: butt;' clip-path='url(#cpMjkuOTg5NnwxNjQuNTk5fDg2LjU3ODl8MjAuMDUyNw==)' />
<line x1='86.70' y1='86.58' x2='86.70' y2='86.58' style='stroke-width: 2.13; stroke: #F8766D; stroke-opacity: 0.60; stroke-linecap: butt;' clip-path='url(#cpMjkuOTg5NnwxNjQuNTk5fDg2LjU3ODl8MjAuMDUyNw==)' />
<line x1='91.99' y1='86.58' x2='91.99' y2='86.58' style='stroke-width: 2.13; stroke: #F8766D; stroke-opacity: 0.60; stroke-linecap: butt;' clip-path='url(#cpMjkuOTg5NnwxNjQuNTk5fDg2LjU3ODl8MjAuMDUyNw==)' />
<line x1='97.29' y1='86.58' x2='97.29' y2='86.58' style='stroke-width: 2.13; stroke: #F8766D; stroke-opacity: 0.60; stroke-linecap: butt;' clip-path='url(#cpMjkuOTg5NnwxNjQuNTk5fDg2LjU3ODl8MjAuMDUyNw==)' />
<line x1='102.59' y1='86.58' x2='102.59' y2='86.58' style='stroke-width: 2.13; stroke: #F8766D; stroke-opacity: 0.60; stroke-linecap: butt;' clip-path='url(#cpMjkuOTg5NnwxNjQuNTk5fDg2LjU3ODl8MjAuMDUyNw==)' />
<line x1='107.89' y1='86.58' x2='107.89' y2='86.58' style='stroke-width: 2.13; stroke: #F8766D; stroke-opacity: 0.60; stroke-linecap: butt;' clip-path='url(#cpMjkuOTg5NnwxNjQuNTk5fDg2LjU3ODl8MjAuMDUyNw==)' />
<line x1='113.19' y1='86.58' x2='113.19' y2='86.58' style='stroke-width: 2.13; stroke: #F8766D; stroke-opacity: 0.60; stroke-linecap: butt;' clip-path='url(#cpMjkuOTg5NnwxNjQuNTk5fDg2LjU3ODl8MjAuMDUyNw==)' />
<line x1='118.49' y1='86.58' x2='118.49' y2='86.58' style='stroke-width: 2.13; stroke: #F8766D; stroke-opacity: 0.60; stroke-linecap: butt;' clip-path='url(#cpMjkuOTg5NnwxNjQuNTk5fDg2LjU3ODl8MjAuMDUyNw==)' />
<line x1='123.79' y1='86.58' x2='123.79' y2='86.58' style='stroke-width: 2.13; stroke: #F8766D; stroke-opacity: 0.60; stroke-linecap: butt;' clip-path='url(#cpMjkuOTg5NnwxNjQuNTk5fDg2LjU3ODl8MjAuMDUyNw==)' />
<line x1='129.09' y1='86.58' x2='129.09' y2='86.58' style='stroke-width: 2.13; stroke: #F8766D; stroke-opacity: 0.60; stroke-linecap: butt;' clip-path='url(#cpMjkuOTg5NnwxNjQuNTk5fDg2LjU3ODl8MjAuMDUyNw==)' />
<line x1='134.39' y1='86.58' x2='134.39' y2='86.58' style='stroke-width: 2.13; stroke: #F8766D; stroke-opacity: 0.60; stroke-linecap: butt;' clip-path='url(#cpMjkuOTg5NnwxNjQuNTk5fDg2LjU3ODl8MjAuMDUyNw==)' />
<line x1='139.69' y1='86.58' x2='139.69' y2='86.58' style='stroke-width: 2.13; stroke: #F8766D; stroke-opacity: 0.60; stroke-linecap: butt;' clip-path='url(#cpMjkuOTg5NnwxNjQuNTk5fDg2LjU3ODl8MjAuMDUyNw==)' />
<line x1='144.99' y1='86.58' x2='144.99' y2='86.58' style='stroke-width: 2.13; stroke: #F8766D; stroke-opacity: 0.60; stroke-linecap: butt;' clip-path='url(#cpMjkuOTg5NnwxNjQuNTk5fDg2LjU3ODl8MjAuMDUyNw==)' />
<line x1='150.29' y1='86.58' x2='150.29' y2='86.58' style='stroke-width: 2.13; stroke: #F8766D; stroke-opacity: 0.60; stroke-linecap: butt;' clip-path='url(#cpMjkuOTg5NnwxNjQuNTk5fDg2LjU3ODl8MjAuMDUyNw==)' />
<line x1='155.59' y1='86.58' x2='155.59' y2='86.58' style='stroke-width: 2.13; stroke: #F8766D; stroke-opacity: 0.60; stroke-linecap: butt;' clip-path='url(#cpMjkuOTg5NnwxNjQuNTk5fDg2LjU3ODl8MjAuMDUyNw==)' />
<line x1='160.89' y1='86.58' x2='160.89' y2='86.58' style='stroke-width: 2.13; stroke: #F8766D; stroke-opacity: 0.60; stroke-linecap: butt;' clip-path='url(#cpMjkuOTg5NnwxNjQuNTk5fDg2LjU3ODl8MjAuMDUyNw==)' />
<line x1='166.19' y1='86.58' x2='166.19' y2='86.58' style='stroke-width: 2.13; stroke: #F8766D; stroke-opacity: 0.60; stroke-linecap: butt;' clip-path='url(#cpMjkuOTg5NnwxNjQuNTk5fDg2LjU3ODl8MjAuMDUyNw==)' />
<line x1='28.40' y1='26.03' x2='28.40' y2='25.49' style='stroke-width: 2.13; stroke: #BEBEBE; stroke-opacity: 0.60; stroke-linecap: butt;' clip-path='url(#cpMjkuOTg5NnwxNjQuNTk5fDg2LjU3ODl8MjAuMDUyNw==)' />
<line x1='33.70' y1='29.78' x2='33.70' y2='29.06' style='stroke-width: 2.13; stroke: #BEBEBE; stroke-opacity: 0.60; stroke-linecap: butt;' clip-path='url(#cpMjkuOTg5NnwxNjQuNTk5fDg2LjU3ODl8MjAuMDUyNw==)' />
<line x1='39.00' y1='33.83' x2='39.00' y2='32.52' style='stroke-width: 2.13; stroke: #BEBEBE; stroke-opacity: 0.60; stroke-linecap: butt;' clip-path='url(#cpMjkuOTg5NnwxNjQuNTk5fDg2LjU3ODl8MjAuMDUyNw==)' />
<line x1='44.30' y1='37.89' x2='44.30' y2='36.15' style='stroke-width: 2.13; stroke: #BEBEBE; stroke-opacity: 0.60; stroke-linecap: butt;' clip-path='url(#cpMjkuOTg5NnwxNjQuNTk5fDg2LjU3ODl8MjAuMDUyNw==)' />
<line x1='49.60' y1='42.18' x2='49.60' y2='39.73' style='stroke-width: 2.13; stroke: #BEBEBE; stroke-opacity: 0.60; stroke-linecap: butt;' clip-path='url(#cpMjkuOTg5NnwxNjQuNTk5fDg2LjU3ODl8MjAuMDUyNw==)' />
<line x1='54.90' y1='46.41' x2='54.90' y2='42.87' style='stroke-width: 2.13; stroke: #BEBEBE; stroke-opacity: 0.60; stroke-linecap: butt;' clip-path='url(#cpMjkuOTg5NnwxNjQuNTk5fDg2LjU3ODl8MjAuMDUyNw==)' />
<line x1='60.20' y1='51.74' x2='60.20' y2='46.43' style='stroke-width: 2.13; stroke: #BEBEBE; stroke-opacity: 0.60; stroke-linecap: butt;' clip-path='url(#cpMjkuOTg5NnwxNjQuNTk5fDg2LjU3ODl8MjAuMDUyNw==)' />
<line x1='65.50' y1='57.91' x2='65.50' y2='49.84' style='stroke-width: 2.13; stroke: #BEBEBE; stroke-opacity: 0.60; stroke-linecap: butt;' clip-path='url(#cpMjkuOTg5NnwxNjQuNTk5fDg2LjU3ODl8MjAuMDUyNw==)' />
<line x1='70.80' y1='67.95' x2='70.80' y2='52.85' style='stroke-width: 2.13; stroke: #BEBEBE; stroke-opacity: 0.60; stroke-linecap: butt;' clip-path='url(#cpMjkuOTg5NnwxNjQuNTk5fDg2LjU3ODl8MjAuMDUyNw==)' />
<line x1='107.89' y1='86.58' x2='107.89' y2='86.58' style='stroke-width: 2.13; stroke: #BEBEBE; stroke-opacity: 0.60; stroke-linecap: butt;' clip-path='url(#cpMjkuOTg5NnwxNjQuNTk5fDg2LjU3ODl8MjAuMDUyNw==)' />
<line x1='113.19' y1='86.58' x2='113.19' y2='86.58' style='stroke-width: 2.13; stroke: #BEBEBE; stroke-opacity: 0.60; stroke-linecap: butt;' clip-path='url(#cpMjkuOTg5NnwxNjQuNTk5fDg2LjU3ODl8MjAuMDUyNw==)' />
<line x1='118.49' y1='86.58' x2='118.49' y2='86.58' style='stroke-width: 2.13; stroke: #BEBEBE; stroke-opacity: 0.60; stroke-linecap: butt;' clip-path='url(#cpMjkuOTg5NnwxNjQuNTk5fDg2LjU3ODl8MjAuMDUyNw==)' />
<line x1='123.79' y1='86.58' x2='123.79' y2='86.58' style='stroke-width: 2.13; stroke: #BEBEBE; stroke-opacity: 0.60; stroke-linecap: butt;' clip-path='url(#cpMjkuOTg5NnwxNjQuNTk5fDg2LjU3ODl8MjAuMDUyNw==)' />
<line x1='129.09' y1='86.58' x2='129.09' y2='86.58' style='stroke-width: 2.13; stroke: #BEBEBE; stroke-opacity: 0.60; stroke-linecap: butt;' clip-path='url(#cpMjkuOTg5NnwxNjQuNTk5fDg2LjU3ODl8MjAuMDUyNw==)' />
<line x1='134.39' y1='86.58' x2='134.39' y2='86.58' style='stroke-width: 2.13; stroke: #BEBEBE; stroke-opacity: 0.60; stroke-linecap: butt;' clip-path='url(#cpMjkuOTg5NnwxNjQuNTk5fDg2LjU3ODl8MjAuMDUyNw==)' />
<line x1='139.69' y1='86.58' x2='139.69' y2='86.58' style='stroke-width: 2.13; stroke: #BEBEBE; stroke-opacity: 0.60; stroke-linecap: butt;' clip-path='url(#cpMjkuOTg5NnwxNjQuNTk5fDg2LjU3ODl8MjAuMDUyNw==)' />
<line x1='144.99' y1='86.58' x2='144.99' y2='86.58' style='stroke-width: 2.13; stroke: #BEBEBE; stroke-opacity: 0.60; stroke-linecap: butt;' clip-path='url(#cpMjkuOTg5NnwxNjQuNTk5fDg2LjU3ODl8MjAuMDUyNw==)' />
<line x1='150.29' y1='86.58' x2='150.29' y2='86.58' style='stroke-width: 2.13; stroke: #BEBEBE; stroke-opacity: 0.60; stroke-linecap: butt;' clip-path='url(#cpMjkuOTg5NnwxNjQuNTk5fDg2LjU3ODl8MjAuMDUyNw==)' />
<line x1='155.59' y1='86.58' x2='155.59' y2='86.58' style='stroke-width: 2.13; stroke: #BEBEBE; stroke-opacity: 0.60; stroke-linecap: butt;' clip-path='url(#cpMjkuOTg5NnwxNjQuNTk5fDg2LjU3ODl8MjAuMDUyNw==)' />
<line x1='160.89' y1='86.58' x2='160.89' y2='86.58' style='stroke-width: 2.13; stroke: #BEBEBE; stroke-opacity: 0.60; stroke-linecap: butt;' clip-path='url(#cpMjkuOTg5NnwxNjQuNTk5fDg2LjU3ODl8MjAuMDUyNw==)' />
<line x1='166.19' y1='86.58' x2='166.19' y2='86.58' style='stroke-width: 2.13; stroke: #BEBEBE; stroke-opacity: 0.60; stroke-linecap: butt;' clip-path='url(#cpMjkuOTg5NnwxNjQuNTk5fDg2LjU3ODl8MjAuMDUyNw==)' />
<line x1='28.40' y1='24.37' x2='28.40' y2='23.08' style='stroke-width: 2.13; stroke: #619CFF; stroke-opacity: 0.60; stroke-linecap: butt;' clip-path='url(#cpMjkuOTg5NnwxNjQuNTk5fDg2LjU3ODl8MjAuMDUyNw==)' />
<line x1='33.70' y1='27.87' x2='33.70' y2='26.42' style='stroke-width: 2.13; stroke: #619CFF; stroke-opacity: 0.60; stroke-linecap: butt;' clip-path='url(#cpMjkuOTg5NnwxNjQuNTk5fDg2LjU3ODl8MjAuMDUyNw==)' />
<line x1='39.00' y1='31.45' x2='39.00' y2='29.78' style='stroke-width: 2.13; stroke: #619CFF; stroke-opacity: 0.60; stroke-linecap: butt;' clip-path='url(#cpMjkuOTg5NnwxNjQuNTk5fDg2LjU3ODl8MjAuMDUyNw==)' />
<line x1='44.30' y1='34.86' x2='44.30' y2='33.06' style='stroke-width: 2.13; stroke: #619CFF; stroke-opacity: 0.60; stroke-linecap: butt;' clip-path='url(#cpMjkuOTg5NnwxNjQuNTk5fDg2LjU3ODl8MjAuMDUyNw==)' />
<line x1='49.60' y1='38.34' x2='49.60' y2='36.10' style='stroke-width: 2.13; stroke: #619CFF; stroke-opacity: 0.60; stroke-linecap: butt;' clip-path='url(#cpMjkuOTg5NnwxNjQuNTk5fDg2LjU3ODl8MjAuMDUyNw==)' />
<line x1='54.90' y1='41.73' x2='54.90' y2='38.83' style='stroke-width: 2.13; stroke: #619CFF; stroke-opacity: 0.60; stroke-linecap: butt;' clip-path='url(#cpMjkuOTg5NnwxNjQuNTk5fDg2LjU3ODl8MjAuMDUyNw==)' />
<line x1='60.20' y1='45.09' x2='60.20' y2='41.64' style='stroke-width: 2.13; stroke: #619CFF; stroke-opacity: 0.60; stroke-linecap: butt;' clip-path='url(#cpMjkuOTg5NnwxNjQuNTk5fDg2LjU3ODl8MjAuMDUyNw==)' />
<line x1='65.50' y1='48.88' x2='65.50' y2='44.70' style='stroke-width: 2.13; stroke: #619CFF; stroke-opacity: 0.60; stroke-linecap: butt;' clip-path='url(#cpMjkuOTg5NnwxNjQuNTk5fDg2LjU3ODl8MjAuMDUyNw==)' />
<line x1='70.80' y1='52.03' x2='70.80' y2='46.80' style='stroke-width: 2.13; stroke: #619CFF; stroke-opacity: 0.60; stroke-linecap: butt;' clip-path='url(#cpMjkuOTg5NnwxNjQuNTk5fDg2LjU3ODl8MjAuMDUyNw==)' />
<line x1='76.10' y1='57.64' x2='76.10' y2='49.10' style='stroke-width: 2.13; stroke: #619CFF; stroke-opacity: 0.60; stroke-linecap: butt;' clip-path='url(#cpMjkuOTg5NnwxNjQuNTk5fDg2LjU3ODl8MjAuMDUyNw==)' />
<line x1='81.40' y1='64.74' x2='81.40' y2='51.34' style='stroke-width: 2.13; stroke: #619CFF; stroke-opacity: 0.60; stroke-linecap: butt;' clip-path='url(#cpMjkuOTg5NnwxNjQuNTk5fDg2LjU3ODl8MjAuMDUyNw==)' />
<polyline points='28.40,25.87 33.70,29.55 39.00,32.86 44.30,36.25 49.60,39.67 54.90,41.62 60.20,44.17 65.50,45.77 70.80,49.04 76.10,57.98 81.40,86.58 86.70,86.58 91.99,86.58 97.29,86.58 102.59,86.58 107.89,86.58 113.19,86.58 118.49,86.58 123.79,86.58 129.09,86.58 134.39,86.58 139.69,86.58 144.99,86.58 150.29,86.58 155.59,86.58 160.89,86.58 166.19,86.58 ' style='stroke-width: 1.49; stroke: #F8766D; stroke-linecap: butt;' clip-path='url(#cpMjkuOTg5NnwxNjQuNTk5fDg2LjU3ODl8MjAuMDUyNw==)' />
<polyline points='28.40,25.76 33.70,29.41 39.00,33.13 44.30,36.95 49.60,40.82 54.90,44.37 60.20,48.48 65.50,52.52 70.80,56.35 76.10,59.57 81.40,63.06 86.70,65.90 91.99,72.00 97.29,74.62 102.59,83.55 107.89,86.58 113.19,86.58 118.49,86.58 123.79,86.58 129.09,86.58 134.39,86.58 139.69,86.58 144.99,86.58 150.29,86.58 155.59,86.58 160.89,86.58 166.19,86.58 ' style='stroke-width: 1.49; stroke: #BEBEBE; stroke-linecap: butt;' clip-path='url(#cpMjkuOTg5NnwxNjQuNTk5fDg2LjU3ODl8MjAuMDUyNw==)' />
<polyline points='28.40,23.69 33.70,27.10 39.00,30.56 44.30,33.89 49.60,37.10 54.90,40.09 60.20,43.10 65.50,46.40 70.80,48.82 76.10,51.87 81.40,54.71 86.70,57.76 91.99,59.80 97.29,63.21 102.59,63.97 107.89,65.68 113.19,68.90 118.49,69.75 123.79,69.75 129.09,69.75 134.39,70.77 139.69,70.77 144.99,72.75 150.29,74.62 155.59,74.62 160.89,74.62 166.19,74.62 ' style='stroke-width: 1.49; stroke: #619CFF; stroke-linecap: butt;' clip-path='url(#cpMjkuOTg5NnwxNjQuNTk5fDg2LjU3ODl8MjAuMDUyNw==)' />
<defs>
  <clipPath id='cpMHwxNzAuMDc5fDExMy4zODZ8MA=='>
    <rect x='0.00' y='0.00' width='170.08' height='113.39' />
  </clipPath>
</defs>
<polyline points='29.99,86.58 29.99,20.05 ' style='stroke-width: 1.07; stroke-linecap: butt;' clip-path='url(#cpMHwxNzAuMDc5fDExMy4zODZ8MA==)' />
<g clip-path='url(#cpMHwxNzAuMDc5fDExMy4zODZ8MA==)'><text x='21.72' y='60.12' style='font-size: 5.60px; fill: #4D4D4D; font-family: Arial;' textLength='3.34px' lengthAdjust='spacingAndGlyphs'>1</text></g>
<g clip-path='url(#cpMHwxNzAuMDc5fDExMy4zODZ8MA==)'><text x='18.38' y='47.33' style='font-size: 5.60px; fill: #4D4D4D; font-family: Arial;' textLength='6.67px' lengthAdjust='spacingAndGlyphs'>10</text></g>
<g clip-path='url(#cpMHwxNzAuMDc5fDExMy4zODZ8MA==)'><text x='15.05' y='34.54' style='font-size: 5.60px; fill: #4D4D4D; font-family: Arial;' textLength='10.01px' lengthAdjust='spacingAndGlyphs'>100</text></g>
<polyline points='27.25,57.98 29.99,57.98 ' style='stroke-width: 1.07; stroke: #333333; stroke-linecap: butt;' clip-path='url(#cpMHwxNzAuMDc5fDExMy4zODZ8MA==)' />
<polyline points='27.25,45.19 29.99,45.19 ' style='stroke-width: 1.07; stroke: #333333; stroke-linecap: butt;' clip-path='url(#cpMHwxNzAuMDc5fDExMy4zODZ8MA==)' />
<polyline points='27.25,32.40 29.99,32.40 ' style='stroke-width: 1.07; stroke: #333333; stroke-linecap: butt;' clip-path='url(#cpMHwxNzAuMDc5fDExMy4zODZ8MA==)' />
<polyline points='29.99,86.58 164.60,86.58 ' style='stroke-width: 1.07; stroke-linecap: butt;' clip-path='url(#cpMHwxNzAuMDc5fDExMy4zODZ8MA==)' />
<polyline points='49.60,89.32 49.60,86.58 ' style='stroke-width: 1.07; stroke: #333333; stroke-linecap: butt;' clip-path='url(#cpMHwxNzAuMDc5fDExMy4zODZ8MA==)' />
<polyline points='76.10,89.32 76.10,86.58 ' style='stroke-width: 1.07; stroke: #333333; stroke-linecap: butt;' clip-path='url(#cpMHwxNzAuMDc5fDExMy4zODZ8MA==)' />
<polyline points='102.59,89.32 102.59,86.58 ' style='stroke-width: 1.07; stroke: #333333; stroke-linecap: butt;' clip-path='url(#cpMHwxNzAuMDc5fDExMy4zODZ8MA==)' />
<polyline points='129.09,89.32 129.09,86.58 ' style='stroke-width: 1.07; stroke: #333333; stroke-linecap: butt;' clip-path='url(#cpMHwxNzAuMDc5fDExMy4zODZ8MA==)' />
<polyline points='155.59,89.32 155.59,86.58 ' style='stroke-width: 1.07; stroke: #333333; stroke-linecap: butt;' clip-path='url(#cpMHwxNzAuMDc5fDExMy4zODZ8MA==)' />
<g clip-path='url(#cpMHwxNzAuMDc5fDExMy4zODZ8MA==)'><text x='46.26' y='95.81' style='font-size: 5.60px; fill: #4D4D4D; font-family: Arial;' textLength='6.67px' lengthAdjust='spacingAndGlyphs'>10</text></g>
<g clip-path='url(#cpMHwxNzAuMDc5fDExMy4zODZ8MA==)'><text x='72.76' y='95.81' style='font-size: 5.60px; fill: #4D4D4D; font-family: Arial;' textLength='6.67px' lengthAdjust='spacingAndGlyphs'>15</text></g>
<g clip-path='url(#cpMHwxNzAuMDc5fDExMy4zODZ8MA==)'><text x='99.26' y='95.81' style='font-size: 5.60px; fill: #4D4D4D; font-family: Arial;' textLength='6.67px' lengthAdjust='spacingAndGlyphs'>20</text></g>
<g clip-path='url(#cpMHwxNzAuMDc5fDExMy4zODZ8MA==)'><text x='125.76' y='95.81' style='font-size: 5.60px; fill: #4D4D4D; font-family: Arial;' textLength='6.67px' lengthAdjust='spacingAndGlyphs'>25</text></g>
<g clip-path='url(#cpMHwxNzAuMDc5fDExMy4zODZ8MA==)'><text x='152.25' y='95.81' style='font-size: 5.60px; fill: #4D4D4D; font-family: Arial;' textLength='6.67px' lengthAdjust='spacingAndGlyphs'>30</text></g>
<g clip-path='url(#cpMHwxNzAuMDc5fDExMy4zODZ8MA==)'><text x='62.78' y='105.38' style='font-size: 6.00px; font-family: Arial;' textLength='69.03px' lengthAdjust='spacingAndGlyphs'>Motive repetitions (length)</text></g>
<g clip-path='url(#cpMHwxNzAuMDc5fDExMy4zODZ8MA==)'><text transform='translate(9.78,83.83) rotate(-90)' style='font-size: 6.00px; font-family: Arial;' textLength='61.02px' lengthAdjust='spacingAndGlyphs'>Motive occurrences (#)</text></g>
<line x1='80.96' y1='24.79' x2='94.79' y2='24.79' style='stroke-width: 1.49; stroke: #F8766D; stroke-linecap: butt;' clip-path='url(#cpMHwxNzAuMDc5fDExMy4zODZ8MA==)' />
<line x1='80.96' y1='31.61' x2='94.79' y2='31.61' style='stroke-width: 1.49; stroke: #BEBEBE; stroke-linecap: butt;' clip-path='url(#cpMHwxNzAuMDc5fDExMy4zODZ8MA==)' />
<line x1='80.96' y1='38.44' x2='94.79' y2='38.44' style='stroke-width: 1.49; stroke: #619CFF; stroke-linecap: butt;' clip-path='url(#cpMHwxNzAuMDc5fDExMy4zODZ8MA==)' />
<g clip-path='url(#cpMHwxNzAuMDc5fDExMy4zODZ8MA==)'><text x='99.50' y='26.93' style='font-size: 5.60px; font-family: Arial;' textLength='69.69px' lengthAdjust='spacingAndGlyphs'>RNAs enriched in vesicles</text></g>
<g clip-path='url(#cpMHwxNzAuMDc5fDExMy4zODZ8MA==)'><text x='99.50' y='33.76' style='font-size: 5.60px; font-family: Arial;' textLength='53.37px' lengthAdjust='spacingAndGlyphs'>Random sequences</text></g>
<g clip-path='url(#cpMHwxNzAuMDc5fDExMy4zODZ8MA==)'><text x='99.50' y='40.59' style='font-size: 5.60px; font-family: Arial;' textLength='64.70px' lengthAdjust='spacingAndGlyphs'>Random genes samples</text></g>
<g clip-path='url(#cpMHwxNzAuMDc5fDExMy4zODZ8MA==)'><text x='35.23' y='10.57' style='font-size: 7.20px; font-family: Arial;' textLength='64.94px' lengthAdjust='spacingAndGlyphs'>([ATGC][TG][ATGC])</text></g>
<g clip-path='url(#cpMHwxNzAuMDc5fDExMy4zODZ8MA==)'><text x='100.17' y='11.84' style='font-size: 5.04px; font-family: Arial;' textLength='2.78px' lengthAdjust='spacingAndGlyphs'>n</text></g>
<g clip-path='url(#cpMHwxNzAuMDc5fDExMy4zODZ8MA==)'><text x='102.96' y='10.57' style='font-size: 7.20px; font-family: Cambria;' textLength='1.54px' lengthAdjust='spacingAndGlyphs'> </text></g>
<g clip-path='url(#cpMHwxNzAuMDc5fDExMy4zODZ8MA==)'><text x='104.50' y='10.57' style='font-size: 7.20px; font-family: Arial;' textLength='54.86px' lengthAdjust='spacingAndGlyphs'>motive repetitions</text></g>
</svg>
