<?xml version='1.0' encoding='UTF-8' ?>
<svg xmlns='http://www.w3.org/2000/svg' xmlns:xlink='http://www.w3.org/1999/xlink' viewBox='0 0 170.08 113.39'>
<defs>
  <style type='text/css'><![CDATA[
    line, polyline, path, rect, circle {
      fill: none;
      stroke: #000000;
      stroke-linecap: round;
      stroke-linejoin: round;
      stroke-miterlimit: 10.00;
    }
  ]]></style>
</defs>
<rect width='100%' height='100%' style='stroke: none; fill: #FFFFFF;'/>
<rect x='0.00' y='0.00' width='170.08' height='113.39' style='stroke-width: 1.07; stroke: #FFFFFF; fill: #FFFFFF;' />
<defs>
  <clipPath id='cpMzMuMzI2NXwxNjQuNTk5fDg2LjU3ODl8MjAuMDUyNw=='>
    <rect x='33.33' y='20.05' width='131.27' height='66.53' />
  </clipPath>
</defs>
<line x1='31.78' y1='26.29' x2='31.78' y2='26.29' style='stroke-width: 2.13; stroke: #F8766D; stroke-opacity: 0.60; stroke-linecap: butt;' clip-path='url(#cpMzMuMzI2NXwxNjQuNTk5fDg2LjU3ODl8MjAuMDUyNw==)' />
<line x1='36.94' y1='29.87' x2='36.94' y2='29.87' style='stroke-width: 2.13; stroke: #F8766D; stroke-opacity: 0.60; stroke-linecap: butt;' clip-path='url(#cpMzMuMzI2NXwxNjQuNTk5fDg2LjU3ODl8MjAuMDUyNw==)' />
<line x1='42.11' y1='33.49' x2='42.11' y2='33.49' style='stroke-width: 2.13; stroke: #F8766D; stroke-opacity: 0.60; stroke-linecap: butt;' clip-path='url(#cpMzMuMzI2NXwxNjQuNTk5fDg2LjU3ODl8MjAuMDUyNw==)' />
<line x1='47.28' y1='36.93' x2='47.28' y2='36.93' style='stroke-width: 2.13; stroke: #F8766D; stroke-opacity: 0.60; stroke-linecap: butt;' clip-path='url(#cpMzMuMzI2NXwxNjQuNTk5fDg2LjU3ODl8MjAuMDUyNw==)' />
<line x1='52.45' y1='39.47' x2='52.45' y2='39.47' style='stroke-width: 2.13; stroke: #F8766D; stroke-opacity: 0.60; stroke-linecap: butt;' clip-path='url(#cpMzMuMzI2NXwxNjQuNTk5fDg2LjU3ODl8MjAuMDUyNw==)' />
<line x1='57.62' y1='43.07' x2='57.62' y2='43.07' style='stroke-width: 2.13; stroke: #F8766D; stroke-opacity: 0.60; stroke-linecap: butt;' clip-path='url(#cpMzMuMzI2NXwxNjQuNTk5fDg2LjU3ODl8MjAuMDUyNw==)' />
<line x1='62.79' y1='49.00' x2='62.79' y2='49.00' style='stroke-width: 2.13; stroke: #F8766D; stroke-opacity: 0.60; stroke-linecap: butt;' clip-path='url(#cpMzMuMzI2NXwxNjQuNTk5fDg2LjU3ODl8MjAuMDUyNw==)' />
<line x1='67.95' y1='52.74' x2='67.95' y2='52.74' style='stroke-width: 2.13; stroke: #F8766D; stroke-opacity: 0.60; stroke-linecap: butt;' clip-path='url(#cpMzMuMzI2NXwxNjQuNTk5fDg2LjU3ODl8MjAuMDUyNw==)' />
<line x1='73.12' y1='54.93' x2='73.12' y2='54.93' style='stroke-width: 2.13; stroke: #F8766D; stroke-opacity: 0.60; stroke-linecap: butt;' clip-path='url(#cpMzMuMzI2NXwxNjQuNTk5fDg2LjU3ODl8MjAuMDUyNw==)' />
<line x1='78.29' y1='86.58' x2='78.29' y2='86.58' style='stroke-width: 2.13; stroke: #F8766D; stroke-opacity: 0.60; stroke-linecap: butt;' clip-path='url(#cpMzMuMzI2NXwxNjQuNTk5fDg2LjU3ODl8MjAuMDUyNw==)' />
<line x1='83.46' y1='86.58' x2='83.46' y2='86.58' style='stroke-width: 2.13; stroke: #F8766D; stroke-opacity: 0.60; stroke-linecap: butt;' clip-path='url(#cpMzMuMzI2NXwxNjQuNTk5fDg2LjU3ODl8MjAuMDUyNw==)' />
<line x1='88.63' y1='86.58' x2='88.63' y2='86.58' style='stroke-width: 2.13; stroke: #F8766D; stroke-opacity: 0.60; stroke-linecap: butt;' clip-path='url(#cpMzMuMzI2NXwxNjQuNTk5fDg2LjU3ODl8MjAuMDUyNw==)' />
<line x1='93.79' y1='86.58' x2='93.79' y2='86.58' style='stroke-width: 2.13; stroke: #F8766D; stroke-opacity: 0.60; stroke-linecap: butt;' clip-path='url(#cpMzMuMzI2NXwxNjQuNTk5fDg2LjU3ODl8MjAuMDUyNw==)' />
<line x1='98.96' y1='86.58' x2='98.96' y2='86.58' style='stroke-width: 2.13; stroke: #F8766D; stroke-opacity: 0.60; stroke-linecap: butt;' clip-path='url(#cpMzMuMzI2NXwxNjQuNTk5fDg2LjU3ODl8MjAuMDUyNw==)' />
<line x1='104.13' y1='86.58' x2='104.13' y2='86.58' style='stroke-width: 2.13; stroke: #F8766D; stroke-opacity: 0.60; stroke-linecap: butt;' clip-path='url(#cpMzMuMzI2NXwxNjQuNTk5fDg2LjU3ODl8MjAuMDUyNw==)' />
<line x1='109.30' y1='86.58' x2='109.30' y2='86.58' style='stroke-width: 2.13; stroke: #F8766D; stroke-opacity: 0.60; stroke-linecap: butt;' clip-path='url(#cpMzMuMzI2NXwxNjQuNTk5fDg2LjU3ODl8MjAuMDUyNw==)' />
<line x1='114.47' y1='86.58' x2='114.47' y2='86.58' style='stroke-width: 2.13; stroke: #F8766D; stroke-opacity: 0.60; stroke-linecap: butt;' clip-path='url(#cpMzMuMzI2NXwxNjQuNTk5fDg2LjU3ODl8MjAuMDUyNw==)' />
<line x1='119.64' y1='86.58' x2='119.64' y2='86.58' style='stroke-width: 2.13; stroke: #F8766D; stroke-opacity: 0.60; stroke-linecap: butt;' clip-path='url(#cpMzMuMzI2NXwxNjQuNTk5fDg2LjU3ODl8MjAuMDUyNw==)' />
<line x1='124.80' y1='86.58' x2='124.80' y2='86.58' style='stroke-width: 2.13; stroke: #F8766D; stroke-opacity: 0.60; stroke-linecap: butt;' clip-path='url(#cpMzMuMzI2NXwxNjQuNTk5fDg2LjU3ODl8MjAuMDUyNw==)' />
<line x1='129.97' y1='86.58' x2='129.97' y2='86.58' style='stroke-width: 2.13; stroke: #F8766D; stroke-opacity: 0.60; stroke-linecap: butt;' clip-path='url(#cpMzMuMzI2NXwxNjQuNTk5fDg2LjU3ODl8MjAuMDUyNw==)' />
<line x1='135.14' y1='86.58' x2='135.14' y2='86.58' style='stroke-width: 2.13; stroke: #F8766D; stroke-opacity: 0.60; stroke-linecap: butt;' clip-path='url(#cpMzMuMzI2NXwxNjQuNTk5fDg2LjU3ODl8MjAuMDUyNw==)' />
<line x1='140.31' y1='86.58' x2='140.31' y2='86.58' style='stroke-width: 2.13; stroke: #F8766D; stroke-opacity: 0.60; stroke-linecap: butt;' clip-path='url(#cpMzMuMzI2NXwxNjQuNTk5fDg2LjU3ODl8MjAuMDUyNw==)' />
<line x1='145.48' y1='86.58' x2='145.48' y2='86.58' style='stroke-width: 2.13; stroke: #F8766D; stroke-opacity: 0.60; stroke-linecap: butt;' clip-path='url(#cpMzMuMzI2NXwxNjQuNTk5fDg2LjU3ODl8MjAuMDUyNw==)' />
<line x1='150.65' y1='86.58' x2='150.65' y2='86.58' style='stroke-width: 2.13; stroke: #F8766D; stroke-opacity: 0.60; stroke-linecap: butt;' clip-path='url(#cpMzMuMzI2NXwxNjQuNTk5fDg2LjU3ODl8MjAuMDUyNw==)' />
<line x1='155.81' y1='86.58' x2='155.81' y2='86.58' style='stroke-width: 2.13; stroke: #F8766D; stroke-opacity: 0.60; stroke-linecap: butt;' clip-path='url(#cpMzMuMzI2NXwxNjQuNTk5fDg2LjU3ODl8MjAuMDUyNw==)' />
<line x1='160.98' y1='86.58' x2='160.98' y2='86.58' style='stroke-width: 2.13; stroke: #F8766D; stroke-opacity: 0.60; stroke-linecap: butt;' clip-path='url(#cpMzMuMzI2NXwxNjQuNTk5fDg2LjU3ODl8MjAuMDUyNw==)' />
<line x1='166.15' y1='86.58' x2='166.15' y2='86.58' style='stroke-width: 2.13; stroke: #F8766D; stroke-opacity: 0.60; stroke-linecap: butt;' clip-path='url(#cpMzMuMzI2NXwxNjQuNTk5fDg2LjU3ODl8MjAuMDUyNw==)' />
<line x1='31.78' y1='26.96' x2='31.78' y2='26.51' style='stroke-width: 2.13; stroke: #BEBEBE; stroke-opacity: 0.60; stroke-linecap: butt;' clip-path='url(#cpMzMuMzI2NXwxNjQuNTk5fDg2LjU3ODl8MjAuMDUyNw==)' />
<line x1='36.94' y1='30.48' x2='36.94' y2='29.80' style='stroke-width: 2.13; stroke: #BEBEBE; stroke-opacity: 0.60; stroke-linecap: butt;' clip-path='url(#cpMzMuMzI2NXwxNjQuNTk5fDg2LjU3ODl8MjAuMDUyNw==)' />
<line x1='42.11' y1='34.18' x2='42.11' y2='33.19' style='stroke-width: 2.13; stroke: #BEBEBE; stroke-opacity: 0.60; stroke-linecap: butt;' clip-path='url(#cpMzMuMzI2NXwxNjQuNTk5fDg2LjU3ODl8MjAuMDUyNw==)' />
<line x1='47.28' y1='38.06' x2='47.28' y2='36.48' style='stroke-width: 2.13; stroke: #BEBEBE; stroke-opacity: 0.60; stroke-linecap: butt;' clip-path='url(#cpMzMuMzI2NXwxNjQuNTk5fDg2LjU3ODl8MjAuMDUyNw==)' />
<line x1='52.45' y1='41.92' x2='52.45' y2='39.66' style='stroke-width: 2.13; stroke: #BEBEBE; stroke-opacity: 0.60; stroke-linecap: butt;' clip-path='url(#cpMzMuMzI2NXwxNjQuNTk5fDg2LjU3ODl8MjAuMDUyNw==)' />
<line x1='57.62' y1='45.93' x2='57.62' y2='43.06' style='stroke-width: 2.13; stroke: #BEBEBE; stroke-opacity: 0.60; stroke-linecap: butt;' clip-path='url(#cpMzMuMzI2NXwxNjQuNTk5fDg2LjU3ODl8MjAuMDUyNw==)' />
<line x1='62.79' y1='49.82' x2='62.79' y2='46.06' style='stroke-width: 2.13; stroke: #BEBEBE; stroke-opacity: 0.60; stroke-linecap: butt;' clip-path='url(#cpMzMuMzI2NXwxNjQuNTk5fDg2LjU3ODl8MjAuMDUyNw==)' />
<line x1='67.95' y1='55.56' x2='67.95' y2='48.97' style='stroke-width: 2.13; stroke: #BEBEBE; stroke-opacity: 0.60; stroke-linecap: butt;' clip-path='url(#cpMzMuMzI2NXwxNjQuNTk5fDg2LjU3ODl8MjAuMDUyNw==)' />
<line x1='73.12' y1='61.33' x2='73.12' y2='51.96' style='stroke-width: 2.13; stroke: #BEBEBE; stroke-opacity: 0.60; stroke-linecap: butt;' clip-path='url(#cpMzMuMzI2NXwxNjQuNTk5fDg2LjU3ODl8MjAuMDUyNw==)' />
<line x1='78.29' y1='75.22' x2='78.29' y2='54.74' style='stroke-width: 2.13; stroke: #BEBEBE; stroke-opacity: 0.60; stroke-linecap: butt;' clip-path='url(#cpMzMuMzI2NXwxNjQuNTk5fDg2LjU3ODl8MjAuMDUyNw==)' />
<line x1='135.14' y1='86.58' x2='135.14' y2='86.58' style='stroke-width: 2.13; stroke: #BEBEBE; stroke-opacity: 0.60; stroke-linecap: butt;' clip-path='url(#cpMzMuMzI2NXwxNjQuNTk5fDg2LjU3ODl8MjAuMDUyNw==)' />
<line x1='140.31' y1='86.58' x2='140.31' y2='86.58' style='stroke-width: 2.13; stroke: #BEBEBE; stroke-opacity: 0.60; stroke-linecap: butt;' clip-path='url(#cpMzMuMzI2NXwxNjQuNTk5fDg2LjU3ODl8MjAuMDUyNw==)' />
<line x1='145.48' y1='86.58' x2='145.48' y2='86.58' style='stroke-width: 2.13; stroke: #BEBEBE; stroke-opacity: 0.60; stroke-linecap: butt;' clip-path='url(#cpMzMuMzI2NXwxNjQuNTk5fDg2LjU3ODl8MjAuMDUyNw==)' />
<line x1='150.65' y1='86.58' x2='150.65' y2='86.58' style='stroke-width: 2.13; stroke: #BEBEBE; stroke-opacity: 0.60; stroke-linecap: butt;' clip-path='url(#cpMzMuMzI2NXwxNjQuNTk5fDg2LjU3ODl8MjAuMDUyNw==)' />
<line x1='155.81' y1='86.58' x2='155.81' y2='86.58' style='stroke-width: 2.13; stroke: #BEBEBE; stroke-opacity: 0.60; stroke-linecap: butt;' clip-path='url(#cpMzMuMzI2NXwxNjQuNTk5fDg2LjU3ODl8MjAuMDUyNw==)' />
<line x1='160.98' y1='86.58' x2='160.98' y2='86.58' style='stroke-width: 2.13; stroke: #BEBEBE; stroke-opacity: 0.60; stroke-linecap: butt;' clip-path='url(#cpMzMuMzI2NXwxNjQuNTk5fDg2LjU3ODl8MjAuMDUyNw==)' />
<line x1='166.15' y1='86.58' x2='166.15' y2='86.58' style='stroke-width: 2.13; stroke: #BEBEBE; stroke-opacity: 0.60; stroke-linecap: butt;' clip-path='url(#cpMzMuMzI2NXwxNjQuNTk5fDg2LjU3ODl8MjAuMDUyNw==)' />
<line x1='31.78' y1='24.18' x2='31.78' y2='23.08' style='stroke-width: 2.13; stroke: #619CFF; stroke-opacity: 0.60; stroke-linecap: butt;' clip-path='url(#cpMzMuMzI2NXwxNjQuNTk5fDg2LjU3ODl8MjAuMDUyNw==)' />
<line x1='36.94' y1='26.94' x2='36.94' y2='25.75' style='stroke-width: 2.13; stroke: #619CFF; stroke-opacity: 0.60; stroke-linecap: butt;' clip-path='url(#cpMzMuMzI2NXwxNjQuNTk5fDg2LjU3ODl8MjAuMDUyNw==)' />
<line x1='42.11' y1='29.81' x2='42.11' y2='28.42' style='stroke-width: 2.13; stroke: #619CFF; stroke-opacity: 0.60; stroke-linecap: butt;' clip-path='url(#cpMzMuMzI2NXwxNjQuNTk5fDg2LjU3ODl8MjAuMDUyNw==)' />
<line x1='47.28' y1='32.61' x2='47.28' y2='31.07' style='stroke-width: 2.13; stroke: #619CFF; stroke-opacity: 0.60; stroke-linecap: butt;' clip-path='url(#cpMzMuMzI2NXwxNjQuNTk5fDg2LjU3ODl8MjAuMDUyNw==)' />
<line x1='52.45' y1='35.41' x2='52.45' y2='33.59' style='stroke-width: 2.13; stroke: #619CFF; stroke-opacity: 0.60; stroke-linecap: butt;' clip-path='url(#cpMzMuMzI2NXwxNjQuNTk5fDg2LjU3ODl8MjAuMDUyNw==)' />
<line x1='57.62' y1='38.39' x2='57.62' y2='36.17' style='stroke-width: 2.13; stroke: #619CFF; stroke-opacity: 0.60; stroke-linecap: butt;' clip-path='url(#cpMzMuMzI2NXwxNjQuNTk5fDg2LjU3ODl8MjAuMDUyNw==)' />
<line x1='62.79' y1='41.07' x2='62.79' y2='38.72' style='stroke-width: 2.13; stroke: #619CFF; stroke-opacity: 0.60; stroke-linecap: butt;' clip-path='url(#cpMzMuMzI2NXwxNjQuNTk5fDg2LjU3ODl8MjAuMDUyNw==)' />
<line x1='67.95' y1='44.09' x2='67.95' y2='40.94' style='stroke-width: 2.13; stroke: #619CFF; stroke-opacity: 0.60; stroke-linecap: butt;' clip-path='url(#cpMzMuMzI2NXwxNjQuNTk5fDg2LjU3ODl8MjAuMDUyNw==)' />
<line x1='73.12' y1='47.15' x2='73.12' y2='43.16' style='stroke-width: 2.13; stroke: #619CFF; stroke-opacity: 0.60; stroke-linecap: butt;' clip-path='url(#cpMzMuMzI2NXwxNjQuNTk5fDg2LjU3ODl8MjAuMDUyNw==)' />
<line x1='78.29' y1='50.70' x2='78.29' y2='45.09' style='stroke-width: 2.13; stroke: #619CFF; stroke-opacity: 0.60; stroke-linecap: butt;' clip-path='url(#cpMzMuMzI2NXwxNjQuNTk5fDg2LjU3ODl8MjAuMDUyNw==)' />
<line x1='83.46' y1='54.39' x2='83.46' y2='46.76' style='stroke-width: 2.13; stroke: #619CFF; stroke-opacity: 0.60; stroke-linecap: butt;' clip-path='url(#cpMzMuMzI2NXwxNjQuNTk5fDg2LjU3ODl8MjAuMDUyNw==)' />
<line x1='88.63' y1='58.39' x2='88.63' y2='48.53' style='stroke-width: 2.13; stroke: #619CFF; stroke-opacity: 0.60; stroke-linecap: butt;' clip-path='url(#cpMzMuMzI2NXwxNjQuNTk5fDg2LjU3ODl8MjAuMDUyNw==)' />
<line x1='93.79' y1='66.22' x2='93.79' y2='50.15' style='stroke-width: 2.13; stroke: #619CFF; stroke-opacity: 0.60; stroke-linecap: butt;' clip-path='url(#cpMzMuMzI2NXwxNjQuNTk5fDg2LjU3ODl8MjAuMDUyNw==)' />
<polyline points='31.78,26.29 36.94,29.87 42.11,33.49 47.28,36.93 52.45,39.47 57.62,43.07 62.79,49.00 67.95,52.74 73.12,54.93 78.29,86.58 83.46,86.58 88.63,86.58 93.79,86.58 98.96,86.58 104.13,86.58 109.30,86.58 114.47,86.58 119.64,86.58 124.80,86.58 129.97,86.58 135.14,86.58 140.31,86.58 145.48,86.58 150.65,86.58 155.81,86.58 160.98,86.58 166.15,86.58 ' style='stroke-width: 1.49; stroke: #F8766D; stroke-linecap: butt;' clip-path='url(#cpMzMuMzI2NXwxNjQuNTk5fDg2LjU3ODl8MjAuMDUyNw==)' />
<polyline points='31.78,26.73 36.94,30.13 42.11,33.66 47.28,37.21 52.45,40.67 57.62,44.31 62.79,47.62 67.95,51.31 73.12,54.83 78.29,58.36 83.46,61.91 88.63,64.67 93.79,67.65 98.96,68.93 104.13,73.04 109.30,76.07 114.47,83.55 119.64,83.55 124.80,83.55 129.97,83.55 135.14,86.58 140.31,86.58 145.48,86.58 150.65,86.58 155.81,86.58 160.98,86.58 166.15,86.58 ' style='stroke-width: 1.49; stroke: #BEBEBE; stroke-linecap: butt;' clip-path='url(#cpMzMuMzI2NXwxNjQuNTk5fDg2LjU3ODl8MjAuMDUyNw==)' />
<polyline points='31.78,23.60 36.94,26.31 42.11,29.07 47.28,31.79 52.45,34.42 57.62,37.17 62.79,39.77 67.95,42.29 73.12,44.79 78.29,47.20 83.46,49.32 88.63,51.47 93.79,53.62 98.96,55.56 104.13,57.14 109.30,59.19 114.47,60.16 119.64,61.26 124.80,63.50 129.97,64.20 135.14,65.96 140.31,66.86 145.48,67.11 150.65,67.37 155.81,68.25 160.98,68.58 166.15,70.13 ' style='stroke-width: 1.49; stroke: #619CFF; stroke-linecap: butt;' clip-path='url(#cpMzMuMzI2NXwxNjQuNTk5fDg2LjU3ODl8MjAuMDUyNw==)' />
<defs>
  <clipPath id='cpMHwxNzAuMDc5fDExMy4zODZ8MA=='>
    <rect x='0.00' y='0.00' width='170.08' height='113.39' />
  </clipPath>
</defs>
<polyline points='33.33,86.58 33.33,20.05 ' style='stroke-width: 1.07; stroke-linecap: butt;' clip-path='url(#cpMHwxNzAuMDc5fDExMy4zODZ8MA==)' />
<g clip-path='url(#cpMHwxNzAuMDc5fDExMy4zODZ8MA==)'><text x='25.06' y='60.83' style='font-size: 5.60px; fill: #4D4D4D; font-family: Arial;' textLength='3.34px' lengthAdjust='spacingAndGlyphs'>1</text></g>
<g clip-path='url(#cpMHwxNzAuMDc5fDExMy4zODZ8MA==)'><text x='21.72' y='48.39' style='font-size: 5.60px; fill: #4D4D4D; font-family: Arial;' textLength='6.67px' lengthAdjust='spacingAndGlyphs'>10</text></g>
<g clip-path='url(#cpMHwxNzAuMDc5fDExMy4zODZ8MA==)'><text x='18.38' y='35.95' style='font-size: 5.60px; fill: #4D4D4D; font-family: Arial;' textLength='10.01px' lengthAdjust='spacingAndGlyphs'>100</text></g>
<g clip-path='url(#cpMHwxNzAuMDc5fDExMy4zODZ8MA==)'><text x='15.05' y='23.51' style='font-size: 5.60px; fill: #4D4D4D; font-family: Arial;' textLength='13.35px' lengthAdjust='spacingAndGlyphs'>1000</text></g>
<polyline points='30.59,58.68 33.33,58.68 ' style='stroke-width: 1.07; stroke: #333333; stroke-linecap: butt;' clip-path='url(#cpMHwxNzAuMDc5fDExMy4zODZ8MA==)' />
<polyline points='30.59,46.24 33.33,46.24 ' style='stroke-width: 1.07; stroke: #333333; stroke-linecap: butt;' clip-path='url(#cpMHwxNzAuMDc5fDExMy4zODZ8MA==)' />
<polyline points='30.59,33.80 33.33,33.80 ' style='stroke-width: 1.07; stroke: #333333; stroke-linecap: butt;' clip-path='url(#cpMHwxNzAuMDc5fDExMy4zODZ8MA==)' />
<polyline points='30.59,21.36 33.33,21.36 ' style='stroke-width: 1.07; stroke: #333333; stroke-linecap: butt;' clip-path='url(#cpMHwxNzAuMDc5fDExMy4zODZ8MA==)' />
<polyline points='33.33,86.58 164.60,86.58 ' style='stroke-width: 1.07; stroke-linecap: butt;' clip-path='url(#cpMHwxNzAuMDc5fDExMy4zODZ8MA==)' />
<polyline points='52.45,89.32 52.45,86.58 ' style='stroke-width: 1.07; stroke: #333333; stroke-linecap: butt;' clip-path='url(#cpMHwxNzAuMDc5fDExMy4zODZ8MA==)' />
<polyline points='78.29,89.32 78.29,86.58 ' style='stroke-width: 1.07; stroke: #333333; stroke-linecap: butt;' clip-path='url(#cpMHwxNzAuMDc5fDExMy4zODZ8MA==)' />
<polyline points='104.13,89.32 104.13,86.58 ' style='stroke-width: 1.07; stroke: #333333; stroke-linecap: butt;' clip-path='url(#cpMHwxNzAuMDc5fDExMy4zODZ8MA==)' />
<polyline points='129.97,89.32 129.97,86.58 ' style='stroke-width: 1.07; stroke: #333333; stroke-linecap: butt;' clip-path='url(#cpMHwxNzAuMDc5fDExMy4zODZ8MA==)' />
<polyline points='155.81,89.32 155.81,86.58 ' style='stroke-width: 1.07; stroke: #333333; stroke-linecap: butt;' clip-path='url(#cpMHwxNzAuMDc5fDExMy4zODZ8MA==)' />
<g clip-path='url(#cpMHwxNzAuMDc5fDExMy4zODZ8MA==)'><text x='49.11' y='95.81' style='font-size: 5.60px; fill: #4D4D4D; font-family: Arial;' textLength='6.67px' lengthAdjust='spacingAndGlyphs'>10</text></g>
<g clip-path='url(#cpMHwxNzAuMDc5fDExMy4zODZ8MA==)'><text x='74.95' y='95.81' style='font-size: 5.60px; fill: #4D4D4D; font-family: Arial;' textLength='6.67px' lengthAdjust='spacingAndGlyphs'>15</text></g>
<g clip-path='url(#cpMHwxNzAuMDc5fDExMy4zODZ8MA==)'><text x='100.79' y='95.81' style='font-size: 5.60px; fill: #4D4D4D; font-family: Arial;' textLength='6.67px' lengthAdjust='spacingAndGlyphs'>20</text></g>
<g clip-path='url(#cpMHwxNzAuMDc5fDExMy4zODZ8MA==)'><text x='126.64' y='95.81' style='font-size: 5.60px; fill: #4D4D4D; font-family: Arial;' textLength='6.67px' lengthAdjust='spacingAndGlyphs'>25</text></g>
<g clip-path='url(#cpMHwxNzAuMDc5fDExMy4zODZ8MA==)'><text x='152.48' y='95.81' style='font-size: 5.60px; fill: #4D4D4D; font-family: Arial;' textLength='6.67px' lengthAdjust='spacingAndGlyphs'>30</text></g>
<g clip-path='url(#cpMHwxNzAuMDc5fDExMy4zODZ8MA==)'><text x='64.45' y='105.38' style='font-size: 6.00px; font-family: Arial;' textLength='69.03px' lengthAdjust='spacingAndGlyphs'>Motive repetitions (length)</text></g>
<g clip-path='url(#cpMHwxNzAuMDc5fDExMy4zODZ8MA==)'><text transform='translate(9.78,83.83) rotate(-90)' style='font-size: 6.00px; font-family: Arial;' textLength='61.02px' lengthAdjust='spacingAndGlyphs'>Motive occurrences (#)</text></g>
<line x1='81.96' y1='24.79' x2='95.79' y2='24.79' style='stroke-width: 1.49; stroke: #F8766D; stroke-linecap: butt;' clip-path='url(#cpMHwxNzAuMDc5fDExMy4zODZ8MA==)' />
<line x1='81.96' y1='31.61' x2='95.79' y2='31.61' style='stroke-width: 1.49; stroke: #BEBEBE; stroke-linecap: butt;' clip-path='url(#cpMHwxNzAuMDc5fDExMy4zODZ8MA==)' />
<line x1='81.96' y1='38.44' x2='95.79' y2='38.44' style='stroke-width: 1.49; stroke: #619CFF; stroke-linecap: butt;' clip-path='url(#cpMHwxNzAuMDc5fDExMy4zODZ8MA==)' />
<g clip-path='url(#cpMHwxNzAuMDc5fDExMy4zODZ8MA==)'><text x='100.50' y='26.93' style='font-size: 5.60px; font-family: Arial;' textLength='69.69px' lengthAdjust='spacingAndGlyphs'>RNAs enriched in vesicles</text></g>
<g clip-path='url(#cpMHwxNzAuMDc5fDExMy4zODZ8MA==)'><text x='100.50' y='33.76' style='font-size: 5.60px; font-family: Arial;' textLength='53.37px' lengthAdjust='spacingAndGlyphs'>Random sequences</text></g>
<g clip-path='url(#cpMHwxNzAuMDc5fDExMy4zODZ8MA==)'><text x='100.50' y='40.59' style='font-size: 5.60px; font-family: Arial;' textLength='64.70px' lengthAdjust='spacingAndGlyphs'>Random genes samples</text></g>
<g clip-path='url(#cpMHwxNzAuMDc5fDExMy4zODZ8MA==)'><text x='36.51' y='10.57' style='font-size: 7.20px; font-family: Arial;' textLength='65.72px' lengthAdjust='spacingAndGlyphs'>([ATGC][GC][ATGC])</text></g>
<g clip-path='url(#cpMHwxNzAuMDc5fDExMy4zODZ8MA==)'><text x='102.23' y='11.84' style='font-size: 5.04px; font-family: Arial;' textLength='2.78px' lengthAdjust='spacingAndGlyphs'>n</text></g>
<g clip-path='url(#cpMHwxNzAuMDc5fDExMy4zODZ8MA==)'><text x='105.01' y='10.57' style='font-size: 7.20px; font-family: Cambria;' textLength='1.54px' lengthAdjust='spacingAndGlyphs'> </text></g>
<g clip-path='url(#cpMHwxNzAuMDc5fDExMy4zODZ8MA==)'><text x='106.56' y='10.57' style='font-size: 7.20px; font-family: Arial;' textLength='54.86px' lengthAdjust='spacingAndGlyphs'>motive repetitions</text></g>
</svg>
