<?xml version='1.0' encoding='UTF-8' ?>
<svg xmlns='http://www.w3.org/2000/svg' xmlns:xlink='http://www.w3.org/1999/xlink' viewBox='0 0 170.08 113.39'>
<defs>
  <style type='text/css'><![CDATA[
    line, polyline, path, rect, circle {
      fill: none;
      stroke: #000000;
      stroke-linecap: round;
      stroke-linejoin: round;
      stroke-miterlimit: 10.00;
    }
  ]]></style>
</defs>
<rect width='100%' height='100%' style='stroke: none; fill: #FFFFFF;'/>
<rect x='0.00' y='0.00' width='170.08' height='113.39' style='stroke-width: 1.07; stroke: #FFFFFF; fill: #FFFFFF;' />
<defs>
  <clipPath id='cpMjkuOTg5NnwxNjQuNTk5fDg2LjU3ODl8MjAuMDUyNw=='>
    <rect x='29.99' y='20.05' width='134.61' height='66.53' />
  </clipPath>
</defs>
<line x1='28.40' y1='25.82' x2='28.40' y2='25.82' style='stroke-width: 2.13; stroke: #F8766D; stroke-opacity: 0.60; stroke-linecap: butt;' clip-path='url(#cpMjkuOTg5NnwxNjQuNTk5fDg2LjU3ODl8MjAuMDUyNw==)' />
<line x1='33.70' y1='29.54' x2='33.70' y2='29.54' style='stroke-width: 2.13; stroke: #F8766D; stroke-opacity: 0.60; stroke-linecap: butt;' clip-path='url(#cpMjkuOTg5NnwxNjQuNTk5fDg2LjU3ODl8MjAuMDUyNw==)' />
<line x1='39.00' y1='32.58' x2='39.00' y2='32.58' style='stroke-width: 2.13; stroke: #F8766D; stroke-opacity: 0.60; stroke-linecap: butt;' clip-path='url(#cpMjkuOTg5NnwxNjQuNTk5fDg2LjU3ODl8MjAuMDUyNw==)' />
<line x1='44.30' y1='35.72' x2='44.30' y2='35.72' style='stroke-width: 2.13; stroke: #F8766D; stroke-opacity: 0.60; stroke-linecap: butt;' clip-path='url(#cpMjkuOTg5NnwxNjQuNTk5fDg2LjU3ODl8MjAuMDUyNw==)' />
<line x1='49.60' y1='40.01' x2='49.60' y2='40.01' style='stroke-width: 2.13; stroke: #F8766D; stroke-opacity: 0.60; stroke-linecap: butt;' clip-path='url(#cpMjkuOTg5NnwxNjQuNTk5fDg2LjU3ODl8MjAuMDUyNw==)' />
<line x1='54.90' y1='42.85' x2='54.90' y2='42.85' style='stroke-width: 2.13; stroke: #F8766D; stroke-opacity: 0.60; stroke-linecap: butt;' clip-path='url(#cpMjkuOTg5NnwxNjQuNTk5fDg2LjU3ODl8MjAuMDUyNw==)' />
<line x1='60.20' y1='44.58' x2='60.20' y2='44.58' style='stroke-width: 2.13; stroke: #F8766D; stroke-opacity: 0.60; stroke-linecap: butt;' clip-path='url(#cpMjkuOTg5NnwxNjQuNTk5fDg2LjU3ODl8MjAuMDUyNw==)' />
<line x1='65.50' y1='51.81' x2='65.50' y2='51.81' style='stroke-width: 2.13; stroke: #F8766D; stroke-opacity: 0.60; stroke-linecap: butt;' clip-path='url(#cpMjkuOTg5NnwxNjQuNTk5fDg2LjU3ODl8MjAuMDUyNw==)' />
<line x1='70.80' y1='54.06' x2='70.80' y2='54.06' style='stroke-width: 2.13; stroke: #F8766D; stroke-opacity: 0.60; stroke-linecap: butt;' clip-path='url(#cpMjkuOTg5NnwxNjQuNTk5fDg2LjU3ODl8MjAuMDUyNw==)' />
<line x1='76.10' y1='54.06' x2='76.10' y2='54.06' style='stroke-width: 2.13; stroke: #F8766D; stroke-opacity: 0.60; stroke-linecap: butt;' clip-path='url(#cpMjkuOTg5NnwxNjQuNTk5fDg2LjU3ODl8MjAuMDUyNw==)' />
<line x1='81.40' y1='86.58' x2='81.40' y2='86.58' style='stroke-width: 2.13; stroke: #F8766D; stroke-opacity: 0.60; stroke-linecap: butt;' clip-path='url(#cpMjkuOTg5NnwxNjQuNTk5fDg2LjU3ODl8MjAuMDUyNw==)' />
<line x1='86.70' y1='86.58' x2='86.70' y2='86.58' style='stroke-width: 2.13; stroke: #F8766D; stroke-opacity: 0.60; stroke-linecap: butt;' clip-path='url(#cpMjkuOTg5NnwxNjQuNTk5fDg2LjU3ODl8MjAuMDUyNw==)' />
<line x1='91.99' y1='86.58' x2='91.99' y2='86.58' style='stroke-width: 2.13; stroke: #F8766D; stroke-opacity: 0.60; stroke-linecap: butt;' clip-path='url(#cpMjkuOTg5NnwxNjQuNTk5fDg2LjU3ODl8MjAuMDUyNw==)' />
<line x1='97.29' y1='86.58' x2='97.29' y2='86.58' style='stroke-width: 2.13; stroke: #F8766D; stroke-opacity: 0.60; stroke-linecap: butt;' clip-path='url(#cpMjkuOTg5NnwxNjQuNTk5fDg2LjU3ODl8MjAuMDUyNw==)' />
<line x1='102.59' y1='86.58' x2='102.59' y2='86.58' style='stroke-width: 2.13; stroke: #F8766D; stroke-opacity: 0.60; stroke-linecap: butt;' clip-path='url(#cpMjkuOTg5NnwxNjQuNTk5fDg2LjU3ODl8MjAuMDUyNw==)' />
<line x1='107.89' y1='86.58' x2='107.89' y2='86.58' style='stroke-width: 2.13; stroke: #F8766D; stroke-opacity: 0.60; stroke-linecap: butt;' clip-path='url(#cpMjkuOTg5NnwxNjQuNTk5fDg2LjU3ODl8MjAuMDUyNw==)' />
<line x1='113.19' y1='86.58' x2='113.19' y2='86.58' style='stroke-width: 2.13; stroke: #F8766D; stroke-opacity: 0.60; stroke-linecap: butt;' clip-path='url(#cpMjkuOTg5NnwxNjQuNTk5fDg2LjU3ODl8MjAuMDUyNw==)' />
<line x1='118.49' y1='86.58' x2='118.49' y2='86.58' style='stroke-width: 2.13; stroke: #F8766D; stroke-opacity: 0.60; stroke-linecap: butt;' clip-path='url(#cpMjkuOTg5NnwxNjQuNTk5fDg2LjU3ODl8MjAuMDUyNw==)' />
<line x1='123.79' y1='86.58' x2='123.79' y2='86.58' style='stroke-width: 2.13; stroke: #F8766D; stroke-opacity: 0.60; stroke-linecap: butt;' clip-path='url(#cpMjkuOTg5NnwxNjQuNTk5fDg2LjU3ODl8MjAuMDUyNw==)' />
<line x1='129.09' y1='86.58' x2='129.09' y2='86.58' style='stroke-width: 2.13; stroke: #F8766D; stroke-opacity: 0.60; stroke-linecap: butt;' clip-path='url(#cpMjkuOTg5NnwxNjQuNTk5fDg2LjU3ODl8MjAuMDUyNw==)' />
<line x1='134.39' y1='86.58' x2='134.39' y2='86.58' style='stroke-width: 2.13; stroke: #F8766D; stroke-opacity: 0.60; stroke-linecap: butt;' clip-path='url(#cpMjkuOTg5NnwxNjQuNTk5fDg2LjU3ODl8MjAuMDUyNw==)' />
<line x1='139.69' y1='86.58' x2='139.69' y2='86.58' style='stroke-width: 2.13; stroke: #F8766D; stroke-opacity: 0.60; stroke-linecap: butt;' clip-path='url(#cpMjkuOTg5NnwxNjQuNTk5fDg2LjU3ODl8MjAuMDUyNw==)' />
<line x1='144.99' y1='86.58' x2='144.99' y2='86.58' style='stroke-width: 2.13; stroke: #F8766D; stroke-opacity: 0.60; stroke-linecap: butt;' clip-path='url(#cpMjkuOTg5NnwxNjQuNTk5fDg2LjU3ODl8MjAuMDUyNw==)' />
<line x1='150.29' y1='86.58' x2='150.29' y2='86.58' style='stroke-width: 2.13; stroke: #F8766D; stroke-opacity: 0.60; stroke-linecap: butt;' clip-path='url(#cpMjkuOTg5NnwxNjQuNTk5fDg2LjU3ODl8MjAuMDUyNw==)' />
<line x1='155.59' y1='86.58' x2='155.59' y2='86.58' style='stroke-width: 2.13; stroke: #F8766D; stroke-opacity: 0.60; stroke-linecap: butt;' clip-path='url(#cpMjkuOTg5NnwxNjQuNTk5fDg2LjU3ODl8MjAuMDUyNw==)' />
<line x1='160.89' y1='86.58' x2='160.89' y2='86.58' style='stroke-width: 2.13; stroke: #F8766D; stroke-opacity: 0.60; stroke-linecap: butt;' clip-path='url(#cpMjkuOTg5NnwxNjQuNTk5fDg2LjU3ODl8MjAuMDUyNw==)' />
<line x1='166.19' y1='86.58' x2='166.19' y2='86.58' style='stroke-width: 2.13; stroke: #F8766D; stroke-opacity: 0.60; stroke-linecap: butt;' clip-path='url(#cpMjkuOTg5NnwxNjQuNTk5fDg2LjU3ODl8MjAuMDUyNw==)' />
<line x1='28.40' y1='26.94' x2='28.40' y2='26.34' style='stroke-width: 2.13; stroke: #BEBEBE; stroke-opacity: 0.60; stroke-linecap: butt;' clip-path='url(#cpMjkuOTg5NnwxNjQuNTk5fDg2LjU3ODl8MjAuMDUyNw==)' />
<line x1='33.70' y1='31.04' x2='33.70' y2='30.11' style='stroke-width: 2.13; stroke: #BEBEBE; stroke-opacity: 0.60; stroke-linecap: butt;' clip-path='url(#cpMjkuOTg5NnwxNjQuNTk5fDg2LjU3ODl8MjAuMDUyNw==)' />
<line x1='39.00' y1='35.18' x2='39.00' y2='33.89' style='stroke-width: 2.13; stroke: #BEBEBE; stroke-opacity: 0.60; stroke-linecap: butt;' clip-path='url(#cpMjkuOTg5NnwxNjQuNTk5fDg2LjU3ODl8MjAuMDUyNw==)' />
<line x1='44.30' y1='39.31' x2='44.30' y2='37.66' style='stroke-width: 2.13; stroke: #BEBEBE; stroke-opacity: 0.60; stroke-linecap: butt;' clip-path='url(#cpMjkuOTg5NnwxNjQuNTk5fDg2LjU3ODl8MjAuMDUyNw==)' />
<line x1='49.60' y1='43.81' x2='49.60' y2='41.20' style='stroke-width: 2.13; stroke: #BEBEBE; stroke-opacity: 0.60; stroke-linecap: butt;' clip-path='url(#cpMjkuOTg5NnwxNjQuNTk5fDg2LjU3ODl8MjAuMDUyNw==)' />
<line x1='54.90' y1='48.78' x2='54.90' y2='44.83' style='stroke-width: 2.13; stroke: #BEBEBE; stroke-opacity: 0.60; stroke-linecap: butt;' clip-path='url(#cpMjkuOTg5NnwxNjQuNTk5fDg2LjU3ODl8MjAuMDUyNw==)' />
<line x1='60.20' y1='53.91' x2='60.20' y2='48.00' style='stroke-width: 2.13; stroke: #BEBEBE; stroke-opacity: 0.60; stroke-linecap: butt;' clip-path='url(#cpMjkuOTg5NnwxNjQuNTk5fDg2LjU3ODl8MjAuMDUyNw==)' />
<line x1='65.50' y1='60.15' x2='65.50' y2='51.54' style='stroke-width: 2.13; stroke: #BEBEBE; stroke-opacity: 0.60; stroke-linecap: butt;' clip-path='url(#cpMjkuOTg5NnwxNjQuNTk5fDg2LjU3ODl8MjAuMDUyNw==)' />
<line x1='70.80' y1='80.26' x2='70.80' y2='54.71' style='stroke-width: 2.13; stroke: #BEBEBE; stroke-opacity: 0.60; stroke-linecap: butt;' clip-path='url(#cpMjkuOTg5NnwxNjQuNTk5fDg2LjU3ODl8MjAuMDUyNw==)' />
<line x1='134.39' y1='86.58' x2='134.39' y2='86.58' style='stroke-width: 2.13; stroke: #BEBEBE; stroke-opacity: 0.60; stroke-linecap: butt;' clip-path='url(#cpMjkuOTg5NnwxNjQuNTk5fDg2LjU3ODl8MjAuMDUyNw==)' />
<line x1='139.69' y1='86.58' x2='139.69' y2='86.58' style='stroke-width: 2.13; stroke: #BEBEBE; stroke-opacity: 0.60; stroke-linecap: butt;' clip-path='url(#cpMjkuOTg5NnwxNjQuNTk5fDg2LjU3ODl8MjAuMDUyNw==)' />
<line x1='144.99' y1='86.58' x2='144.99' y2='86.58' style='stroke-width: 2.13; stroke: #BEBEBE; stroke-opacity: 0.60; stroke-linecap: butt;' clip-path='url(#cpMjkuOTg5NnwxNjQuNTk5fDg2LjU3ODl8MjAuMDUyNw==)' />
<line x1='150.29' y1='86.58' x2='150.29' y2='86.58' style='stroke-width: 2.13; stroke: #BEBEBE; stroke-opacity: 0.60; stroke-linecap: butt;' clip-path='url(#cpMjkuOTg5NnwxNjQuNTk5fDg2LjU3ODl8MjAuMDUyNw==)' />
<line x1='155.59' y1='86.58' x2='155.59' y2='86.58' style='stroke-width: 2.13; stroke: #BEBEBE; stroke-opacity: 0.60; stroke-linecap: butt;' clip-path='url(#cpMjkuOTg5NnwxNjQuNTk5fDg2LjU3ODl8MjAuMDUyNw==)' />
<line x1='160.89' y1='86.58' x2='160.89' y2='86.58' style='stroke-width: 2.13; stroke: #BEBEBE; stroke-opacity: 0.60; stroke-linecap: butt;' clip-path='url(#cpMjkuOTg5NnwxNjQuNTk5fDg2LjU3ODl8MjAuMDUyNw==)' />
<line x1='166.19' y1='86.58' x2='166.19' y2='86.58' style='stroke-width: 2.13; stroke: #BEBEBE; stroke-opacity: 0.60; stroke-linecap: butt;' clip-path='url(#cpMjkuOTg5NnwxNjQuNTk5fDg2LjU3ODl8MjAuMDUyNw==)' />
<line x1='28.40' y1='24.20' x2='28.40' y2='23.08' style='stroke-width: 2.13; stroke: #619CFF; stroke-opacity: 0.60; stroke-linecap: butt;' clip-path='url(#cpMjkuOTg5NnwxNjQuNTk5fDg2LjU3ODl8MjAuMDUyNw==)' />
<line x1='33.70' y1='27.41' x2='33.70' y2='26.16' style='stroke-width: 2.13; stroke: #619CFF; stroke-opacity: 0.60; stroke-linecap: butt;' clip-path='url(#cpMjkuOTg5NnwxNjQuNTk5fDg2LjU3ODl8MjAuMDUyNw==)' />
<line x1='39.00' y1='30.66' x2='39.00' y2='29.15' style='stroke-width: 2.13; stroke: #619CFF; stroke-opacity: 0.60; stroke-linecap: butt;' clip-path='url(#cpMjkuOTg5NnwxNjQuNTk5fDg2LjU3ODl8MjAuMDUyNw==)' />
<line x1='44.30' y1='34.02' x2='44.30' y2='32.08' style='stroke-width: 2.13; stroke: #619CFF; stroke-opacity: 0.60; stroke-linecap: butt;' clip-path='url(#cpMjkuOTg5NnwxNjQuNTk5fDg2LjU3ODl8MjAuMDUyNw==)' />
<line x1='49.60' y1='37.20' x2='49.60' y2='34.98' style='stroke-width: 2.13; stroke: #619CFF; stroke-opacity: 0.60; stroke-linecap: butt;' clip-path='url(#cpMjkuOTg5NnwxNjQuNTk5fDg2LjU3ODl8MjAuMDUyNw==)' />
<line x1='54.90' y1='40.36' x2='54.90' y2='37.60' style='stroke-width: 2.13; stroke: #619CFF; stroke-opacity: 0.60; stroke-linecap: butt;' clip-path='url(#cpMjkuOTg5NnwxNjQuNTk5fDg2LjU3ODl8MjAuMDUyNw==)' />
<line x1='60.20' y1='43.46' x2='60.20' y2='40.08' style='stroke-width: 2.13; stroke: #619CFF; stroke-opacity: 0.60; stroke-linecap: butt;' clip-path='url(#cpMjkuOTg5NnwxNjQuNTk5fDg2LjU3ODl8MjAuMDUyNw==)' />
<line x1='65.50' y1='46.76' x2='65.50' y2='42.47' style='stroke-width: 2.13; stroke: #619CFF; stroke-opacity: 0.60; stroke-linecap: butt;' clip-path='url(#cpMjkuOTg5NnwxNjQuNTk5fDg2LjU3ODl8MjAuMDUyNw==)' />
<line x1='70.80' y1='51.22' x2='70.80' y2='45.10' style='stroke-width: 2.13; stroke: #619CFF; stroke-opacity: 0.60; stroke-linecap: butt;' clip-path='url(#cpMjkuOTg5NnwxNjQuNTk5fDg2LjU3ODl8MjAuMDUyNw==)' />
<line x1='76.10' y1='55.18' x2='76.10' y2='47.68' style='stroke-width: 2.13; stroke: #619CFF; stroke-opacity: 0.60; stroke-linecap: butt;' clip-path='url(#cpMjkuOTg5NnwxNjQuNTk5fDg2LjU3ODl8MjAuMDUyNw==)' />
<line x1='81.40' y1='60.16' x2='81.40' y2='50.14' style='stroke-width: 2.13; stroke: #619CFF; stroke-opacity: 0.60; stroke-linecap: butt;' clip-path='url(#cpMjkuOTg5NnwxNjQuNTk5fDg2LjU3ODl8MjAuMDUyNw==)' />
<line x1='86.70' y1='62.96' x2='86.70' y2='52.04' style='stroke-width: 2.13; stroke: #619CFF; stroke-opacity: 0.60; stroke-linecap: butt;' clip-path='url(#cpMjkuOTg5NnwxNjQuNTk5fDg2LjU3ODl8MjAuMDUyNw==)' />
<line x1='160.89' y1='86.58' x2='160.89' y2='86.58' style='stroke-width: 2.13; stroke: #619CFF; stroke-opacity: 0.60; stroke-linecap: butt;' clip-path='url(#cpMjkuOTg5NnwxNjQuNTk5fDg2LjU3ODl8MjAuMDUyNw==)' />
<line x1='166.19' y1='86.58' x2='166.19' y2='86.58' style='stroke-width: 2.13; stroke: #619CFF; stroke-opacity: 0.60; stroke-linecap: butt;' clip-path='url(#cpMjkuOTg5NnwxNjQuNTk5fDg2LjU3ODl8MjAuMDUyNw==)' />
<polyline points='28.40,25.82 33.70,29.54 39.00,32.58 44.30,35.72 49.60,40.01 54.90,42.85 60.20,44.58 65.50,51.81 70.80,54.06 76.10,54.06 81.40,86.58 86.70,86.58 91.99,86.58 97.29,86.58 102.59,86.58 107.89,86.58 113.19,86.58 118.49,86.58 123.79,86.58 129.09,86.58 134.39,86.58 139.69,86.58 144.99,86.58 150.29,86.58 155.59,86.58 160.89,86.58 166.19,86.58 ' style='stroke-width: 1.49; stroke: #F8766D; stroke-linecap: butt;' clip-path='url(#cpMjkuOTg5NnwxNjQuNTk5fDg2LjU3ODl8MjAuMDUyNw==)' />
<polyline points='28.40,26.63 33.70,30.56 39.00,34.50 44.30,38.43 49.60,42.35 54.90,46.46 60.20,50.21 65.50,54.32 70.80,58.51 76.10,62.49 81.40,66.35 86.70,70.21 91.99,73.58 97.29,75.84 102.59,77.44 107.89,79.70 113.19,79.70 118.49,79.70 123.79,79.70 129.09,83.55 134.39,86.58 139.69,86.58 144.99,86.58 150.29,86.58 155.59,86.58 160.89,86.58 166.19,86.58 ' style='stroke-width: 1.49; stroke: #BEBEBE; stroke-linecap: butt;' clip-path='url(#cpMjkuOTg5NnwxNjQuNTk5fDg2LjU3ODl8MjAuMDUyNw==)' />
<polyline points='28.40,23.61 33.70,26.75 39.00,29.85 44.30,32.97 49.60,35.98 54.90,38.81 60.20,41.52 65.50,44.21 70.80,47.36 76.10,50.25 81.40,53.14 86.70,55.17 91.99,57.39 97.29,59.16 102.59,62.01 107.89,62.62 113.19,65.21 118.49,69.72 123.79,74.60 129.09,74.60 134.39,74.60 139.69,77.44 144.99,83.55 150.29,83.55 155.59,83.55 160.89,86.58 166.19,86.58 ' style='stroke-width: 1.49; stroke: #619CFF; stroke-linecap: butt;' clip-path='url(#cpMjkuOTg5NnwxNjQuNTk5fDg2LjU3ODl8MjAuMDUyNw==)' />
<defs>
  <clipPath id='cpMHwxNzAuMDc5fDExMy4zODZ8MA=='>
    <rect x='0.00' y='0.00' width='170.08' height='113.39' />
  </clipPath>
</defs>
<polyline points='29.99,86.58 29.99,20.05 ' style='stroke-width: 1.07; stroke-linecap: butt;' clip-path='url(#cpMHwxNzAuMDc5fDExMy4zODZ8MA==)' />
<g clip-path='url(#cpMHwxNzAuMDc5fDExMy4zODZ8MA==)'><text x='21.72' y='60.07' style='font-size: 5.60px; fill: #4D4D4D; font-family: Arial;' textLength='3.34px' lengthAdjust='spacingAndGlyphs'>1</text></g>
<g clip-path='url(#cpMHwxNzAuMDc5fDExMy4zODZ8MA==)'><text x='18.38' y='47.26' style='font-size: 5.60px; fill: #4D4D4D; font-family: Arial;' textLength='6.67px' lengthAdjust='spacingAndGlyphs'>10</text></g>
<g clip-path='url(#cpMHwxNzAuMDc5fDExMy4zODZ8MA==)'><text x='15.05' y='34.44' style='font-size: 5.60px; fill: #4D4D4D; font-family: Arial;' textLength='10.01px' lengthAdjust='spacingAndGlyphs'>100</text></g>
<polyline points='27.25,57.92 29.99,57.92 ' style='stroke-width: 1.07; stroke: #333333; stroke-linecap: butt;' clip-path='url(#cpMHwxNzAuMDc5fDExMy4zODZ8MA==)' />
<polyline points='27.25,45.11 29.99,45.11 ' style='stroke-width: 1.07; stroke: #333333; stroke-linecap: butt;' clip-path='url(#cpMHwxNzAuMDc5fDExMy4zODZ8MA==)' />
<polyline points='27.25,32.29 29.99,32.29 ' style='stroke-width: 1.07; stroke: #333333; stroke-linecap: butt;' clip-path='url(#cpMHwxNzAuMDc5fDExMy4zODZ8MA==)' />
<polyline points='29.99,86.58 164.60,86.58 ' style='stroke-width: 1.07; stroke-linecap: butt;' clip-path='url(#cpMHwxNzAuMDc5fDExMy4zODZ8MA==)' />
<polyline points='49.60,89.32 49.60,86.58 ' style='stroke-width: 1.07; stroke: #333333; stroke-linecap: butt;' clip-path='url(#cpMHwxNzAuMDc5fDExMy4zODZ8MA==)' />
<polyline points='76.10,89.32 76.10,86.58 ' style='stroke-width: 1.07; stroke: #333333; stroke-linecap: butt;' clip-path='url(#cpMHwxNzAuMDc5fDExMy4zODZ8MA==)' />
<polyline points='102.59,89.32 102.59,86.58 ' style='stroke-width: 1.07; stroke: #333333; stroke-linecap: butt;' clip-path='url(#cpMHwxNzAuMDc5fDExMy4zODZ8MA==)' />
<polyline points='129.09,89.32 129.09,86.58 ' style='stroke-width: 1.07; stroke: #333333; stroke-linecap: butt;' clip-path='url(#cpMHwxNzAuMDc5fDExMy4zODZ8MA==)' />
<polyline points='155.59,89.32 155.59,86.58 ' style='stroke-width: 1.07; stroke: #333333; stroke-linecap: butt;' clip-path='url(#cpMHwxNzAuMDc5fDExMy4zODZ8MA==)' />
<g clip-path='url(#cpMHwxNzAuMDc5fDExMy4zODZ8MA==)'><text x='46.26' y='95.81' style='font-size: 5.60px; fill: #4D4D4D; font-family: Arial;' textLength='6.67px' lengthAdjust='spacingAndGlyphs'>10</text></g>
<g clip-path='url(#cpMHwxNzAuMDc5fDExMy4zODZ8MA==)'><text x='72.76' y='95.81' style='font-size: 5.60px; fill: #4D4D4D; font-family: Arial;' textLength='6.67px' lengthAdjust='spacingAndGlyphs'>15</text></g>
<g clip-path='url(#cpMHwxNzAuMDc5fDExMy4zODZ8MA==)'><text x='99.26' y='95.81' style='font-size: 5.60px; fill: #4D4D4D; font-family: Arial;' textLength='6.67px' lengthAdjust='spacingAndGlyphs'>20</text></g>
<g clip-path='url(#cpMHwxNzAuMDc5fDExMy4zODZ8MA==)'><text x='125.76' y='95.81' style='font-size: 5.60px; fill: #4D4D4D; font-family: Arial;' textLength='6.67px' lengthAdjust='spacingAndGlyphs'>25</text></g>
<g clip-path='url(#cpMHwxNzAuMDc5fDExMy4zODZ8MA==)'><text x='152.25' y='95.81' style='font-size: 5.60px; fill: #4D4D4D; font-family: Arial;' textLength='6.67px' lengthAdjust='spacingAndGlyphs'>30</text></g>
<g clip-path='url(#cpMHwxNzAuMDc5fDExMy4zODZ8MA==)'><text x='62.78' y='105.38' style='font-size: 6.00px; font-family: Arial;' textLength='69.03px' lengthAdjust='spacingAndGlyphs'>Motive repetitions (length)</text></g>
<g clip-path='url(#cpMHwxNzAuMDc5fDExMy4zODZ8MA==)'><text transform='translate(9.78,83.83) rotate(-90)' style='font-size: 6.00px; font-family: Arial;' textLength='61.02px' lengthAdjust='spacingAndGlyphs'>Motive occurrences (#)</text></g>
<line x1='80.96' y1='24.79' x2='94.79' y2='24.79' style='stroke-width: 1.49; stroke: #F8766D; stroke-linecap: butt;' clip-path='url(#cpMHwxNzAuMDc5fDExMy4zODZ8MA==)' />
<line x1='80.96' y1='31.61' x2='94.79' y2='31.61' style='stroke-width: 1.49; stroke: #BEBEBE; stroke-linecap: butt;' clip-path='url(#cpMHwxNzAuMDc5fDExMy4zODZ8MA==)' />
<line x1='80.96' y1='38.44' x2='94.79' y2='38.44' style='stroke-width: 1.49; stroke: #619CFF; stroke-linecap: butt;' clip-path='url(#cpMHwxNzAuMDc5fDExMy4zODZ8MA==)' />
<g clip-path='url(#cpMHwxNzAuMDc5fDExMy4zODZ8MA==)'><text x='99.50' y='26.93' style='font-size: 5.60px; font-family: Arial;' textLength='69.69px' lengthAdjust='spacingAndGlyphs'>RNAs enriched in vesicles</text></g>
<g clip-path='url(#cpMHwxNzAuMDc5fDExMy4zODZ8MA==)'><text x='99.50' y='33.76' style='font-size: 5.60px; font-family: Arial;' textLength='53.37px' lengthAdjust='spacingAndGlyphs'>Random sequences</text></g>
<g clip-path='url(#cpMHwxNzAuMDc5fDExMy4zODZ8MA==)'><text x='99.50' y='40.59' style='font-size: 5.60px; font-family: Arial;' textLength='64.70px' lengthAdjust='spacingAndGlyphs'>Random genes samples</text></g>
<g clip-path='url(#cpMHwxNzAuMDc5fDExMy4zODZ8MA==)'><text x='35.62' y='10.57' style='font-size: 7.20px; font-family: Arial;' textLength='64.17px' lengthAdjust='spacingAndGlyphs'>([ATGC][AT][ATGC])</text></g>
<g clip-path='url(#cpMHwxNzAuMDc5fDExMy4zODZ8MA==)'><text x='99.79' y='11.84' style='font-size: 5.04px; font-family: Arial;' textLength='2.78px' lengthAdjust='spacingAndGlyphs'>n</text></g>
<g clip-path='url(#cpMHwxNzAuMDc5fDExMy4zODZ8MA==)'><text x='102.57' y='10.57' style='font-size: 7.20px; font-family: Cambria;' textLength='1.54px' lengthAdjust='spacingAndGlyphs'> </text></g>
<g clip-path='url(#cpMHwxNzAuMDc5fDExMy4zODZ8MA==)'><text x='104.11' y='10.57' style='font-size: 7.20px; font-family: Arial;' textLength='54.86px' lengthAdjust='spacingAndGlyphs'>motive repetitions</text></g>
</svg>
