<?xml version='1.0' encoding='UTF-8' ?>
<svg xmlns='http://www.w3.org/2000/svg' xmlns:xlink='http://www.w3.org/1999/xlink' viewBox='0 0 170.08 113.39'>
<defs>
  <style type='text/css'><![CDATA[
    line, polyline, path, rect, circle {
      fill: none;
      stroke: #000000;
      stroke-linecap: round;
      stroke-linejoin: round;
      stroke-miterlimit: 10.00;
    }
  ]]></style>
</defs>
<rect width='100%' height='100%' style='stroke: none; fill: #FFFFFF;'/>
<rect x='0.00' y='0.00' width='170.08' height='113.39' style='stroke-width: 1.07; stroke: #FFFFFF; fill: #FFFFFF;' />
<defs>
  <clipPath id='cpMzMuMzI2NXwxNjQuNTk5fDg2LjU3ODl8MjAuMDUyNw=='>
    <rect x='33.33' y='20.05' width='131.27' height='66.53' />
  </clipPath>
</defs>
<line x1='31.78' y1='25.33' x2='31.78' y2='25.33' style='stroke-width: 2.13; stroke: #F8766D; stroke-opacity: 0.60; stroke-linecap: butt;' clip-path='url(#cpMzMuMzI2NXwxNjQuNTk5fDg2LjU3ODl8MjAuMDUyNw==)' />
<line x1='36.94' y1='28.19' x2='36.94' y2='28.19' style='stroke-width: 2.13; stroke: #F8766D; stroke-opacity: 0.60; stroke-linecap: butt;' clip-path='url(#cpMzMuMzI2NXwxNjQuNTk5fDg2LjU3ODl8MjAuMDUyNw==)' />
<line x1='42.11' y1='30.92' x2='42.11' y2='30.92' style='stroke-width: 2.13; stroke: #F8766D; stroke-opacity: 0.60; stroke-linecap: butt;' clip-path='url(#cpMzMuMzI2NXwxNjQuNTk5fDg2LjU3ODl8MjAuMDUyNw==)' />
<line x1='47.28' y1='33.68' x2='47.28' y2='33.68' style='stroke-width: 2.13; stroke: #F8766D; stroke-opacity: 0.60; stroke-linecap: butt;' clip-path='url(#cpMzMuMzI2NXwxNjQuNTk5fDg2LjU3ODl8MjAuMDUyNw==)' />
<line x1='52.45' y1='36.83' x2='52.45' y2='36.83' style='stroke-width: 2.13; stroke: #F8766D; stroke-opacity: 0.60; stroke-linecap: butt;' clip-path='url(#cpMzMuMzI2NXwxNjQuNTk5fDg2LjU3ODl8MjAuMDUyNw==)' />
<line x1='57.62' y1='39.31' x2='57.62' y2='39.31' style='stroke-width: 2.13; stroke: #F8766D; stroke-opacity: 0.60; stroke-linecap: butt;' clip-path='url(#cpMzMuMzI2NXwxNjQuNTk5fDg2LjU3ODl8MjAuMDUyNw==)' />
<line x1='62.79' y1='42.21' x2='62.79' y2='42.21' style='stroke-width: 2.13; stroke: #F8766D; stroke-opacity: 0.60; stroke-linecap: butt;' clip-path='url(#cpMzMuMzI2NXwxNjQuNTk5fDg2LjU3ODl8MjAuMDUyNw==)' />
<line x1='67.95' y1='45.80' x2='67.95' y2='45.80' style='stroke-width: 2.13; stroke: #F8766D; stroke-opacity: 0.60; stroke-linecap: butt;' clip-path='url(#cpMzMuMzI2NXwxNjQuNTk5fDg2LjU3ODl8MjAuMDUyNw==)' />
<line x1='73.12' y1='48.49' x2='73.12' y2='48.49' style='stroke-width: 2.13; stroke: #F8766D; stroke-opacity: 0.60; stroke-linecap: butt;' clip-path='url(#cpMzMuMzI2NXwxNjQuNTk5fDg2LjU3ODl8MjAuMDUyNw==)' />
<line x1='78.29' y1='51.53' x2='78.29' y2='51.53' style='stroke-width: 2.13; stroke: #F8766D; stroke-opacity: 0.60; stroke-linecap: butt;' clip-path='url(#cpMzMuMzI2NXwxNjQuNTk5fDg2LjU3ODl8MjAuMDUyNw==)' />
<line x1='83.46' y1='55.53' x2='83.46' y2='55.53' style='stroke-width: 2.13; stroke: #F8766D; stroke-opacity: 0.60; stroke-linecap: butt;' clip-path='url(#cpMzMuMzI2NXwxNjQuNTk5fDg2LjU3ODl8MjAuMDUyNw==)' />
<line x1='88.63' y1='55.53' x2='88.63' y2='55.53' style='stroke-width: 2.13; stroke: #F8766D; stroke-opacity: 0.60; stroke-linecap: butt;' clip-path='url(#cpMzMuMzI2NXwxNjQuNTk5fDg2LjU3ODl8MjAuMDUyNw==)' />
<line x1='93.79' y1='56.66' x2='93.79' y2='56.66' style='stroke-width: 2.13; stroke: #F8766D; stroke-opacity: 0.60; stroke-linecap: butt;' clip-path='url(#cpMzMuMzI2NXwxNjQuNTk5fDg2LjU3ODl8MjAuMDUyNw==)' />
<line x1='98.96' y1='58.12' x2='98.96' y2='58.12' style='stroke-width: 2.13; stroke: #F8766D; stroke-opacity: 0.60; stroke-linecap: butt;' clip-path='url(#cpMzMuMzI2NXwxNjQuNTk5fDg2LjU3ODl8MjAuMDUyNw==)' />
<line x1='104.13' y1='60.18' x2='104.13' y2='60.18' style='stroke-width: 2.13; stroke: #F8766D; stroke-opacity: 0.60; stroke-linecap: butt;' clip-path='url(#cpMzMuMzI2NXwxNjQuNTk5fDg2LjU3ODl8MjAuMDUyNw==)' />
<line x1='109.30' y1='63.70' x2='109.30' y2='63.70' style='stroke-width: 2.13; stroke: #F8766D; stroke-opacity: 0.60; stroke-linecap: butt;' clip-path='url(#cpMzMuMzI2NXwxNjQuNTk5fDg2LjU3ODl8MjAuMDUyNw==)' />
<line x1='114.47' y1='86.58' x2='114.47' y2='86.58' style='stroke-width: 2.13; stroke: #F8766D; stroke-opacity: 0.60; stroke-linecap: butt;' clip-path='url(#cpMzMuMzI2NXwxNjQuNTk5fDg2LjU3ODl8MjAuMDUyNw==)' />
<line x1='119.64' y1='86.58' x2='119.64' y2='86.58' style='stroke-width: 2.13; stroke: #F8766D; stroke-opacity: 0.60; stroke-linecap: butt;' clip-path='url(#cpMzMuMzI2NXwxNjQuNTk5fDg2LjU3ODl8MjAuMDUyNw==)' />
<line x1='124.80' y1='86.58' x2='124.80' y2='86.58' style='stroke-width: 2.13; stroke: #F8766D; stroke-opacity: 0.60; stroke-linecap: butt;' clip-path='url(#cpMzMuMzI2NXwxNjQuNTk5fDg2LjU3ODl8MjAuMDUyNw==)' />
<line x1='129.97' y1='86.58' x2='129.97' y2='86.58' style='stroke-width: 2.13; stroke: #F8766D; stroke-opacity: 0.60; stroke-linecap: butt;' clip-path='url(#cpMzMuMzI2NXwxNjQuNTk5fDg2LjU3ODl8MjAuMDUyNw==)' />
<line x1='135.14' y1='86.58' x2='135.14' y2='86.58' style='stroke-width: 2.13; stroke: #F8766D; stroke-opacity: 0.60; stroke-linecap: butt;' clip-path='url(#cpMzMuMzI2NXwxNjQuNTk5fDg2LjU3ODl8MjAuMDUyNw==)' />
<line x1='140.31' y1='86.58' x2='140.31' y2='86.58' style='stroke-width: 2.13; stroke: #F8766D; stroke-opacity: 0.60; stroke-linecap: butt;' clip-path='url(#cpMzMuMzI2NXwxNjQuNTk5fDg2LjU3ODl8MjAuMDUyNw==)' />
<line x1='145.48' y1='86.58' x2='145.48' y2='86.58' style='stroke-width: 2.13; stroke: #F8766D; stroke-opacity: 0.60; stroke-linecap: butt;' clip-path='url(#cpMzMuMzI2NXwxNjQuNTk5fDg2LjU3ODl8MjAuMDUyNw==)' />
<line x1='150.65' y1='86.58' x2='150.65' y2='86.58' style='stroke-width: 2.13; stroke: #F8766D; stroke-opacity: 0.60; stroke-linecap: butt;' clip-path='url(#cpMzMuMzI2NXwxNjQuNTk5fDg2LjU3ODl8MjAuMDUyNw==)' />
<line x1='155.81' y1='86.58' x2='155.81' y2='86.58' style='stroke-width: 2.13; stroke: #F8766D; stroke-opacity: 0.60; stroke-linecap: butt;' clip-path='url(#cpMzMuMzI2NXwxNjQuNTk5fDg2LjU3ODl8MjAuMDUyNw==)' />
<line x1='160.98' y1='86.58' x2='160.98' y2='86.58' style='stroke-width: 2.13; stroke: #F8766D; stroke-opacity: 0.60; stroke-linecap: butt;' clip-path='url(#cpMzMuMzI2NXwxNjQuNTk5fDg2LjU3ODl8MjAuMDUyNw==)' />
<line x1='166.15' y1='86.58' x2='166.15' y2='86.58' style='stroke-width: 2.13; stroke: #F8766D; stroke-opacity: 0.60; stroke-linecap: butt;' clip-path='url(#cpMzMuMzI2NXwxNjQuNTk5fDg2LjU3ODl8MjAuMDUyNw==)' />
<line x1='31.78' y1='26.50' x2='31.78' y2='26.26' style='stroke-width: 2.13; stroke: #BEBEBE; stroke-opacity: 0.60; stroke-linecap: butt;' clip-path='url(#cpMzMuMzI2NXwxNjQuNTk5fDg2LjU3ODl8MjAuMDUyNw==)' />
<line x1='36.94' y1='30.08' x2='36.94' y2='29.75' style='stroke-width: 2.13; stroke: #BEBEBE; stroke-opacity: 0.60; stroke-linecap: butt;' clip-path='url(#cpMzMuMzI2NXwxNjQuNTk5fDg2LjU3ODl8MjAuMDUyNw==)' />
<line x1='42.11' y1='33.73' x2='42.11' y2='33.21' style='stroke-width: 2.13; stroke: #BEBEBE; stroke-opacity: 0.60; stroke-linecap: butt;' clip-path='url(#cpMzMuMzI2NXwxNjQuNTk5fDg2LjU3ODl8MjAuMDUyNw==)' />
<line x1='47.28' y1='37.49' x2='47.28' y2='36.75' style='stroke-width: 2.13; stroke: #BEBEBE; stroke-opacity: 0.60; stroke-linecap: butt;' clip-path='url(#cpMzMuMzI2NXwxNjQuNTk5fDg2LjU3ODl8MjAuMDUyNw==)' />
<line x1='52.45' y1='41.34' x2='52.45' y2='40.19' style='stroke-width: 2.13; stroke: #BEBEBE; stroke-opacity: 0.60; stroke-linecap: butt;' clip-path='url(#cpMzMuMzI2NXwxNjQuNTk5fDg2LjU3ODl8MjAuMDUyNw==)' />
<line x1='57.62' y1='45.30' x2='57.62' y2='43.71' style='stroke-width: 2.13; stroke: #BEBEBE; stroke-opacity: 0.60; stroke-linecap: butt;' clip-path='url(#cpMzMuMzI2NXwxNjQuNTk5fDg2LjU3ODl8MjAuMDUyNw==)' />
<line x1='62.79' y1='49.39' x2='62.79' y2='47.27' style='stroke-width: 2.13; stroke: #BEBEBE; stroke-opacity: 0.60; stroke-linecap: butt;' clip-path='url(#cpMzMuMzI2NXwxNjQuNTk5fDg2LjU3ODl8MjAuMDUyNw==)' />
<line x1='67.95' y1='53.73' x2='67.95' y2='50.68' style='stroke-width: 2.13; stroke: #BEBEBE; stroke-opacity: 0.60; stroke-linecap: butt;' clip-path='url(#cpMzMuMzI2NXwxNjQuNTk5fDg2LjU3ODl8MjAuMDUyNw==)' />
<line x1='73.12' y1='58.64' x2='73.12' y2='54.10' style='stroke-width: 2.13; stroke: #BEBEBE; stroke-opacity: 0.60; stroke-linecap: butt;' clip-path='url(#cpMzMuMzI2NXwxNjQuNTk5fDg2LjU3ODl8MjAuMDUyNw==)' />
<line x1='78.29' y1='64.26' x2='78.29' y2='56.94' style='stroke-width: 2.13; stroke: #BEBEBE; stroke-opacity: 0.60; stroke-linecap: butt;' clip-path='url(#cpMzMuMzI2NXwxNjQuNTk5fDg2LjU3ODl8MjAuMDUyNw==)' />
<line x1='83.46' y1='73.78' x2='83.46' y2='60.38' style='stroke-width: 2.13; stroke: #BEBEBE; stroke-opacity: 0.60; stroke-linecap: butt;' clip-path='url(#cpMzMuMzI2NXwxNjQuNTk5fDg2LjU3ODl8MjAuMDUyNw==)' />
<line x1='114.47' y1='86.58' x2='114.47' y2='86.58' style='stroke-width: 2.13; stroke: #BEBEBE; stroke-opacity: 0.60; stroke-linecap: butt;' clip-path='url(#cpMzMuMzI2NXwxNjQuNTk5fDg2LjU3ODl8MjAuMDUyNw==)' />
<line x1='119.64' y1='86.58' x2='119.64' y2='86.58' style='stroke-width: 2.13; stroke: #BEBEBE; stroke-opacity: 0.60; stroke-linecap: butt;' clip-path='url(#cpMzMuMzI2NXwxNjQuNTk5fDg2LjU3ODl8MjAuMDUyNw==)' />
<line x1='124.80' y1='86.58' x2='124.80' y2='86.58' style='stroke-width: 2.13; stroke: #BEBEBE; stroke-opacity: 0.60; stroke-linecap: butt;' clip-path='url(#cpMzMuMzI2NXwxNjQuNTk5fDg2LjU3ODl8MjAuMDUyNw==)' />
<line x1='129.97' y1='86.58' x2='129.97' y2='86.58' style='stroke-width: 2.13; stroke: #BEBEBE; stroke-opacity: 0.60; stroke-linecap: butt;' clip-path='url(#cpMzMuMzI2NXwxNjQuNTk5fDg2LjU3ODl8MjAuMDUyNw==)' />
<line x1='135.14' y1='86.58' x2='135.14' y2='86.58' style='stroke-width: 2.13; stroke: #BEBEBE; stroke-opacity: 0.60; stroke-linecap: butt;' clip-path='url(#cpMzMuMzI2NXwxNjQuNTk5fDg2LjU3ODl8MjAuMDUyNw==)' />
<line x1='140.31' y1='86.58' x2='140.31' y2='86.58' style='stroke-width: 2.13; stroke: #BEBEBE; stroke-opacity: 0.60; stroke-linecap: butt;' clip-path='url(#cpMzMuMzI2NXwxNjQuNTk5fDg2LjU3ODl8MjAuMDUyNw==)' />
<line x1='145.48' y1='86.58' x2='145.48' y2='86.58' style='stroke-width: 2.13; stroke: #BEBEBE; stroke-opacity: 0.60; stroke-linecap: butt;' clip-path='url(#cpMzMuMzI2NXwxNjQuNTk5fDg2LjU3ODl8MjAuMDUyNw==)' />
<line x1='150.65' y1='86.58' x2='150.65' y2='86.58' style='stroke-width: 2.13; stroke: #BEBEBE; stroke-opacity: 0.60; stroke-linecap: butt;' clip-path='url(#cpMzMuMzI2NXwxNjQuNTk5fDg2LjU3ODl8MjAuMDUyNw==)' />
<line x1='155.81' y1='86.58' x2='155.81' y2='86.58' style='stroke-width: 2.13; stroke: #BEBEBE; stroke-opacity: 0.60; stroke-linecap: butt;' clip-path='url(#cpMzMuMzI2NXwxNjQuNTk5fDg2LjU3ODl8MjAuMDUyNw==)' />
<line x1='160.98' y1='86.58' x2='160.98' y2='86.58' style='stroke-width: 2.13; stroke: #BEBEBE; stroke-opacity: 0.60; stroke-linecap: butt;' clip-path='url(#cpMzMuMzI2NXwxNjQuNTk5fDg2LjU3ODl8MjAuMDUyNw==)' />
<line x1='166.15' y1='86.58' x2='166.15' y2='86.58' style='stroke-width: 2.13; stroke: #BEBEBE; stroke-opacity: 0.60; stroke-linecap: butt;' clip-path='url(#cpMzMuMzI2NXwxNjQuNTk5fDg2LjU3ODl8MjAuMDUyNw==)' />
<line x1='31.78' y1='23.48' x2='31.78' y2='23.08' style='stroke-width: 2.13; stroke: #619CFF; stroke-opacity: 0.60; stroke-linecap: butt;' clip-path='url(#cpMzMuMzI2NXwxNjQuNTk5fDg2LjU3ODl8MjAuMDUyNw==)' />
<line x1='36.94' y1='26.38' x2='36.94' y2='25.93' style='stroke-width: 2.13; stroke: #619CFF; stroke-opacity: 0.60; stroke-linecap: butt;' clip-path='url(#cpMzMuMzI2NXwxNjQuNTk5fDg2LjU3ODl8MjAuMDUyNw==)' />
<line x1='42.11' y1='29.22' x2='42.11' y2='28.74' style='stroke-width: 2.13; stroke: #619CFF; stroke-opacity: 0.60; stroke-linecap: butt;' clip-path='url(#cpMzMuMzI2NXwxNjQuNTk5fDg2LjU3ODl8MjAuMDUyNw==)' />
<line x1='47.28' y1='32.12' x2='47.28' y2='31.53' style='stroke-width: 2.13; stroke: #619CFF; stroke-opacity: 0.60; stroke-linecap: butt;' clip-path='url(#cpMzMuMzI2NXwxNjQuNTk5fDg2LjU3ODl8MjAuMDUyNw==)' />
<line x1='52.45' y1='35.02' x2='52.45' y2='34.25' style='stroke-width: 2.13; stroke: #619CFF; stroke-opacity: 0.60; stroke-linecap: butt;' clip-path='url(#cpMzMuMzI2NXwxNjQuNTk5fDg2LjU3ODl8MjAuMDUyNw==)' />
<line x1='57.62' y1='37.79' x2='57.62' y2='36.83' style='stroke-width: 2.13; stroke: #619CFF; stroke-opacity: 0.60; stroke-linecap: butt;' clip-path='url(#cpMzMuMzI2NXwxNjQuNTk5fDg2LjU3ODl8MjAuMDUyNw==)' />
<line x1='62.79' y1='40.57' x2='62.79' y2='39.36' style='stroke-width: 2.13; stroke: #619CFF; stroke-opacity: 0.60; stroke-linecap: butt;' clip-path='url(#cpMzMuMzI2NXwxNjQuNTk5fDg2LjU3ODl8MjAuMDUyNw==)' />
<line x1='67.95' y1='43.19' x2='67.95' y2='41.78' style='stroke-width: 2.13; stroke: #619CFF; stroke-opacity: 0.60; stroke-linecap: butt;' clip-path='url(#cpMzMuMzI2NXwxNjQuNTk5fDg2LjU3ODl8MjAuMDUyNw==)' />
<line x1='73.12' y1='46.14' x2='73.12' y2='44.24' style='stroke-width: 2.13; stroke: #619CFF; stroke-opacity: 0.60; stroke-linecap: butt;' clip-path='url(#cpMzMuMzI2NXwxNjQuNTk5fDg2LjU3ODl8MjAuMDUyNw==)' />
<line x1='78.29' y1='49.30' x2='78.29' y2='46.74' style='stroke-width: 2.13; stroke: #619CFF; stroke-opacity: 0.60; stroke-linecap: butt;' clip-path='url(#cpMzMuMzI2NXwxNjQuNTk5fDg2LjU3ODl8MjAuMDUyNw==)' />
<line x1='83.46' y1='52.43' x2='83.46' y2='49.32' style='stroke-width: 2.13; stroke: #619CFF; stroke-opacity: 0.60; stroke-linecap: butt;' clip-path='url(#cpMzMuMzI2NXwxNjQuNTk5fDg2LjU3ODl8MjAuMDUyNw==)' />
<line x1='88.63' y1='54.37' x2='88.63' y2='51.08' style='stroke-width: 2.13; stroke: #619CFF; stroke-opacity: 0.60; stroke-linecap: butt;' clip-path='url(#cpMzMuMzI2NXwxNjQuNTk5fDg2LjU3ODl8MjAuMDUyNw==)' />
<line x1='93.79' y1='57.21' x2='93.79' y2='52.99' style='stroke-width: 2.13; stroke: #619CFF; stroke-opacity: 0.60; stroke-linecap: butt;' clip-path='url(#cpMzMuMzI2NXwxNjQuNTk5fDg2LjU3ODl8MjAuMDUyNw==)' />
<line x1='98.96' y1='60.07' x2='98.96' y2='54.57' style='stroke-width: 2.13; stroke: #619CFF; stroke-opacity: 0.60; stroke-linecap: butt;' clip-path='url(#cpMzMuMzI2NXwxNjQuNTk5fDg2LjU3ODl8MjAuMDUyNw==)' />
<line x1='104.13' y1='65.29' x2='104.13' y2='57.07' style='stroke-width: 2.13; stroke: #619CFF; stroke-opacity: 0.60; stroke-linecap: butt;' clip-path='url(#cpMzMuMzI2NXwxNjQuNTk5fDg2LjU3ODl8MjAuMDUyNw==)' />
<line x1='109.30' y1='67.41' x2='109.30' y2='57.83' style='stroke-width: 2.13; stroke: #619CFF; stroke-opacity: 0.60; stroke-linecap: butt;' clip-path='url(#cpMzMuMzI2NXwxNjQuNTk5fDg2LjU3ODl8MjAuMDUyNw==)' />
<line x1='114.47' y1='74.40' x2='114.47' y2='59.75' style='stroke-width: 2.13; stroke: #619CFF; stroke-opacity: 0.60; stroke-linecap: butt;' clip-path='url(#cpMzMuMzI2NXwxNjQuNTk5fDg2LjU3ODl8MjAuMDUyNw==)' />
<line x1='160.98' y1='86.58' x2='160.98' y2='86.58' style='stroke-width: 2.13; stroke: #619CFF; stroke-opacity: 0.60; stroke-linecap: butt;' clip-path='url(#cpMzMuMzI2NXwxNjQuNTk5fDg2LjU3ODl8MjAuMDUyNw==)' />
<line x1='166.15' y1='86.58' x2='166.15' y2='86.58' style='stroke-width: 2.13; stroke: #619CFF; stroke-opacity: 0.60; stroke-linecap: butt;' clip-path='url(#cpMzMuMzI2NXwxNjQuNTk5fDg2LjU3ODl8MjAuMDUyNw==)' />
<polyline points='31.78,25.33 36.94,28.19 42.11,30.92 47.28,33.68 52.45,36.83 57.62,39.31 62.79,42.21 67.95,45.80 73.12,48.49 78.29,51.53 83.46,55.53 88.63,55.53 93.79,56.66 98.96,58.12 104.13,60.18 109.30,63.70 114.47,86.58 119.64,86.58 124.80,86.58 129.97,86.58 135.14,86.58 140.31,86.58 145.48,86.58 150.65,86.58 155.81,86.58 160.98,86.58 166.15,86.58 ' style='stroke-width: 1.49; stroke: #F8766D; stroke-linecap: butt;' clip-path='url(#cpMzMuMzI2NXwxNjQuNTk5fDg2LjU3ODl8MjAuMDUyNw==)' />
<polyline points='31.78,26.37 36.94,29.91 42.11,33.46 47.28,37.11 52.45,40.73 57.62,44.44 62.79,48.22 67.95,51.98 73.12,55.87 78.29,59.38 83.46,63.55 88.63,66.64 93.79,70.94 98.96,74.46 104.13,80.04 109.30,83.55 114.47,86.58 119.64,86.58 124.80,86.58 129.97,86.58 135.14,86.58 140.31,86.58 145.48,86.58 150.65,86.58 155.81,86.58 160.98,86.58 166.15,86.58 ' style='stroke-width: 1.49; stroke: #BEBEBE; stroke-linecap: butt;' clip-path='url(#cpMzMuMzI2NXwxNjQuNTk5fDg2LjU3ODl8MjAuMDUyNw==)' />
<polyline points='31.78,23.27 36.94,26.15 42.11,28.98 47.28,31.81 52.45,34.62 57.62,37.29 62.79,39.93 67.95,42.44 73.12,45.10 78.29,47.86 83.46,50.64 88.63,52.47 93.79,54.67 98.96,56.61 104.13,59.67 109.30,60.63 114.47,62.99 119.64,65.37 124.80,67.75 129.97,68.61 135.14,68.61 140.31,70.54 145.48,74.46 150.65,74.46 155.81,74.46 160.98,86.58 166.15,86.58 ' style='stroke-width: 1.49; stroke: #619CFF; stroke-linecap: butt;' clip-path='url(#cpMzMuMzI2NXwxNjQuNTk5fDg2LjU3ODl8MjAuMDUyNw==)' />
<defs>
  <clipPath id='cpMHwxNzAuMDc5fDExMy4zODZ8MA=='>
    <rect x='0.00' y='0.00' width='170.08' height='113.39' />
  </clipPath>
</defs>
<polyline points='33.33,86.58 33.33,20.05 ' style='stroke-width: 1.07; stroke-linecap: butt;' clip-path='url(#cpMHwxNzAuMDc5fDExMy4zODZ8MA==)' />
<g clip-path='url(#cpMHwxNzAuMDc5fDExMy4zODZ8MA==)'><text x='25.06' y='65.85' style='font-size: 5.60px; fill: #4D4D4D; font-family: Arial;' textLength='3.34px' lengthAdjust='spacingAndGlyphs'>1</text></g>
<g clip-path='url(#cpMHwxNzAuMDc5fDExMy4zODZ8MA==)'><text x='21.72' y='54.16' style='font-size: 5.60px; fill: #4D4D4D; font-family: Arial;' textLength='6.67px' lengthAdjust='spacingAndGlyphs'>10</text></g>
<g clip-path='url(#cpMHwxNzAuMDc5fDExMy4zODZ8MA==)'><text x='18.38' y='42.47' style='font-size: 5.60px; fill: #4D4D4D; font-family: Arial;' textLength='10.01px' lengthAdjust='spacingAndGlyphs'>100</text></g>
<g clip-path='url(#cpMHwxNzAuMDc5fDExMy4zODZ8MA==)'><text x='15.05' y='30.78' style='font-size: 5.60px; fill: #4D4D4D; font-family: Arial;' textLength='13.35px' lengthAdjust='spacingAndGlyphs'>1000</text></g>
<polyline points='30.59,63.70 33.33,63.70 ' style='stroke-width: 1.07; stroke: #333333; stroke-linecap: butt;' clip-path='url(#cpMHwxNzAuMDc5fDExMy4zODZ8MA==)' />
<polyline points='30.59,52.01 33.33,52.01 ' style='stroke-width: 1.07; stroke: #333333; stroke-linecap: butt;' clip-path='url(#cpMHwxNzAuMDc5fDExMy4zODZ8MA==)' />
<polyline points='30.59,40.32 33.33,40.32 ' style='stroke-width: 1.07; stroke: #333333; stroke-linecap: butt;' clip-path='url(#cpMHwxNzAuMDc5fDExMy4zODZ8MA==)' />
<polyline points='30.59,28.63 33.33,28.63 ' style='stroke-width: 1.07; stroke: #333333; stroke-linecap: butt;' clip-path='url(#cpMHwxNzAuMDc5fDExMy4zODZ8MA==)' />
<polyline points='33.33,86.58 164.60,86.58 ' style='stroke-width: 1.07; stroke-linecap: butt;' clip-path='url(#cpMHwxNzAuMDc5fDExMy4zODZ8MA==)' />
<polyline points='52.45,89.32 52.45,86.58 ' style='stroke-width: 1.07; stroke: #333333; stroke-linecap: butt;' clip-path='url(#cpMHwxNzAuMDc5fDExMy4zODZ8MA==)' />
<polyline points='78.29,89.32 78.29,86.58 ' style='stroke-width: 1.07; stroke: #333333; stroke-linecap: butt;' clip-path='url(#cpMHwxNzAuMDc5fDExMy4zODZ8MA==)' />
<polyline points='104.13,89.32 104.13,86.58 ' style='stroke-width: 1.07; stroke: #333333; stroke-linecap: butt;' clip-path='url(#cpMHwxNzAuMDc5fDExMy4zODZ8MA==)' />
<polyline points='129.97,89.32 129.97,86.58 ' style='stroke-width: 1.07; stroke: #333333; stroke-linecap: butt;' clip-path='url(#cpMHwxNzAuMDc5fDExMy4zODZ8MA==)' />
<polyline points='155.81,89.32 155.81,86.58 ' style='stroke-width: 1.07; stroke: #333333; stroke-linecap: butt;' clip-path='url(#cpMHwxNzAuMDc5fDExMy4zODZ8MA==)' />
<g clip-path='url(#cpMHwxNzAuMDc5fDExMy4zODZ8MA==)'><text x='49.11' y='95.81' style='font-size: 5.60px; fill: #4D4D4D; font-family: Arial;' textLength='6.67px' lengthAdjust='spacingAndGlyphs'>10</text></g>
<g clip-path='url(#cpMHwxNzAuMDc5fDExMy4zODZ8MA==)'><text x='74.95' y='95.81' style='font-size: 5.60px; fill: #4D4D4D; font-family: Arial;' textLength='6.67px' lengthAdjust='spacingAndGlyphs'>15</text></g>
<g clip-path='url(#cpMHwxNzAuMDc5fDExMy4zODZ8MA==)'><text x='100.79' y='95.81' style='font-size: 5.60px; fill: #4D4D4D; font-family: Arial;' textLength='6.67px' lengthAdjust='spacingAndGlyphs'>20</text></g>
<g clip-path='url(#cpMHwxNzAuMDc5fDExMy4zODZ8MA==)'><text x='126.64' y='95.81' style='font-size: 5.60px; fill: #4D4D4D; font-family: Arial;' textLength='6.67px' lengthAdjust='spacingAndGlyphs'>25</text></g>
<g clip-path='url(#cpMHwxNzAuMDc5fDExMy4zODZ8MA==)'><text x='152.48' y='95.81' style='font-size: 5.60px; fill: #4D4D4D; font-family: Arial;' textLength='6.67px' lengthAdjust='spacingAndGlyphs'>30</text></g>
<g clip-path='url(#cpMHwxNzAuMDc5fDExMy4zODZ8MA==)'><text x='64.45' y='105.38' style='font-size: 6.00px; font-family: Arial;' textLength='69.03px' lengthAdjust='spacingAndGlyphs'>Motive repetitions (length)</text></g>
<g clip-path='url(#cpMHwxNzAuMDc5fDExMy4zODZ8MA==)'><text transform='translate(9.78,83.83) rotate(-90)' style='font-size: 6.00px; font-family: Arial;' textLength='61.02px' lengthAdjust='spacingAndGlyphs'>Motive occurrences (#)</text></g>
<line x1='81.96' y1='24.79' x2='95.79' y2='24.79' style='stroke-width: 1.49; stroke: #F8766D; stroke-linecap: butt;' clip-path='url(#cpMHwxNzAuMDc5fDExMy4zODZ8MA==)' />
<line x1='81.96' y1='31.61' x2='95.79' y2='31.61' style='stroke-width: 1.49; stroke: #BEBEBE; stroke-linecap: butt;' clip-path='url(#cpMHwxNzAuMDc5fDExMy4zODZ8MA==)' />
<line x1='81.96' y1='38.44' x2='95.79' y2='38.44' style='stroke-width: 1.49; stroke: #619CFF; stroke-linecap: butt;' clip-path='url(#cpMHwxNzAuMDc5fDExMy4zODZ8MA==)' />
<g clip-path='url(#cpMHwxNzAuMDc5fDExMy4zODZ8MA==)'><text x='100.50' y='26.93' style='font-size: 5.60px; font-family: Arial;' textLength='69.69px' lengthAdjust='spacingAndGlyphs'>RNAs enriched in vesicles</text></g>
<g clip-path='url(#cpMHwxNzAuMDc5fDExMy4zODZ8MA==)'><text x='100.50' y='33.76' style='font-size: 5.60px; font-family: Arial;' textLength='53.37px' lengthAdjust='spacingAndGlyphs'>Random sequences</text></g>
<g clip-path='url(#cpMHwxNzAuMDc5fDExMy4zODZ8MA==)'><text x='100.50' y='40.59' style='font-size: 5.60px; font-family: Arial;' textLength='64.70px' lengthAdjust='spacingAndGlyphs'>Random genes samples</text></g>
<g clip-path='url(#cpMHwxNzAuMDc5fDExMy4zODZ8MA==)'><text x='37.29' y='10.57' style='font-size: 7.20px; font-family: Arial;' textLength='64.17px' lengthAdjust='spacingAndGlyphs'>([ATGC][AT][ATGC])</text></g>
<g clip-path='url(#cpMHwxNzAuMDc5fDExMy4zODZ8MA==)'><text x='101.46' y='11.84' style='font-size: 5.04px; font-family: Arial;' textLength='2.78px' lengthAdjust='spacingAndGlyphs'>n</text></g>
<g clip-path='url(#cpMHwxNzAuMDc5fDExMy4zODZ8MA==)'><text x='104.24' y='10.57' style='font-size: 7.20px; font-family: Cambria;' textLength='1.54px' lengthAdjust='spacingAndGlyphs'> </text></g>
<g clip-path='url(#cpMHwxNzAuMDc5fDExMy4zODZ8MA==)'><text x='105.78' y='10.57' style='font-size: 7.20px; font-family: Arial;' textLength='54.86px' lengthAdjust='spacingAndGlyphs'>motive repetitions</text></g>
</svg>
