<?xml version='1.0' encoding='UTF-8' ?>
<svg xmlns='http://www.w3.org/2000/svg' xmlns:xlink='http://www.w3.org/1999/xlink' viewBox='0 0 170.08 113.39'>
<defs>
  <style type='text/css'><![CDATA[
    line, polyline, path, rect, circle {
      fill: none;
      stroke: #000000;
      stroke-linecap: round;
      stroke-linejoin: round;
      stroke-miterlimit: 10.00;
    }
  ]]></style>
</defs>
<rect width='100%' height='100%' style='stroke: none; fill: #FFFFFF;'/>
<rect x='0.00' y='0.00' width='170.08' height='113.39' style='stroke-width: 1.07; stroke: #FFFFFF; fill: #FFFFFF;' />
<defs>
  <clipPath id='cpMzMuMzI2NXwxNjQuNTk5fDg2LjU3ODl8MjAuMDUyNw=='>
    <rect x='33.33' y='20.05' width='131.27' height='66.53' />
  </clipPath>
</defs>
<line x1='31.78' y1='25.73' x2='31.78' y2='25.73' style='stroke-width: 2.13; stroke: #F8766D; stroke-opacity: 0.60; stroke-linecap: butt;' clip-path='url(#cpMzMuMzI2NXwxNjQuNTk5fDg2LjU3ODl8MjAuMDUyNw==)' />
<line x1='36.94' y1='29.07' x2='36.94' y2='29.07' style='stroke-width: 2.13; stroke: #F8766D; stroke-opacity: 0.60; stroke-linecap: butt;' clip-path='url(#cpMzMuMzI2NXwxNjQuNTk5fDg2LjU3ODl8MjAuMDUyNw==)' />
<line x1='42.11' y1='32.37' x2='42.11' y2='32.37' style='stroke-width: 2.13; stroke: #F8766D; stroke-opacity: 0.60; stroke-linecap: butt;' clip-path='url(#cpMzMuMzI2NXwxNjQuNTk5fDg2LjU3ODl8MjAuMDUyNw==)' />
<line x1='47.28' y1='34.90' x2='47.28' y2='34.90' style='stroke-width: 2.13; stroke: #F8766D; stroke-opacity: 0.60; stroke-linecap: butt;' clip-path='url(#cpMzMuMzI2NXwxNjQuNTk5fDg2LjU3ODl8MjAuMDUyNw==)' />
<line x1='52.45' y1='37.95' x2='52.45' y2='37.95' style='stroke-width: 2.13; stroke: #F8766D; stroke-opacity: 0.60; stroke-linecap: butt;' clip-path='url(#cpMzMuMzI2NXwxNjQuNTk5fDg2LjU3ODl8MjAuMDUyNw==)' />
<line x1='57.62' y1='40.99' x2='57.62' y2='40.99' style='stroke-width: 2.13; stroke: #F8766D; stroke-opacity: 0.60; stroke-linecap: butt;' clip-path='url(#cpMzMuMzI2NXwxNjQuNTk5fDg2LjU3ODl8MjAuMDUyNw==)' />
<line x1='62.79' y1='44.17' x2='62.79' y2='44.17' style='stroke-width: 2.13; stroke: #F8766D; stroke-opacity: 0.60; stroke-linecap: butt;' clip-path='url(#cpMzMuMzI2NXwxNjQuNTk5fDg2LjU3ODl8MjAuMDUyNw==)' />
<line x1='67.95' y1='49.13' x2='67.95' y2='49.13' style='stroke-width: 2.13; stroke: #F8766D; stroke-opacity: 0.60; stroke-linecap: butt;' clip-path='url(#cpMzMuMzI2NXwxNjQuNTk5fDg2LjU3ODl8MjAuMDUyNw==)' />
<line x1='73.12' y1='51.18' x2='73.12' y2='51.18' style='stroke-width: 2.13; stroke: #F8766D; stroke-opacity: 0.60; stroke-linecap: butt;' clip-path='url(#cpMzMuMzI2NXwxNjQuNTk5fDg2LjU3ODl8MjAuMDUyNw==)' />
<line x1='78.29' y1='53.24' x2='78.29' y2='53.24' style='stroke-width: 2.13; stroke: #F8766D; stroke-opacity: 0.60; stroke-linecap: butt;' clip-path='url(#cpMzMuMzI2NXwxNjQuNTk5fDg2LjU3ODl8MjAuMDUyNw==)' />
<line x1='83.46' y1='53.24' x2='83.46' y2='53.24' style='stroke-width: 2.13; stroke: #F8766D; stroke-opacity: 0.60; stroke-linecap: butt;' clip-path='url(#cpMzMuMzI2NXwxNjQuNTk5fDg2LjU3ODl8MjAuMDUyNw==)' />
<line x1='88.63' y1='56.74' x2='88.63' y2='56.74' style='stroke-width: 2.13; stroke: #F8766D; stroke-opacity: 0.60; stroke-linecap: butt;' clip-path='url(#cpMzMuMzI2NXwxNjQuNTk5fDg2LjU3ODl8MjAuMDUyNw==)' />
<line x1='93.79' y1='60.25' x2='93.79' y2='60.25' style='stroke-width: 2.13; stroke: #F8766D; stroke-opacity: 0.60; stroke-linecap: butt;' clip-path='url(#cpMzMuMzI2NXwxNjQuNTk5fDg2LjU3ODl8MjAuMDUyNw==)' />
<line x1='98.96' y1='86.58' x2='98.96' y2='86.58' style='stroke-width: 2.13; stroke: #F8766D; stroke-opacity: 0.60; stroke-linecap: butt;' clip-path='url(#cpMzMuMzI2NXwxNjQuNTk5fDg2LjU3ODl8MjAuMDUyNw==)' />
<line x1='104.13' y1='86.58' x2='104.13' y2='86.58' style='stroke-width: 2.13; stroke: #F8766D; stroke-opacity: 0.60; stroke-linecap: butt;' clip-path='url(#cpMzMuMzI2NXwxNjQuNTk5fDg2LjU3ODl8MjAuMDUyNw==)' />
<line x1='109.30' y1='86.58' x2='109.30' y2='86.58' style='stroke-width: 2.13; stroke: #F8766D; stroke-opacity: 0.60; stroke-linecap: butt;' clip-path='url(#cpMzMuMzI2NXwxNjQuNTk5fDg2LjU3ODl8MjAuMDUyNw==)' />
<line x1='114.47' y1='86.58' x2='114.47' y2='86.58' style='stroke-width: 2.13; stroke: #F8766D; stroke-opacity: 0.60; stroke-linecap: butt;' clip-path='url(#cpMzMuMzI2NXwxNjQuNTk5fDg2LjU3ODl8MjAuMDUyNw==)' />
<line x1='119.64' y1='86.58' x2='119.64' y2='86.58' style='stroke-width: 2.13; stroke: #F8766D; stroke-opacity: 0.60; stroke-linecap: butt;' clip-path='url(#cpMzMuMzI2NXwxNjQuNTk5fDg2LjU3ODl8MjAuMDUyNw==)' />
<line x1='124.80' y1='86.58' x2='124.80' y2='86.58' style='stroke-width: 2.13; stroke: #F8766D; stroke-opacity: 0.60; stroke-linecap: butt;' clip-path='url(#cpMzMuMzI2NXwxNjQuNTk5fDg2LjU3ODl8MjAuMDUyNw==)' />
<line x1='129.97' y1='86.58' x2='129.97' y2='86.58' style='stroke-width: 2.13; stroke: #F8766D; stroke-opacity: 0.60; stroke-linecap: butt;' clip-path='url(#cpMzMuMzI2NXwxNjQuNTk5fDg2LjU3ODl8MjAuMDUyNw==)' />
<line x1='135.14' y1='86.58' x2='135.14' y2='86.58' style='stroke-width: 2.13; stroke: #F8766D; stroke-opacity: 0.60; stroke-linecap: butt;' clip-path='url(#cpMzMuMzI2NXwxNjQuNTk5fDg2LjU3ODl8MjAuMDUyNw==)' />
<line x1='140.31' y1='86.58' x2='140.31' y2='86.58' style='stroke-width: 2.13; stroke: #F8766D; stroke-opacity: 0.60; stroke-linecap: butt;' clip-path='url(#cpMzMuMzI2NXwxNjQuNTk5fDg2LjU3ODl8MjAuMDUyNw==)' />
<line x1='145.48' y1='86.58' x2='145.48' y2='86.58' style='stroke-width: 2.13; stroke: #F8766D; stroke-opacity: 0.60; stroke-linecap: butt;' clip-path='url(#cpMzMuMzI2NXwxNjQuNTk5fDg2LjU3ODl8MjAuMDUyNw==)' />
<line x1='150.65' y1='86.58' x2='150.65' y2='86.58' style='stroke-width: 2.13; stroke: #F8766D; stroke-opacity: 0.60; stroke-linecap: butt;' clip-path='url(#cpMzMuMzI2NXwxNjQuNTk5fDg2LjU3ODl8MjAuMDUyNw==)' />
<line x1='155.81' y1='86.58' x2='155.81' y2='86.58' style='stroke-width: 2.13; stroke: #F8766D; stroke-opacity: 0.60; stroke-linecap: butt;' clip-path='url(#cpMzMuMzI2NXwxNjQuNTk5fDg2LjU3ODl8MjAuMDUyNw==)' />
<line x1='160.98' y1='86.58' x2='160.98' y2='86.58' style='stroke-width: 2.13; stroke: #F8766D; stroke-opacity: 0.60; stroke-linecap: butt;' clip-path='url(#cpMzMuMzI2NXwxNjQuNTk5fDg2LjU3ODl8MjAuMDUyNw==)' />
<line x1='166.15' y1='86.58' x2='166.15' y2='86.58' style='stroke-width: 2.13; stroke: #F8766D; stroke-opacity: 0.60; stroke-linecap: butt;' clip-path='url(#cpMzMuMzI2NXwxNjQuNTk5fDg2LjU3ODl8MjAuMDUyNw==)' />
<line x1='31.78' y1='25.90' x2='31.78' y2='25.61' style='stroke-width: 2.13; stroke: #BEBEBE; stroke-opacity: 0.60; stroke-linecap: butt;' clip-path='url(#cpMzMuMzI2NXwxNjQuNTk5fDg2LjU3ODl8MjAuMDUyNw==)' />
<line x1='36.94' y1='29.33' x2='36.94' y2='28.90' style='stroke-width: 2.13; stroke: #BEBEBE; stroke-opacity: 0.60; stroke-linecap: butt;' clip-path='url(#cpMzMuMzI2NXwxNjQuNTk5fDg2LjU3ODl8MjAuMDUyNw==)' />
<line x1='42.11' y1='32.83' x2='42.11' y2='32.27' style='stroke-width: 2.13; stroke: #BEBEBE; stroke-opacity: 0.60; stroke-linecap: butt;' clip-path='url(#cpMzMuMzI2NXwxNjQuNTk5fDg2LjU3ODl8MjAuMDUyNw==)' />
<line x1='47.28' y1='36.47' x2='47.28' y2='35.69' style='stroke-width: 2.13; stroke: #BEBEBE; stroke-opacity: 0.60; stroke-linecap: butt;' clip-path='url(#cpMzMuMzI2NXwxNjQuNTk5fDg2LjU3ODl8MjAuMDUyNw==)' />
<line x1='52.45' y1='40.29' x2='52.45' y2='39.06' style='stroke-width: 2.13; stroke: #BEBEBE; stroke-opacity: 0.60; stroke-linecap: butt;' clip-path='url(#cpMzMuMzI2NXwxNjQuNTk5fDg2LjU3ODl8MjAuMDUyNw==)' />
<line x1='57.62' y1='44.17' x2='57.62' y2='42.43' style='stroke-width: 2.13; stroke: #BEBEBE; stroke-opacity: 0.60; stroke-linecap: butt;' clip-path='url(#cpMzMuMzI2NXwxNjQuNTk5fDg2LjU3ODl8MjAuMDUyNw==)' />
<line x1='62.79' y1='48.56' x2='62.79' y2='45.58' style='stroke-width: 2.13; stroke: #BEBEBE; stroke-opacity: 0.60; stroke-linecap: butt;' clip-path='url(#cpMzMuMzI2NXwxNjQuNTk5fDg2LjU3ODl8MjAuMDUyNw==)' />
<line x1='67.95' y1='52.96' x2='67.95' y2='48.57' style='stroke-width: 2.13; stroke: #BEBEBE; stroke-opacity: 0.60; stroke-linecap: butt;' clip-path='url(#cpMzMuMzI2NXwxNjQuNTk5fDg2LjU3ODl8MjAuMDUyNw==)' />
<line x1='73.12' y1='58.12' x2='73.12' y2='51.80' style='stroke-width: 2.13; stroke: #BEBEBE; stroke-opacity: 0.60; stroke-linecap: butt;' clip-path='url(#cpMzMuMzI2NXwxNjQuNTk5fDg2LjU3ODl8MjAuMDUyNw==)' />
<line x1='78.29' y1='66.03' x2='78.29' y2='54.83' style='stroke-width: 2.13; stroke: #BEBEBE; stroke-opacity: 0.60; stroke-linecap: butt;' clip-path='url(#cpMzMuMzI2NXwxNjQuNTk5fDg2LjU3ODl8MjAuMDUyNw==)' />
<line x1='114.47' y1='86.58' x2='114.47' y2='86.58' style='stroke-width: 2.13; stroke: #BEBEBE; stroke-opacity: 0.60; stroke-linecap: butt;' clip-path='url(#cpMzMuMzI2NXwxNjQuNTk5fDg2LjU3ODl8MjAuMDUyNw==)' />
<line x1='119.64' y1='86.58' x2='119.64' y2='86.58' style='stroke-width: 2.13; stroke: #BEBEBE; stroke-opacity: 0.60; stroke-linecap: butt;' clip-path='url(#cpMzMuMzI2NXwxNjQuNTk5fDg2LjU3ODl8MjAuMDUyNw==)' />
<line x1='124.80' y1='86.58' x2='124.80' y2='86.58' style='stroke-width: 2.13; stroke: #BEBEBE; stroke-opacity: 0.60; stroke-linecap: butt;' clip-path='url(#cpMzMuMzI2NXwxNjQuNTk5fDg2LjU3ODl8MjAuMDUyNw==)' />
<line x1='129.97' y1='86.58' x2='129.97' y2='86.58' style='stroke-width: 2.13; stroke: #BEBEBE; stroke-opacity: 0.60; stroke-linecap: butt;' clip-path='url(#cpMzMuMzI2NXwxNjQuNTk5fDg2LjU3ODl8MjAuMDUyNw==)' />
<line x1='135.14' y1='86.58' x2='135.14' y2='86.58' style='stroke-width: 2.13; stroke: #BEBEBE; stroke-opacity: 0.60; stroke-linecap: butt;' clip-path='url(#cpMzMuMzI2NXwxNjQuNTk5fDg2LjU3ODl8MjAuMDUyNw==)' />
<line x1='140.31' y1='86.58' x2='140.31' y2='86.58' style='stroke-width: 2.13; stroke: #BEBEBE; stroke-opacity: 0.60; stroke-linecap: butt;' clip-path='url(#cpMzMuMzI2NXwxNjQuNTk5fDg2LjU3ODl8MjAuMDUyNw==)' />
<line x1='145.48' y1='86.58' x2='145.48' y2='86.58' style='stroke-width: 2.13; stroke: #BEBEBE; stroke-opacity: 0.60; stroke-linecap: butt;' clip-path='url(#cpMzMuMzI2NXwxNjQuNTk5fDg2LjU3ODl8MjAuMDUyNw==)' />
<line x1='150.65' y1='86.58' x2='150.65' y2='86.58' style='stroke-width: 2.13; stroke: #BEBEBE; stroke-opacity: 0.60; stroke-linecap: butt;' clip-path='url(#cpMzMuMzI2NXwxNjQuNTk5fDg2LjU3ODl8MjAuMDUyNw==)' />
<line x1='155.81' y1='86.58' x2='155.81' y2='86.58' style='stroke-width: 2.13; stroke: #BEBEBE; stroke-opacity: 0.60; stroke-linecap: butt;' clip-path='url(#cpMzMuMzI2NXwxNjQuNTk5fDg2LjU3ODl8MjAuMDUyNw==)' />
<line x1='160.98' y1='86.58' x2='160.98' y2='86.58' style='stroke-width: 2.13; stroke: #BEBEBE; stroke-opacity: 0.60; stroke-linecap: butt;' clip-path='url(#cpMzMuMzI2NXwxNjQuNTk5fDg2LjU3ODl8MjAuMDUyNw==)' />
<line x1='166.15' y1='86.58' x2='166.15' y2='86.58' style='stroke-width: 2.13; stroke: #BEBEBE; stroke-opacity: 0.60; stroke-linecap: butt;' clip-path='url(#cpMzMuMzI2NXwxNjQuNTk5fDg2LjU3ODl8MjAuMDUyNw==)' />
<line x1='31.78' y1='23.68' x2='31.78' y2='23.08' style='stroke-width: 2.13; stroke: #619CFF; stroke-opacity: 0.60; stroke-linecap: butt;' clip-path='url(#cpMzMuMzI2NXwxNjQuNTk5fDg2LjU3ODl8MjAuMDUyNw==)' />
<line x1='36.94' y1='26.79' x2='36.94' y2='26.14' style='stroke-width: 2.13; stroke: #619CFF; stroke-opacity: 0.60; stroke-linecap: butt;' clip-path='url(#cpMzMuMzI2NXwxNjQuNTk5fDg2LjU3ODl8MjAuMDUyNw==)' />
<line x1='42.11' y1='29.98' x2='42.11' y2='29.25' style='stroke-width: 2.13; stroke: #619CFF; stroke-opacity: 0.60; stroke-linecap: butt;' clip-path='url(#cpMzMuMzI2NXwxNjQuNTk5fDg2LjU3ODl8MjAuMDUyNw==)' />
<line x1='47.28' y1='33.13' x2='47.28' y2='32.23' style='stroke-width: 2.13; stroke: #619CFF; stroke-opacity: 0.60; stroke-linecap: butt;' clip-path='url(#cpMzMuMzI2NXwxNjQuNTk5fDg2LjU3ODl8MjAuMDUyNw==)' />
<line x1='52.45' y1='36.34' x2='52.45' y2='35.14' style='stroke-width: 2.13; stroke: #619CFF; stroke-opacity: 0.60; stroke-linecap: butt;' clip-path='url(#cpMzMuMzI2NXwxNjQuNTk5fDg2LjU3ODl8MjAuMDUyNw==)' />
<line x1='57.62' y1='39.41' x2='57.62' y2='37.82' style='stroke-width: 2.13; stroke: #619CFF; stroke-opacity: 0.60; stroke-linecap: butt;' clip-path='url(#cpMzMuMzI2NXwxNjQuNTk5fDg2LjU3ODl8MjAuMDUyNw==)' />
<line x1='62.79' y1='42.24' x2='62.79' y2='40.36' style='stroke-width: 2.13; stroke: #619CFF; stroke-opacity: 0.60; stroke-linecap: butt;' clip-path='url(#cpMzMuMzI2NXwxNjQuNTk5fDg2LjU3ODl8MjAuMDUyNw==)' />
<line x1='67.95' y1='45.29' x2='67.95' y2='43.12' style='stroke-width: 2.13; stroke: #619CFF; stroke-opacity: 0.60; stroke-linecap: butt;' clip-path='url(#cpMzMuMzI2NXwxNjQuNTk5fDg2LjU3ODl8MjAuMDUyNw==)' />
<line x1='73.12' y1='48.57' x2='73.12' y2='45.66' style='stroke-width: 2.13; stroke: #619CFF; stroke-opacity: 0.60; stroke-linecap: butt;' clip-path='url(#cpMzMuMzI2NXwxNjQuNTk5fDg2LjU3ODl8MjAuMDUyNw==)' />
<line x1='78.29' y1='51.44' x2='78.29' y2='47.65' style='stroke-width: 2.13; stroke: #619CFF; stroke-opacity: 0.60; stroke-linecap: butt;' clip-path='url(#cpMzMuMzI2NXwxNjQuNTk5fDg2LjU3ODl8MjAuMDUyNw==)' />
<line x1='83.46' y1='54.08' x2='83.46' y2='49.63' style='stroke-width: 2.13; stroke: #619CFF; stroke-opacity: 0.60; stroke-linecap: butt;' clip-path='url(#cpMzMuMzI2NXwxNjQuNTk5fDg2LjU3ODl8MjAuMDUyNw==)' />
<line x1='88.63' y1='56.26' x2='88.63' y2='51.04' style='stroke-width: 2.13; stroke: #619CFF; stroke-opacity: 0.60; stroke-linecap: butt;' clip-path='url(#cpMzMuMzI2NXwxNjQuNTk5fDg2LjU3ODl8MjAuMDUyNw==)' />
<line x1='93.79' y1='62.65' x2='93.79' y2='53.69' style='stroke-width: 2.13; stroke: #619CFF; stroke-opacity: 0.60; stroke-linecap: butt;' clip-path='url(#cpMzMuMzI2NXwxNjQuNTk5fDg2LjU3ODl8MjAuMDUyNw==)' />
<line x1='98.96' y1='78.36' x2='98.96' y2='55.88' style='stroke-width: 2.13; stroke: #619CFF; stroke-opacity: 0.60; stroke-linecap: butt;' clip-path='url(#cpMzMuMzI2NXwxNjQuNTk5fDg2LjU3ODl8MjAuMDUyNw==)' />
<polyline points='31.78,25.73 36.94,29.07 42.11,32.37 47.28,34.90 52.45,37.95 57.62,40.99 62.79,44.17 67.95,49.13 73.12,51.18 78.29,53.24 83.46,53.24 88.63,56.74 93.79,60.25 98.96,86.58 104.13,86.58 109.30,86.58 114.47,86.58 119.64,86.58 124.80,86.58 129.97,86.58 135.14,86.58 140.31,86.58 145.48,86.58 150.65,86.58 155.81,86.58 160.98,86.58 166.15,86.58 ' style='stroke-width: 1.49; stroke: #F8766D; stroke-linecap: butt;' clip-path='url(#cpMzMuMzI2NXwxNjQuNTk5fDg2LjU3ODl8MjAuMDUyNw==)' />
<polyline points='31.78,25.75 36.94,29.11 42.11,32.54 47.28,36.06 52.45,39.64 57.62,43.23 62.79,46.85 67.95,50.30 73.12,54.03 78.29,57.81 83.46,61.64 88.63,64.07 93.79,68.93 98.96,75.41 104.13,80.05 109.30,83.55 114.47,86.58 119.64,86.58 124.80,86.58 129.97,86.58 135.14,86.58 140.31,86.58 145.48,86.58 150.65,86.58 155.81,86.58 160.98,86.58 166.15,86.58 ' style='stroke-width: 1.49; stroke: #BEBEBE; stroke-linecap: butt;' clip-path='url(#cpMzMuMzI2NXwxNjQuNTk5fDg2LjU3ODl8MjAuMDUyNw==)' />
<polyline points='31.78,23.37 36.94,26.45 42.11,29.60 47.28,32.66 52.45,35.71 57.62,38.55 62.79,41.21 67.95,44.09 73.12,46.91 78.29,49.20 83.46,51.38 88.63,53.00 93.79,56.40 98.96,59.33 104.13,61.57 109.30,63.19 114.47,63.19 119.64,65.86 124.80,67.27 129.97,70.20 135.14,74.49 140.31,74.49 145.48,74.49 150.65,74.49 155.81,78.00 160.98,78.00 166.15,78.00 ' style='stroke-width: 1.49; stroke: #619CFF; stroke-linecap: butt;' clip-path='url(#cpMzMuMzI2NXwxNjQuNTk5fDg2LjU3ODl8MjAuMDUyNw==)' />
<defs>
  <clipPath id='cpMHwxNzAuMDc5fDExMy4zODZ8MA=='>
    <rect x='0.00' y='0.00' width='170.08' height='113.39' />
  </clipPath>
</defs>
<polyline points='33.33,86.58 33.33,20.05 ' style='stroke-width: 1.07; stroke-linecap: butt;' clip-path='url(#cpMHwxNzAuMDc5fDExMy4zODZ8MA==)' />
<g clip-path='url(#cpMHwxNzAuMDc5fDExMy4zODZ8MA==)'><text x='25.06' y='62.40' style='font-size: 5.60px; fill: #4D4D4D; font-family: Arial;' textLength='3.34px' lengthAdjust='spacingAndGlyphs'>1</text></g>
<g clip-path='url(#cpMHwxNzAuMDc5fDExMy4zODZ8MA==)'><text x='21.72' y='50.75' style='font-size: 5.60px; fill: #4D4D4D; font-family: Arial;' textLength='6.67px' lengthAdjust='spacingAndGlyphs'>10</text></g>
<g clip-path='url(#cpMHwxNzAuMDc5fDExMy4zODZ8MA==)'><text x='18.38' y='39.10' style='font-size: 5.60px; fill: #4D4D4D; font-family: Arial;' textLength='10.01px' lengthAdjust='spacingAndGlyphs'>100</text></g>
<g clip-path='url(#cpMHwxNzAuMDc5fDExMy4zODZ8MA==)'><text x='15.05' y='27.44' style='font-size: 5.60px; fill: #4D4D4D; font-family: Arial;' textLength='13.35px' lengthAdjust='spacingAndGlyphs'>1000</text></g>
<polyline points='30.59,60.25 33.33,60.25 ' style='stroke-width: 1.07; stroke: #333333; stroke-linecap: butt;' clip-path='url(#cpMHwxNzAuMDc5fDExMy4zODZ8MA==)' />
<polyline points='30.59,48.60 33.33,48.60 ' style='stroke-width: 1.07; stroke: #333333; stroke-linecap: butt;' clip-path='url(#cpMHwxNzAuMDc5fDExMy4zODZ8MA==)' />
<polyline points='30.59,36.95 33.33,36.95 ' style='stroke-width: 1.07; stroke: #333333; stroke-linecap: butt;' clip-path='url(#cpMHwxNzAuMDc5fDExMy4zODZ8MA==)' />
<polyline points='30.59,25.30 33.33,25.30 ' style='stroke-width: 1.07; stroke: #333333; stroke-linecap: butt;' clip-path='url(#cpMHwxNzAuMDc5fDExMy4zODZ8MA==)' />
<polyline points='33.33,86.58 164.60,86.58 ' style='stroke-width: 1.07; stroke-linecap: butt;' clip-path='url(#cpMHwxNzAuMDc5fDExMy4zODZ8MA==)' />
<polyline points='52.45,89.32 52.45,86.58 ' style='stroke-width: 1.07; stroke: #333333; stroke-linecap: butt;' clip-path='url(#cpMHwxNzAuMDc5fDExMy4zODZ8MA==)' />
<polyline points='78.29,89.32 78.29,86.58 ' style='stroke-width: 1.07; stroke: #333333; stroke-linecap: butt;' clip-path='url(#cpMHwxNzAuMDc5fDExMy4zODZ8MA==)' />
<polyline points='104.13,89.32 104.13,86.58 ' style='stroke-width: 1.07; stroke: #333333; stroke-linecap: butt;' clip-path='url(#cpMHwxNzAuMDc5fDExMy4zODZ8MA==)' />
<polyline points='129.97,89.32 129.97,86.58 ' style='stroke-width: 1.07; stroke: #333333; stroke-linecap: butt;' clip-path='url(#cpMHwxNzAuMDc5fDExMy4zODZ8MA==)' />
<polyline points='155.81,89.32 155.81,86.58 ' style='stroke-width: 1.07; stroke: #333333; stroke-linecap: butt;' clip-path='url(#cpMHwxNzAuMDc5fDExMy4zODZ8MA==)' />
<g clip-path='url(#cpMHwxNzAuMDc5fDExMy4zODZ8MA==)'><text x='49.11' y='95.81' style='font-size: 5.60px; fill: #4D4D4D; font-family: Arial;' textLength='6.67px' lengthAdjust='spacingAndGlyphs'>10</text></g>
<g clip-path='url(#cpMHwxNzAuMDc5fDExMy4zODZ8MA==)'><text x='74.95' y='95.81' style='font-size: 5.60px; fill: #4D4D4D; font-family: Arial;' textLength='6.67px' lengthAdjust='spacingAndGlyphs'>15</text></g>
<g clip-path='url(#cpMHwxNzAuMDc5fDExMy4zODZ8MA==)'><text x='100.79' y='95.81' style='font-size: 5.60px; fill: #4D4D4D; font-family: Arial;' textLength='6.67px' lengthAdjust='spacingAndGlyphs'>20</text></g>
<g clip-path='url(#cpMHwxNzAuMDc5fDExMy4zODZ8MA==)'><text x='126.64' y='95.81' style='font-size: 5.60px; fill: #4D4D4D; font-family: Arial;' textLength='6.67px' lengthAdjust='spacingAndGlyphs'>25</text></g>
<g clip-path='url(#cpMHwxNzAuMDc5fDExMy4zODZ8MA==)'><text x='152.48' y='95.81' style='font-size: 5.60px; fill: #4D4D4D; font-family: Arial;' textLength='6.67px' lengthAdjust='spacingAndGlyphs'>30</text></g>
<g clip-path='url(#cpMHwxNzAuMDc5fDExMy4zODZ8MA==)'><text x='64.45' y='105.38' style='font-size: 6.00px; font-family: Arial;' textLength='69.03px' lengthAdjust='spacingAndGlyphs'>Motive repetitions (length)</text></g>
<g clip-path='url(#cpMHwxNzAuMDc5fDExMy4zODZ8MA==)'><text transform='translate(9.78,83.83) rotate(-90)' style='font-size: 6.00px; font-family: Arial;' textLength='61.02px' lengthAdjust='spacingAndGlyphs'>Motive occurrences (#)</text></g>
<line x1='81.96' y1='24.79' x2='95.79' y2='24.79' style='stroke-width: 1.49; stroke: #F8766D; stroke-linecap: butt;' clip-path='url(#cpMHwxNzAuMDc5fDExMy4zODZ8MA==)' />
<line x1='81.96' y1='31.61' x2='95.79' y2='31.61' style='stroke-width: 1.49; stroke: #BEBEBE; stroke-linecap: butt;' clip-path='url(#cpMHwxNzAuMDc5fDExMy4zODZ8MA==)' />
<line x1='81.96' y1='38.44' x2='95.79' y2='38.44' style='stroke-width: 1.49; stroke: #619CFF; stroke-linecap: butt;' clip-path='url(#cpMHwxNzAuMDc5fDExMy4zODZ8MA==)' />
<g clip-path='url(#cpMHwxNzAuMDc5fDExMy4zODZ8MA==)'><text x='100.50' y='26.93' style='font-size: 5.60px; font-family: Arial;' textLength='69.69px' lengthAdjust='spacingAndGlyphs'>RNAs enriched in vesicles</text></g>
<g clip-path='url(#cpMHwxNzAuMDc5fDExMy4zODZ8MA==)'><text x='100.50' y='33.76' style='font-size: 5.60px; font-family: Arial;' textLength='53.37px' lengthAdjust='spacingAndGlyphs'>Random sequences</text></g>
<g clip-path='url(#cpMHwxNzAuMDc5fDExMy4zODZ8MA==)'><text x='100.50' y='40.59' style='font-size: 5.60px; font-family: Arial;' textLength='64.70px' lengthAdjust='spacingAndGlyphs'>Random genes samples</text></g>
<g clip-path='url(#cpMHwxNzAuMDc5fDExMy4zODZ8MA==)'><text x='36.90' y='10.57' style='font-size: 7.20px; font-family: Arial;' textLength='64.94px' lengthAdjust='spacingAndGlyphs'>([ATGC][AC][ATGC])</text></g>
<g clip-path='url(#cpMHwxNzAuMDc5fDExMy4zODZ8MA==)'><text x='101.84' y='11.84' style='font-size: 5.04px; font-family: Arial;' textLength='2.78px' lengthAdjust='spacingAndGlyphs'>n</text></g>
<g clip-path='url(#cpMHwxNzAuMDc5fDExMy4zODZ8MA==)'><text x='104.63' y='10.57' style='font-size: 7.20px; font-family: Cambria;' textLength='1.54px' lengthAdjust='spacingAndGlyphs'> </text></g>
<g clip-path='url(#cpMHwxNzAuMDc5fDExMy4zODZ8MA==)'><text x='106.17' y='10.57' style='font-size: 7.20px; font-family: Arial;' textLength='54.86px' lengthAdjust='spacingAndGlyphs'>motive repetitions</text></g>
</svg>
